%!PS-Adobe-3.0 EPSF-3.0 
%%BoundingBox: 0 0 785 539
%%Pages: 0
%%Creator: LibreOffice 3.3
%%Title: none
%%CreationDate: none
%%LanguageLevel: 2
%%EndComments
%%BeginProlog
%%BeginResource: procset SDRes-Prolog 1.0 0
/b4_inc_state save def
/dict_count countdictstack def
/op_count count 1 sub def
userdict begin
0 setgray 0 setlinecap 1 setlinewidth 0 setlinejoin 10 setmiterlimit[] 0 setdash newpath
/languagelevel where {pop languagelevel 1 ne {false setstrokeadjust false setoverprint} if} if
/bdef {bind def} bind def
/c {setgray} bdef
/l {neg lineto} bdef
/rl {neg rlineto} bdef
/lc {setlinecap} bdef
/lj {setlinejoin} bdef
/lw {setlinewidth} bdef
/ml {setmiterlimit} bdef
/ld {setdash} bdef
/m {neg moveto} bdef
/ct {6 2 roll neg 6 2 roll neg 6 2 roll neg curveto} bdef
/r {rotate} bdef
/t {neg translate} bdef
/s {scale} bdef
/sw {show} bdef
/gs {gsave} bdef
/gr {grestore} bdef
/f {findfont dup length dict begin
{1 index /FID ne {def} {pop pop} ifelse} forall /Encoding ISOLatin1Encoding def
currentdict end /NFont exch definefont pop /NFont findfont} bdef
/p {closepath} bdef
/sf {scalefont setfont} bdef
/ef {eofill}bdef
/pc {closepath stroke}bdef
/ps {stroke}bdef
/pum {matrix currentmatrix}bdef
/pom {setmatrix}bdef
/bs {/aString exch def /nXOfs exch def /nWidth exch def currentpoint nXOfs 0 rmoveto pum nWidth aString stringwidth pop div 1 scale aString show pom moveto} bdef
%%EndResource
%%EndProlog
%%BeginSetup
%%EndSetup
%%Page: 1 1
%%BeginPageSetup
%%EndPageSetup
pum
0.02833 0.02836 s 
0 -19000 t
/tm matrix currentmatrix def
gs
tm setmatrix
-1000 -1000 t 
1 1 s 
1000 1000 m 28699 1000 l 28699 19999 l 1000 19999 l 1000 1000 l eoclip newpath
gs
0 0 m 27699 0 l 27699 18999 l 0 18999 l 0 0 l eoclip newpath
0 lw 1 lj 0.000 c 3500 4000 m  2000 4000 l  2000 3000 l  5000 3000 l  5000 4000 l 
3500 4000 l  pc
pum
2342 3646 t
0.234 c 1961 83 m  1977 79 l  1971 76 1967 72 1965 67 ct 1963 62 1962 57 1962 50 ct 
1962 37 1965 28 1973 22 ct 1981 15 1991 12 2004 12 ct 2013 12 2021 15 2028 19 ct 
2028 40 l  2021 35 2013 33 2004 33 ct 1995 33 1989 34 1987 37 ct 1983 41 1981 45 1981 49 ct 
1981 59 1987 66 2000 70 ct 2005 72 2016 70 2032 66 ct 2032 87 l  1961 103 l 
1961 83 l  p ef
21 -273 m  85 -273 l  86 -270 l  86 -233 l  84 -189 l  81 -78 l  80 -74 l 
80 -71 l  110 -71 l  111 -67 l  111 -41 l  110 -37 l  8 -37 l  7 -41 l 
7 -67 l  8 -71 l  69 -71 l  70 -91 l  74 -219 l  74 -240 l  21 -240 l 
20 -243 l  20 -270 l  p ef
399 -186 m  503 -186 l  504 -182 l  504 -152 l  503 -148 l  399 -148 l 
398 -152 l  398 -182 l  p ef
830 -341 m  839 -341 l  840 -337 l  840 -253 l  881 -253 l  882 -250 l 
882 -152 l  879 -54 l  877 -27 l  876 -20 l  874 -10 l  872 -3 l  869 3 l 
866 7 l  856 7 l  840 -10 l  839 -14 l  839 -47 l  838 -51 l  839 -54 l 
840 -51 l  842 -47 l  856 -34 l  862 -34 l  864 -37 l  866 -44 l  867 -51 l 
870 -132 l  871 -219 l  839 -219 l  836 -159 l  834 -135 l  825 -71 l 
822 -57 l  809 -14 l  808 -14 l  805 -7 l  803 0 l  800 7 l  798 10 l 
797 7 l  797 3 l  792 -14 l  791 -14 l  790 -17 l  793 -27 l  797 -34 l 
806 -54 l  812 -74 l  812 -78 l  816 -94 l  818 -101 l  824 -148 l  828 -196 l 
828 -216 l  794 -216 l  793 -219 l  793 -246 l  794 -250 l  829 -250 l 
829 -337 l  p ef
1240 -334 m  1250 -334 l  1251 -331 l  1251 -155 l  1247 -98 l  1246 -88 l 
1241 -51 l  1237 -34 l  1231 -14 l  1222 7 l  1213 24 l  1212 24 l  1211 20 l 
1211 17 l  1204 -7 l  1205 -10 l  1211 -20 l  1212 -20 l  1216 -27 l  1219 -34 l 
1231 -71 l  1234 -94 l  1239 -155 l  1239 -331 l  p
1191 -327 m  1201 -327 l  1202 -324 l  1202 -132 l  1201 -128 l  1191 -128 l 
1190 -132 l  1190 -324 l  p ef
1671 -368 m  1674 -361 l  1687 -314 l  1686 -310 l  1685 -310 l  1681 -300 l 
1679 -294 l  1677 -300 l  1674 -314 l  1674 -317 l  1666 -344 l  1665 -344 l 
1664 -347 l  1666 -354 l  p
1610 -337 m  1614 -337 l  1619 -334 l  1620 -331 l  1620 -317 l  1615 -253 l 
1615 -250 l  1628 -250 l  1631 -246 l  1635 -240 l  1640 -223 l  1644 -186 l 
1644 -122 l  1643 -94 l  1641 -64 l  1639 -44 l  1636 -24 l  1634 -14 l 
1632 -7 l  1629 0 l  1626 3 l  1618 3 l  1605 -14 l  1603 -17 l  1603 -51 l 
1603 -54 l  1603 -57 l  1606 -54 l  1609 -47 l  1617 -34 l  1623 -34 l 
1625 -37 l  1626 -41 l  1630 -67 l  1633 -122 l  1633 -182 l  1630 -206 l 
1628 -213 l  1625 -216 l  1612 -216 l  1606 -162 l  1589 -27 l  1585 -3 l 
1583 3 l  1577 -10 l  1574 -20 l  1576 -27 l  1578 -37 l  1591 -128 l 
1600 -206 l  1600 -209 l  1594 -209 l  1587 -202 l  1576 -196 l  1575 -199 l 
1576 -202 l  1575 -216 l  1574 -219 l  1574 -229 l  1575 -233 l  1601 -243 l 
1603 -246 l  1609 -321 l  1609 -334 l  p
1660 -334 m  1661 -334 l  1664 -327 l  1673 -294 l  1675 -283 l  1675 -280 l 
1673 -273 l  1669 -263 l  1667 -260 l  1666 -263 l  1666 -270 l  1664 -280 l 
1654 -317 l  1657 -327 l  p
1651 -287 m  1658 -263 l  1658 -260 l  1662 -243 l  1666 -229 l  1679 -159 l 
1680 -152 l  1680 -148 l  1676 -135 l  1673 -128 l  1671 -125 l  1669 -132 l 
1668 -142 l  1661 -189 l  1648 -250 l  1645 -260 l  1644 -260 l  1643 -263 l 
1647 -277 l  p ef
2054 -327 m  2060 -307 l  2059 -304 l  2008 -280 l  1996 -277 l  1994 -273 l 
1994 -202 l  2067 -202 l  2068 -199 l  2068 -175 l  2067 -172 l  2043 -172 l 
2043 -27 l  2077 -27 l  2078 -24 l  2078 0 l  2077 3 l  1961 3 l  1960 0 l 
1960 -24 l  1961 -27 l  1983 -27 l  1983 -300 l  1983 -304 l  1989 -307 l 
2031 -324 l  p
1994 -172 m  2032 -172 l  2032 -27 l  1994 -27 l  p ef
pom

0.000 c 3500 5000 m  2000 5000 l  2000 4000 l  5000 4000 l  5000 5000 l 
3500 5000 l  pc
pum
2325 4646 t
0.234 c 145 -267 m  88 -114 l  201 -114 l  145 -267 l  p
121 -308 m  168 -308 l  286 0 l  242 0 l  214 -79 l  75 -79 l  47 0 l 
3 0 l  121 -308 l  p
83 -380 m  206 -380 l  206 -349 l  83 -349 l  83 -380 l  p ef
647 0 m  606 0 l  606 -126 l  470 -126 l  470 -308 l  511 -308 l  511 -161 l 
647 -161 l  647 0 l  p ef
79 -358 m  87 -358 l  88 -354 l  88 -253 l  106 -273 l  112 -270 l  115 -260 l 
115 -115 l  114 -105 l  111 -94 l  109 -91 l  97 -91 l  94 -94 l  93 -98 l 
92 -115 l  92 -122 l  93 -125 l  104 -125 l  105 -128 l  105 -240 l  104 -236 l 
89 -219 l  88 -219 l  88 -71 l  87 -67 l  79 -67 l  78 -71 l  78 -209 l 
77 -209 l  76 -206 l  67 -196 l  65 -196 l  65 -27 l  66 -20 l  70 -17 l 
99 -17 l  100 -20 l  106 -24 l  108 -24 l  110 -30 l  111 -44 l  111 -78 l 
112 -81 l  114 -81 l  117 -78 l  121 -74 l  122 -71 l  118 -10 l  118 -3 l 
115 7 l  113 10 l  109 14 l  100 17 l  69 17 l  62 14 l  59 10 l  56 0 l 
55 -10 l  55 -186 l  54 -182 l  45 -172 l  44 -172 l  43 -175 l  42 -189 l 
41 -199 l  41 -202 l  42 -206 l  52 -216 l  54 -216 l  55 -219 l  55 -327 l 
56 -331 l  64 -331 l  65 -327 l  65 -229 l  67 -229 l  76 -240 l  78 -243 l 
78 -354 l  p
24 -351 m  32 -351 l  33 -347 l  33 -253 l  49 -253 l  50 -250 l  50 -223 l 
49 -219 l  33 -219 l  33 -71 l  35 -71 l  49 -88 l  50 -91 l  51 -88 l 
52 -78 l  52 -61 l  51 -57 l  10 -7 l  8 -14 l  5 -37 l  7 -44 l  21 -57 l 
23 -57 l  23 -219 l  8 -219 l  7 -223 l  7 -250 l  8 -253 l  23 -253 l 
23 -347 l  p ef
440 -327 m  537 -327 l  538 -324 l  538 -297 l  537 -294 l  450 -294 l 
450 -30 l  540 -30 l  541 -27 l  541 0 l  540 3 l  450 3 l  450 27 l  449 30 l 
440 30 l  439 27 l  439 -324 l  p
510 -283 m  512 -280 l  518 -273 l  519 -270 l  519 -267 l  518 -256 l 
512 -216 l  510 -209 l  508 -196 l  508 -192 l  504 -172 l  502 -165 l 
506 -152 l  507 -152 l  528 -84 l  528 -81 l  521 -57 l  500 -128 l  496 -138 l 
492 -125 l  492 -122 l  481 -88 l  474 -71 l  473 -71 l  470 -64 l  468 -57 l 
465 -51 l  461 -44 l  454 -67 l  456 -74 l  471 -105 l  475 -115 l  487 -152 l 
488 -159 l  488 -162 l  484 -175 l  471 -209 l  470 -209 l  463 -226 l 
460 -236 l  466 -256 l  467 -256 l  493 -189 l  495 -186 l  500 -213 l 
509 -273 l  509 -280 l  p ef
885 -334 m  894 -334 l  895 -331 l  895 -233 l  896 -233 l  944 -253 l 
945 -256 l  949 -256 l  955 -236 l  955 -233 l  954 -226 l  942 -172 l 
923 -105 l  916 -122 l  914 -128 l  921 -152 l  922 -152 l  934 -196 l 
939 -219 l  937 -219 l  895 -199 l  895 -57 l  898 -47 l  903 -44 l  932 -44 l 
945 -47 l  946 -51 l  951 -51 l  952 -47 l  952 -14 l  951 -10 l  937 -7 l 
905 -7 l  896 -10 l  892 -14 l  890 -17 l  886 -30 l  885 -37 l  884 -47 l 
884 -192 l  877 -192 l  861 -182 l  856 -182 l  855 -186 l  855 -213 l 
857 -219 l  881 -229 l  884 -331 l  p ef
1289 -307 m  1290 -307 l  1305 -277 l  1318 -243 l  1318 -240 l  1314 -223 l 
1310 -209 l  1307 -216 l  1302 -233 l  1292 -256 l  1283 -273 l  1282 -277 l 
1282 -280 l  1285 -294 l  p
1365 -263 m  1370 -250 l  1374 -236 l  1374 -233 l  1369 -199 l  1354 -128 l 
1345 -98 l  1327 -54 l  1308 -24 l  1291 -7 l  1290 -7 l  1288 -14 l  1288 -17 l 
1287 -24 l  1285 -34 l  1283 -41 l  1285 -47 l  1289 -47 l  1294 -51 l 
1306 -64 l  1321 -88 l  1323 -94 l  1329 -108 l  1330 -108 l  1334 -118 l 
1349 -169 l  1361 -229 l  1365 -256 l  1364 -260 l  p ef
1741 -341 m  1743 -341 l  1744 -337 l  1748 -334 l  1750 -334 l  1751 -331 l 
1748 -300 l  1747 -294 l  1746 -290 l  1784 -290 l  1789 -277 l  1791 -270 l 
1791 -267 l  1785 -199 l  1777 -142 l  1775 -132 l  1773 -125 l  1771 -115 l 
1771 -111 l  1765 -84 l  1751 -37 l  1734 3 l  1723 20 l  1723 20 l  1718 3 l 
1718 0 l  1716 -3 l  1716 -3 l  1714 -7 l  1716 -10 l  1716 -10 l  1731 -34 l 
1744 -64 l  1756 -105 l  1756 -111 l  1753 -125 l  1740 -169 l  1734 -186 l 
1731 -192 l  1730 -192 l  1727 -182 l  1727 -179 l  1714 -138 l  1709 -125 l 
1703 -145 l  1702 -152 l  1706 -165 l  1707 -165 l  1720 -206 l  1729 -250 l 
1735 -290 l  1739 -327 l  1739 -334 l  p
1741 -253 m  1741 -250 l  1740 -243 l  1738 -236 l  1736 -223 l  1745 -196 l 
1763 -138 l  1765 -145 l  1774 -206 l  1778 -246 l  1778 -256 l  1742 -256 l 
p ef
2127 -186 m  2231 -186 l  2232 -182 l  2232 -152 l  2231 -148 l  2127 -148 l 
2126 -152 l  2126 -182 l  p ef
pom

0.000 c 3500 6000 m  2000 6000 l  2000 5000 l  5000 5000 l  5000 6000 l 
3500 6000 l  pc
pum
3077 5646 t
0.234 c 116 -174 m  158 -174 l  158 -132 l  116 -132 l  116 -174 l  p
77 -252 m  77 -56 l  269 -154 l  77 -252 l  p
42 0 m  42 -308 l  301 -178 l  301 -131 l  42 0 l  p ef
793 -231 m  691 21 l  680 49 670 67 660 75 ct 650 84 636 88 619 88 ct 589 88 l 
589 56 l  611 56 l  621 56 630 54 635 49 ct 641 44 647 32 655 14 ct 680 -51 l 
608 -231 l  648 -231 l  700 -101 l  753 -231 l  793 -231 l  p
599 -195 m  612 -172 618 -146 618 -115 ct 618 -85 612 -59 599 -36 ct 583 -8 561 6 533 6 ct 
504 6 482 -8 466 -35 ct 453 -58 446 -85 446 -115 ct 446 -146 453 -173 466 -196 ct 
482 -223 504 -237 533 -237 ct 561 -237 583 -223 599 -195 ct p
533 -26 m  563 -26 578 -56 578 -115 ct 578 -175 563 -205 533 -205 ct 502 -205 486 -175 486 -115 ct 
486 -56 502 -26 533 -26 ct p ef
pom

0.000 c 3500 7000 m  2000 7000 l  2000 6000 l  5000 6000 l  5000 7000 l 
3500 7000 l  pc
pum
2865 6646 t
0.234 c 52 -220 m  52 -157 l  95 -157 l  109 -157 119 -160 126 -165 ct 133 -170 136 -178 136 -189 ct 
136 -199 133 -207 126 -212 ct 119 -217 109 -220 95 -220 ct 52 -220 l  p
52 -292 m  52 -239 l  91 -239 l  104 -239 114 -241 120 -246 ct 126 -250 130 -256 130 -265 ct 
130 -274 126 -281 120 -285 ct 114 -290 104 -292 91 -292 ct 52 -292 l  p
26 -311 m  93 -311 l  113 -311 129 -307 140 -300 ct 151 -292 156 -282 156 -268 ct 
156 -257 153 -249 147 -242 ct 142 -236 134 -232 123 -231 ct 136 -228 146 -223 153 -215 ct 
160 -208 164 -198 164 -186 ct 164 -171 158 -159 146 -151 ct 134 -142 118 -138 96 -138 ct 
26 -138 l  26 -311 l  p ef
473 -97 m  516 -97 l  516 -45 l  473 -45 l  473 -97 l  p
473 -263 m  516 -263 l  516 -211 l  473 -211 l  473 -263 l  p
702 -9 m  702 -59 690 -95 667 -117 ct 643 -139 609 -150 565 -150 ct 544 -150 l 
544 -308 l  586 -308 l  586 -184 l  622 -184 657 -171 692 -146 ct 726 -121 744 -80 744 -23 ct 
744 0 l  702 0 l  702 -9 l  p ef
1022 -108 m  1013 -156 l  1006 -188 991 -205 967 -205 ct 948 -205 935 -197 926 -182 ct 
916 -163 910 -141 910 -116 ct 910 -85 916 -63 926 -49 ct 936 -34 950 -26 967 -26 ct 
985 -26 999 -41 1009 -70 ct 1022 -108 l  p
1043 -171 m  1063 -232 l  1097 -232 l  1055 -106 l  1063 -61 l  1064 -54 1068 -48 1072 -42 ct 
1078 -36 1083 -32 1087 -32 ct 1106 -32 l  1106 0 l  1083 0 l  1070 0 1058 -6 1046 -17 ct 
1040 -23 1036 -32 1034 -44 ct 1028 -29 1018 -15 1005 -3 ct 999 2 986 5 967 5 ct 
934 5 910 -5 895 -26 ct 878 -48 870 -78 870 -116 ct 870 -156 879 -186 897 -205 ct 
916 -226 939 -237 967 -237 ct 1009 -237 1035 -215 1043 -171 ct p
947 -339 m  1005 -262 l  973 -262 l  906 -339 l  947 -339 l  p ef
pom

0.000 c 3500 8000 m  2000 8000 l  2000 7000 l  5000 7000 l  5000 8000 l 
3500 8000 l  pc
pum
2865 7646 t
0.234 c 73 -232 m  73 -82 l  73 -62 76 -49 80 -42 ct 85 -36 95 -32 110 -32 ct 
128 -32 l  128 0 l  106 0 l  81 0 63 -7 51 -20 ct 40 -33 35 -55 35 -84 ct 34 -232 l 
73 -232 l  p
-6 -316 m  118 -316 l  118 -285 l  -6 -285 l  -6 -316 l  p ef
711 -195 m  696 -195 l  696 -122 l  696 -82 686 -51 666 -31 ct 646 -10 617 0 578 0 ct 
540 0 510 -10 490 -31 ct 470 -50 460 -81 460 -122 ct 460 -153 467 -177 482 -194 ct 
504 -219 529 -231 557 -231 ct 654 -231 l  654 -314 l  696 -314 l  696 -231 l 
711 -231 l  731 -231 748 -225 761 -212 ct 774 -200 781 -182 781 -158 ct 781 -144 l 
749 -144 l  749 -154 l  749 -169 745 -179 739 -185 ct 731 -192 722 -195 711 -195 ct 
p
654 -195 m  566 -195 l  543 -195 525 -187 513 -169 ct 505 -159 502 -144 502 -124 ct 
502 -93 508 -70 520 -56 ct 532 -41 551 -34 578 -34 ct 605 -34 624 -41 636 -56 ct 
648 -70 654 -94 654 -127 ct 654 -195 l  p ef
1282 -170 m  1259 -151 l  1148 -283 l  1171 -302 l  1282 -170 l  p
907 -274 m  992 -42 l  1077 -274 l  907 -274 l  p
1133 -309 m  1015 -1 l  968 -1 l  850 -309 l  1133 -309 l  p ef
pom

0.000 c 3500 9000 m  2000 9000 l  2000 8000 l  5000 8000 l  5000 9000 l 
3500 9000 l  pc
pum
3077 8646 t
0.234 c 272 -285 m  272 -241 l  258 -254 243 -264 228 -270 ct 212 -276 195 -280 177 -280 ct 
142 -280 115 -269 96 -247 ct 77 -226 68 -195 68 -154 ct 68 -113 77 -82 96 -61 ct 
115 -39 142 -28 177 -28 ct 195 -28 212 -32 228 -38 ct 243 -44 258 -54 272 -67 ct 
272 -24 l  258 -14 242 -6 226 -1 ct 210 4 193 6 174 6 ct 128 6 91 -8 64 -37 ct 
37 -65 24 -104 24 -154 ct 24 -203 37 -243 64 -271 ct 91 -300 128 -314 174 -314 ct 
193 -314 210 -312 226 -307 ct 243 -302 258 -294 272 -285 ct p ef
567 -85 m  567 -156 l  682 -156 l  682 -85 l  567 -85 l  p
419 -85 m  419 -156 l  534 -156 l  534 -85 l  419 -85 l  p ef
pom

0.000 c 3500 10000 m  2000 10000 l  2000 9000 l  5000 9000 l  5000 10000 l 
3500 10000 l  pc
pum
3077 9646 t
0.234 c 116 -174 m  158 -174 l  158 -132 l  116 -132 l  116 -174 l  p
77 -252 m  77 -56 l  269 -154 l  77 -252 l  p
42 0 m  42 -308 l  301 -178 l  301 -131 l  42 0 l  p ef
793 -231 m  691 21 l  680 49 670 67 660 75 ct 650 84 636 88 619 88 ct 589 88 l 
589 56 l  611 56 l  621 56 630 54 635 49 ct 641 44 647 32 655 14 ct 680 -51 l 
608 -231 l  648 -231 l  700 -101 l  753 -231 l  793 -231 l  p
599 -195 m  612 -172 618 -146 618 -115 ct 618 -85 612 -59 599 -36 ct 583 -8 561 6 533 6 ct 
504 6 482 -8 466 -35 ct 453 -58 446 -85 446 -115 ct 446 -146 453 -173 466 -196 ct 
482 -223 504 -237 533 -237 ct 561 -237 583 -223 599 -195 ct p
533 -26 m  563 -26 578 -56 578 -115 ct 578 -175 563 -205 533 -205 ct 502 -205 486 -175 486 -115 ct 
486 -56 502 -26 533 -26 ct p ef
pom

0.000 c 3500 11000 m  2000 11000 l  2000 10000 l  5000 10000 l  5000 11000 l 
3500 11000 l  pc
pum
2325 10646 t
0.234 c 145 -267 m  88 -114 l  201 -114 l  145 -267 l  p
121 -308 m  168 -308 l  286 0 l  242 0 l  214 -79 l  75 -79 l  47 0 l 
3 0 l  121 -308 l  p
83 -380 m  206 -380 l  206 -349 l  83 -349 l  83 -380 l  p ef
647 0 m  606 0 l  606 -126 l  470 -126 l  470 -308 l  511 -308 l  511 -161 l 
647 -161 l  647 0 l  p ef
79 -358 m  87 -358 l  88 -354 l  88 -253 l  106 -273 l  112 -270 l  115 -260 l 
115 -115 l  114 -105 l  111 -94 l  109 -91 l  97 -91 l  94 -94 l  93 -98 l 
92 -115 l  92 -122 l  93 -125 l  104 -125 l  105 -128 l  105 -240 l  104 -236 l 
89 -219 l  88 -219 l  88 -71 l  87 -67 l  79 -67 l  78 -71 l  78 -209 l 
77 -209 l  76 -206 l  67 -196 l  65 -196 l  65 -27 l  66 -20 l  70 -17 l 
99 -17 l  100 -20 l  106 -24 l  108 -24 l  110 -30 l  111 -44 l  111 -78 l 
112 -81 l  114 -81 l  117 -78 l  121 -74 l  122 -71 l  118 -10 l  118 -3 l 
115 7 l  113 10 l  109 14 l  100 17 l  69 17 l  62 14 l  59 10 l  56 0 l 
55 -10 l  55 -186 l  54 -182 l  45 -172 l  44 -172 l  43 -175 l  42 -189 l 
41 -199 l  41 -202 l  42 -206 l  52 -216 l  54 -216 l  55 -219 l  55 -327 l 
56 -331 l  64 -331 l  65 -327 l  65 -229 l  67 -229 l  76 -240 l  78 -243 l 
78 -354 l  p
24 -351 m  32 -351 l  33 -347 l  33 -253 l  49 -253 l  50 -250 l  50 -223 l 
49 -219 l  33 -219 l  33 -71 l  35 -71 l  49 -88 l  50 -91 l  51 -88 l 
52 -78 l  52 -61 l  51 -57 l  10 -7 l  8 -14 l  5 -37 l  7 -44 l  21 -57 l 
23 -57 l  23 -219 l  8 -219 l  7 -223 l  7 -250 l  8 -253 l  23 -253 l 
23 -347 l  p ef
440 -327 m  537 -327 l  538 -324 l  538 -297 l  537 -294 l  450 -294 l 
450 -30 l  540 -30 l  541 -27 l  541 0 l  540 3 l  450 3 l  450 27 l  449 30 l 
440 30 l  439 27 l  439 -324 l  p
510 -283 m  512 -280 l  518 -273 l  519 -270 l  519 -267 l  518 -256 l 
512 -216 l  510 -209 l  508 -196 l  508 -192 l  504 -172 l  502 -165 l 
506 -152 l  507 -152 l  528 -84 l  528 -81 l  521 -57 l  500 -128 l  496 -138 l 
492 -125 l  492 -122 l  481 -88 l  474 -71 l  473 -71 l  470 -64 l  468 -57 l 
465 -51 l  461 -44 l  454 -67 l  456 -74 l  471 -105 l  475 -115 l  487 -152 l 
488 -159 l  488 -162 l  484 -175 l  471 -209 l  470 -209 l  463 -226 l 
460 -236 l  466 -256 l  467 -256 l  493 -189 l  495 -186 l  500 -213 l 
509 -273 l  509 -280 l  p ef
885 -334 m  894 -334 l  895 -331 l  895 -233 l  896 -233 l  944 -253 l 
945 -256 l  949 -256 l  955 -236 l  955 -233 l  954 -226 l  942 -172 l 
923 -105 l  916 -122 l  914 -128 l  921 -152 l  922 -152 l  934 -196 l 
939 -219 l  937 -219 l  895 -199 l  895 -57 l  898 -47 l  903 -44 l  932 -44 l 
945 -47 l  946 -51 l  951 -51 l  952 -47 l  952 -14 l  951 -10 l  937 -7 l 
905 -7 l  896 -10 l  892 -14 l  890 -17 l  886 -30 l  885 -37 l  884 -47 l 
884 -192 l  877 -192 l  861 -182 l  856 -182 l  855 -186 l  855 -213 l 
857 -219 l  881 -229 l  884 -331 l  p ef
1289 -307 m  1290 -307 l  1305 -277 l  1318 -243 l  1318 -240 l  1314 -223 l 
1310 -209 l  1307 -216 l  1302 -233 l  1292 -256 l  1283 -273 l  1282 -277 l 
1282 -280 l  1285 -294 l  p
1365 -263 m  1370 -250 l  1374 -236 l  1374 -233 l  1369 -199 l  1354 -128 l 
1345 -98 l  1327 -54 l  1308 -24 l  1291 -7 l  1290 -7 l  1288 -14 l  1288 -17 l 
1287 -24 l  1285 -34 l  1283 -41 l  1285 -47 l  1289 -47 l  1294 -51 l 
1306 -64 l  1321 -88 l  1323 -94 l  1329 -108 l  1330 -108 l  1334 -118 l 
1349 -169 l  1361 -229 l  1365 -256 l  1364 -260 l  p ef
1741 -341 m  1743 -341 l  1744 -337 l  1748 -334 l  1750 -334 l  1751 -331 l 
1748 -300 l  1747 -294 l  1746 -290 l  1784 -290 l  1789 -277 l  1791 -270 l 
1791 -267 l  1785 -199 l  1777 -142 l  1775 -132 l  1773 -125 l  1771 -115 l 
1771 -111 l  1765 -84 l  1751 -37 l  1734 3 l  1723 20 l  1723 20 l  1718 3 l 
1718 0 l  1716 -3 l  1716 -3 l  1714 -7 l  1716 -10 l  1716 -10 l  1731 -34 l 
1744 -64 l  1756 -105 l  1756 -111 l  1753 -125 l  1740 -169 l  1734 -186 l 
1731 -192 l  1730 -192 l  1727 -182 l  1727 -179 l  1714 -138 l  1709 -125 l 
1703 -145 l  1702 -152 l  1706 -165 l  1707 -165 l  1720 -206 l  1729 -250 l 
1735 -290 l  1739 -327 l  1739 -334 l  p
1741 -253 m  1741 -250 l  1740 -243 l  1738 -236 l  1736 -223 l  1745 -196 l 
1763 -138 l  1765 -145 l  1774 -206 l  1778 -246 l  1778 -256 l  1742 -256 l 
p ef
2127 -186 m  2231 -186 l  2232 -182 l  2232 -152 l  2231 -148 l  2127 -148 l 
2126 -152 l  2126 -182 l  p ef
pom

0.000 c 3500 12000 m  2000 12000 l  2000 11000 l  5000 11000 l  5000 12000 l 
3500 12000 l  pc
pum
2342 11646 t
0.234 c 1961 83 m  1977 79 l  1971 76 1967 72 1965 67 ct 1963 62 1962 57 1962 50 ct 
1962 37 1965 28 1973 22 ct 1981 15 1991 12 2004 12 ct 2013 12 2021 15 2028 19 ct 
2028 40 l  2021 35 2013 33 2004 33 ct 1995 33 1989 34 1987 37 ct 1983 41 1981 45 1981 49 ct 
1981 59 1987 66 2000 70 ct 2005 72 2016 70 2032 66 ct 2032 87 l  1961 103 l 
1961 83 l  p ef
21 -273 m  85 -273 l  86 -270 l  86 -233 l  84 -189 l  81 -78 l  80 -74 l 
80 -71 l  110 -71 l  111 -67 l  111 -41 l  110 -37 l  8 -37 l  7 -41 l 
7 -67 l  8 -71 l  69 -71 l  70 -91 l  74 -219 l  74 -240 l  21 -240 l 
20 -243 l  20 -270 l  p ef
399 -186 m  503 -186 l  504 -182 l  504 -152 l  503 -148 l  399 -148 l 
398 -152 l  398 -182 l  p ef
830 -341 m  839 -341 l  840 -337 l  840 -253 l  881 -253 l  882 -250 l 
882 -152 l  879 -54 l  877 -27 l  876 -20 l  874 -10 l  872 -3 l  869 3 l 
866 7 l  856 7 l  840 -10 l  839 -14 l  839 -47 l  838 -51 l  839 -54 l 
840 -51 l  842 -47 l  856 -34 l  862 -34 l  864 -37 l  866 -44 l  867 -51 l 
870 -132 l  871 -219 l  839 -219 l  836 -159 l  834 -135 l  825 -71 l 
822 -57 l  809 -14 l  808 -14 l  805 -7 l  803 0 l  800 7 l  798 10 l 
797 7 l  797 3 l  792 -14 l  791 -14 l  790 -17 l  793 -27 l  797 -34 l 
806 -54 l  812 -74 l  812 -78 l  816 -94 l  818 -101 l  824 -148 l  828 -196 l 
828 -216 l  794 -216 l  793 -219 l  793 -246 l  794 -250 l  829 -250 l 
829 -337 l  p ef
1240 -334 m  1250 -334 l  1251 -331 l  1251 -155 l  1247 -98 l  1246 -88 l 
1241 -51 l  1237 -34 l  1231 -14 l  1222 7 l  1213 24 l  1212 24 l  1211 20 l 
1211 17 l  1204 -7 l  1205 -10 l  1211 -20 l  1212 -20 l  1216 -27 l  1219 -34 l 
1231 -71 l  1234 -94 l  1239 -155 l  1239 -331 l  p
1191 -327 m  1201 -327 l  1202 -324 l  1202 -132 l  1201 -128 l  1191 -128 l 
1190 -132 l  1190 -324 l  p ef
1671 -368 m  1674 -361 l  1687 -314 l  1686 -310 l  1685 -310 l  1681 -300 l 
1679 -294 l  1677 -300 l  1674 -314 l  1674 -317 l  1666 -344 l  1665 -344 l 
1664 -347 l  1666 -354 l  p
1610 -337 m  1614 -337 l  1619 -334 l  1620 -331 l  1620 -317 l  1615 -253 l 
1615 -250 l  1628 -250 l  1631 -246 l  1635 -240 l  1640 -223 l  1644 -186 l 
1644 -122 l  1643 -94 l  1641 -64 l  1639 -44 l  1636 -24 l  1634 -14 l 
1632 -7 l  1629 0 l  1626 3 l  1618 3 l  1605 -14 l  1603 -17 l  1603 -51 l 
1603 -54 l  1603 -57 l  1606 -54 l  1609 -47 l  1617 -34 l  1623 -34 l 
1625 -37 l  1626 -41 l  1630 -67 l  1633 -122 l  1633 -182 l  1630 -206 l 
1628 -213 l  1625 -216 l  1612 -216 l  1606 -162 l  1589 -27 l  1585 -3 l 
1583 3 l  1577 -10 l  1574 -20 l  1576 -27 l  1578 -37 l  1591 -128 l 
1600 -206 l  1600 -209 l  1594 -209 l  1587 -202 l  1576 -196 l  1575 -199 l 
1576 -202 l  1575 -216 l  1574 -219 l  1574 -229 l  1575 -233 l  1601 -243 l 
1603 -246 l  1609 -321 l  1609 -334 l  p
1660 -334 m  1661 -334 l  1664 -327 l  1673 -294 l  1675 -283 l  1675 -280 l 
1673 -273 l  1669 -263 l  1667 -260 l  1666 -263 l  1666 -270 l  1664 -280 l 
1654 -317 l  1657 -327 l  p
1651 -287 m  1658 -263 l  1658 -260 l  1662 -243 l  1666 -229 l  1679 -159 l 
1680 -152 l  1680 -148 l  1676 -135 l  1673 -128 l  1671 -125 l  1669 -132 l 
1668 -142 l  1661 -189 l  1648 -250 l  1645 -260 l  1644 -260 l  1643 -263 l 
1647 -277 l  p ef
2054 -327 m  2060 -307 l  2059 -304 l  2008 -280 l  1996 -277 l  1994 -273 l 
1994 -202 l  2067 -202 l  2068 -199 l  2068 -175 l  2067 -172 l  2043 -172 l 
2043 -27 l  2077 -27 l  2078 -24 l  2078 0 l  2077 3 l  1961 3 l  1960 0 l 
1960 -24 l  1961 -27 l  1983 -27 l  1983 -300 l  1983 -304 l  1989 -307 l 
2031 -324 l  p
1994 -172 m  2032 -172 l  2032 -27 l  1994 -27 l  p ef
pom


pum
2365 2773 t
187 -309 m  240 -309 284 -283 321 -232 ct 336 -208 344 -181 344 -152 ct 344 -106 322 -65 279 -30 ct 
252 -10 224 0 195 0 ct 188 0 l  136 0 92 -27 56 -80 ct 42 -104 35 -128 35 -153 ct 
35 -158 l  35 -205 58 -246 105 -282 ct 130 -300 158 -309 187 -309 ct p
255 -273 m  232 -286 209 -293 186 -293 ct 145 -293 108 -272 76 -232 ct 58 -207 50 -182 50 -155 ct 
50 -112 69 -74 107 -43 ct 132 -24 160 -15 190 -15 ct 237 -15 277 -38 309 -86 ct 
321 -107 327 -129 327 -151 ct 327 -155 l  327 -202 304 -241 257 -272 ct 256 -273 256 -273 255 -273 ct 
p
194 -23 m  188 -23 l  165 -23 144 -29 125 -42 ct 168 -118 l  174 -113 181 -111 189 -111 ct 
191 -111 l  198 -111 204 -113 211 -117 ct 254 -42 l  235 -29 215 -23 194 -23 ct 
p
166 -190 m  153 -180 146 -169 146 -156 ct 146 -155 l  58 -155 l  58 -158 l 
58 -198 78 -233 118 -263 ct 120 -265 123 -266 125 -268 ct 169 -192 l  168 -192 167 -191 166 -190 ct 
p
301 -221 m  314 -201 321 -179 321 -155 ct 233 -155 l  233 -163 231 -170 226 -176 ct 
222 -183 216 -188 210 -192 ct 254 -267 l  271 -256 287 -241 301 -221 ct p
189 -188 m  200 -188 210 -182 217 -171 ct 221 -166 223 -160 223 -154 ct 223 -144 218 -136 209 -128 ct 
203 -124 197 -122 191 -122 ct 189 -122 l  178 -122 169 -128 161 -139 ct 158 -144 157 -149 157 -154 ct 
157 -155 l  157 -165 162 -174 172 -182 ct 177 -186 183 -188 189 -188 ct p ef
661 -125 m  661 -106 l  486 -106 l  488 -80 496 -60 510 -47 ct 524 -33 543 -26 569 -26 ct 
583 -26 597 -28 611 -32 ct 625 -35 638 -41 652 -48 ct 652 -12 l  638 -6 624 -2 610 1 ct 
596 4 581 6 566 6 ct 529 6 500 -5 479 -26 ct 457 -48 446 -77 446 -113 ct 446 -151 457 -181 477 -204 ct 
497 -226 525 -237 560 -237 ct 591 -237 615 -227 634 -207 ct 652 -187 661 -160 661 -125 ct 
p
623 -136 m  622 -157 617 -174 605 -186 ct 594 -199 579 -205 560 -205 ct 539 -205 522 -199 509 -187 ct 
497 -175 489 -158 487 -136 ct 623 -136 l  p
536 36 m  579 36 l  579 78 l  536 78 l  536 36 l  p ef
1207 -205 m  1195 -206 l  1192 -206 1188 -207 1183 -207 ct 1178 -207 1174 -205 1170 -201 ct 
1161 -194 1152 -179 1144 -157 ct 1085 0 l  1034 0 l  1034 88 l  996 88 l 
996 0 l  944 0 l  857 -231 l  898 -231 l  970 -37 l  996 -37 l  996 -324 l 
1034 -324 l  1034 -37 l  1059 -37 l  1107 -166 l  1118 -195 1131 -215 1145 -226 ct 
1154 -233 1167 -237 1185 -237 ct 1192 -237 1200 -236 1207 -234 ct 1207 -205 l 
p ef
75 -361 m  76 -361 l  77 -358 l  81 -354 l  82 -354 l  83 -351 l  83 -344 l 
82 -341 l  81 -327 l  107 -327 l  111 -317 l  112 -314 l  104 -260 l  95 -219 l 
94 -213 l  94 -209 l  111 -169 l  121 -152 l  122 -152 l  123 -148 l  123 -145 l 
122 -138 l  120 -128 l  117 -118 l  116 -118 l  114 -122 l  112 -128 l 
111 -128 l  111 27 l  110 30 l  102 30 l  101 27 l  101 7 l  73 7 l  73 27 l 
72 30 l  64 30 l  63 27 l  63 -122 l  62 -122 l  56 -108 l  52 -122 l 
52 -125 l  51 -128 l  51 -122 l  50 -118 l  38 -118 l  38 -37 l  39 -41 l 
54 -57 l  56 -57 l  57 -54 l  57 -34 l  55 -27 l  54 -27 l  48 -20 l  46 -17 l 
10 24 l  9 24 l  8 20 l  8 17 l  7 7 l  6 0 l  5 -3 l  5 -7 l  7 -14 l 
11 -14 l  11 -169 l  12 -172 l  20 -172 l  21 -169 l  21 -24 l  23 -24 l 
24 -27 l  27 -30 l  28 -30 l  28 -206 l  11 -206 l  10 -209 l  10 -337 l 
11 -341 l  51 -341 l  52 -337 l  52 -209 l  51 -206 l  38 -206 l  38 -148 l 
50 -148 l  51 -145 l  51 -138 l  52 -138 l  56 -145 l  79 -199 l  82 -209 l 
81 -216 l  77 -229 l  73 -250 l  73 -253 l  72 -256 l  71 -256 l  71 -253 l 
66 -229 l  58 -202 l  57 -202 l  56 -206 l  56 -209 l  52 -223 l  52 -226 l 
58 -250 l  65 -283 l  71 -327 l  73 -351 l  74 -358 l  p
20 -236 m  42 -236 l  42 -310 l  20 -310 l  p
77 -290 m  77 -280 l  78 -273 l  83 -250 l  87 -236 l  88 -236 l  89 -240 l 
89 -243 l  96 -277 l  98 -290 l  98 -297 l  78 -297 l  p
69 -135 m  108 -135 l  106 -142 l  88 -189 l  p
73 -24 m  101 -24 l  101 -105 l  73 -105 l  p ef
454 -364 m  461 -354 l  463 -347 l  463 -344 l  457 -310 l  455 -304 l 
453 -294 l  453 -290 l  449 -270 l  447 -263 l  447 -260 l  451 -240 l 
453 -233 l  454 -236 l  458 -256 l  458 -260 l  459 -267 l  463 -287 l 
466 -307 l  467 -310 l  469 -304 l  472 -297 l  473 -297 l  475 -290 l 
474 -283 l  455 -192 l  451 -179 l  451 -175 l  460 -175 l  468 -179 l 
468 -186 l  467 -189 l  464 -209 l  464 -213 l  465 -216 l  467 -219 l 
470 -223 l  471 -223 l  473 -216 l  474 -206 l  482 -145 l  481 -142 l 
475 -132 l  474 -132 l  473 -135 l  472 -142 l  471 -152 l  471 -155 l 
469 -155 l  468 -152 l  461 -152 l  460 -148 l  460 27 l  459 30 l  451 30 l 
450 27 l  450 -145 l  439 -145 l  438 -142 l  432 -142 l  431 -145 l  428 -169 l 
429 -172 l  440 -172 l  441 -175 l  446 -199 l  447 -206 l  447 -213 l 
434 -267 l  432 -273 l  431 -273 l  430 -277 l  432 -287 l  436 -300 l 
437 -300 l  439 -294 l  439 -290 l  441 -283 l  442 -283 l  442 -287 l 
443 -294 l  445 -300 l  448 -317 l  453 -361 l  p
507 -364 m  511 -364 l  516 -361 l  517 -358 l  517 -354 l  512 -321 l 
539 -321 l  540 -317 l  540 -165 l  539 -162 l  518 -162 l  523 -115 l 
524 -111 l  527 -122 l  527 -125 l  534 -148 l  534 -152 l  537 -159 l 
543 -145 l  545 -138 l  544 -135 l  543 -135 l  530 -94 l  529 -94 l  529 -91 l 
529 -88 l  529 -81 l  534 -61 l  547 -24 l  548 -24 l  549 -20 l  545 0 l 
543 7 l  542 7 l  532 -27 l  523 -64 l  523 -67 l  522 -74 l  520 -81 l 
519 -88 l  519 -94 l  518 -98 l  518 10 l  517 17 l  515 24 l  512 27 l 
500 27 l  497 17 l  496 -3 l  497 -7 l  507 -7 l  508 -10 l  508 -162 l 
486 -162 l  485 -165 l  485 -317 l  486 -321 l  503 -321 l  504 -324 l 
504 -334 l  505 -351 l  506 -361 l  p
495 -256 m  529 -256 l  529 -290 l  495 -290 l  p
495 -192 m  529 -192 l  529 -226 l  495 -226 l  p
481 -135 m  502 -135 l  507 -118 l  504 -91 l  498 -51 l  491 -17 l  481 17 l 
475 -7 l  478 -17 l  479 -17 l  485 -37 l  491 -64 l  491 -67 l  495 -94 l 
496 -98 l  496 -105 l  481 -105 l  480 -108 l  480 -132 l  p
471 -132 m  472 -128 l  475 -94 l  479 -51 l  479 -44 l  478 -41 l  477 -41 l 
473 -34 l  472 -30 l  471 -30 l  469 -37 l  467 -74 l  463 -122 l  464 -125 l 
466 -125 l  470 -128 l  p
436 -125 m  437 -122 l  444 -122 l  445 -118 l  445 -105 l  442 -34 l 
440 -7 l  438 0 l  432 -10 l  430 -17 l  430 -20 l  431 -24 l  435 -88 l 
435 -122 l  p ef
860 -344 m  911 -344 l  912 -341 l  912 -317 l  911 -314 l  893 -314 l 
893 -283 l  907 -283 l  908 -280 l  908 -256 l  907 -253 l  893 -253 l 
893 -223 l  907 -223 l  908 -219 l  908 -196 l  907 -192 l  893 -192 l 
893 -159 l  910 -159 l  911 -155 l  911 -88 l  906 14 l  902 27 l  900 30 l 
886 30 l  883 27 l  882 24 l  881 14 l  881 -3 l  882 -7 l  883 -3 l  895 -3 l 
897 -7 l  898 -10 l  899 -17 l  900 -34 l  900 -44 l  899 -44 l  897 -41 l 
896 -37 l  895 -37 l  894 -41 l  894 -54 l  890 -105 l  889 -108 l  889 -111 l 
890 -115 l  891 -115 l  893 -118 l  894 -122 l  896 -115 l  896 -108 l 
900 -61 l  901 -64 l  901 -108 l  902 -111 l  902 -128 l  860 -128 l  859 -132 l 
859 -341 l  p
920 -341 m  965 -341 l  966 -337 l  966 -179 l  965 -175 l  949 -175 l 
956 -91 l  958 -74 l  966 -30 l  970 3 l  970 7 l  969 14 l  966 24 l 
962 10 l  954 -27 l  947 -74 l  942 -132 l  940 -169 l  940 -175 l  929 -175 l 
927 -81 l  925 -44 l  920 3 l  918 10 l  916 20 l  916 24 l  914 30 l 
911 20 l  911 -14 l  915 -44 l  918 -91 l  919 -128 l  919 -337 l  p
869 -314 m  882 -314 l  882 -283 l  869 -283 l  p
929 -206 m  956 -206 l  956 -310 l  929 -310 l  p
869 -253 m  882 -253 l  882 -223 l  869 -223 l  p
869 -192 m  882 -192 l  882 -159 l  869 -159 l  p
882 -111 m  883 -111 l  886 -105 l  889 -57 l  891 -34 l  890 -30 l  888 -27 l 
883 -24 l  882 -27 l  881 -34 l  881 -57 l  879 -94 l  878 -98 l  878 -105 l 
879 -108 l  p
859 -108 m  860 -108 l  861 -105 l  865 -105 l  866 -101 l  866 -88 l 
861 3 l  860 7 l  857 0 l  853 -14 l  853 -20 l  854 -30 l  858 -105 l 
p
870 -105 m  874 -105 l  875 -101 l  876 -88 l  877 -61 l  877 -24 l  875 -17 l 
871 -14 l  870 -14 l  869 -17 l  869 -91 l  868 -94 l  868 -98 l  p ef
1339 -334 m  1349 -334 l  1350 -331 l  1350 -155 l  1346 -98 l  1345 -88 l 
1340 -51 l  1336 -34 l  1330 -14 l  1322 7 l  1313 24 l  1312 24 l  1311 20 l 
1311 17 l  1304 -7 l  1305 -10 l  1311 -20 l  1312 -20 l  1316 -27 l  1319 -34 l 
1330 -71 l  1333 -94 l  1338 -155 l  1338 -331 l  p
1291 -327 m  1301 -327 l  1302 -324 l  1302 -132 l  1301 -128 l  1291 -128 l 
1290 -132 l  1290 -324 l  p ef
1765 -307 m  1778 -307 l  1786 -283 l  1786 -277 l  1785 -267 l  1777 -209 l 
1765 -148 l  1768 -138 l  1769 -138 l  1783 -101 l  1805 -34 l  1805 -30 l 
1796 0 l  1795 -3 l  1795 -7 l  1774 -78 l  1761 -115 l  1759 -118 l  1758 -118 l 
1756 -111 l  1756 -108 l  1745 -71 l  1731 -34 l  1730 -34 l  1727 -27 l 
1725 -20 l  1722 -14 l  1712 3 l  1711 0 l  1711 -3 l  1704 -27 l  1706 -34 l 
1707 -34 l  1721 -57 l  1739 -101 l  1750 -138 l  1750 -142 l  1754 -159 l 
1757 -169 l  1761 -189 l  1770 -250 l  1771 -260 l  1772 -267 l  1773 -270 l 
1736 -270 l  1735 -267 l  1717 -267 l  1716 -270 l  1716 -294 l  1715 -297 l 
1715 -300 l  1716 -304 l  1764 -304 l  p ef
2144 -341 m  2153 -341 l  2154 -337 l  2154 -219 l  2155 -216 l  2159 -209 l 
2162 -206 l  2182 -172 l  2200 -135 l  2202 -128 l  2202 -125 l  2196 -94 l 
2195 -91 l  2192 -98 l  2189 -108 l  2166 -159 l  2155 -179 l  2154 -179 l 
2154 10 l  2153 14 l  2144 14 l  2143 10 l  2143 -337 l  p ef
pom
0.000 c 8000 4000 m  6500 4000 l  6500 3000 l  9500 3000 l  9500 4000 l 
8000 4000 l  pc
pum
7365 3646 t
0.234 c 52 -220 m  52 -157 l  95 -157 l  109 -157 119 -160 126 -165 ct 133 -170 136 -178 136 -189 ct 
136 -199 133 -207 126 -212 ct 119 -217 109 -220 95 -220 ct 52 -220 l  p
52 -292 m  52 -239 l  91 -239 l  104 -239 114 -241 120 -246 ct 126 -250 130 -256 130 -265 ct 
130 -274 126 -281 120 -285 ct 114 -290 104 -292 91 -292 ct 52 -292 l  p
26 -311 m  93 -311 l  113 -311 129 -307 140 -300 ct 151 -292 156 -282 156 -268 ct 
156 -257 153 -249 147 -242 ct 142 -236 134 -232 123 -231 ct 136 -228 146 -223 153 -215 ct 
160 -208 164 -198 164 -186 ct 164 -171 158 -159 146 -151 ct 134 -142 118 -138 96 -138 ct 
26 -138 l  26 -311 l  p ef
473 -97 m  516 -97 l  516 -45 l  473 -45 l  473 -97 l  p
473 -263 m  516 -263 l  516 -211 l  473 -211 l  473 -263 l  p
702 -9 m  702 -59 690 -95 667 -117 ct 643 -139 609 -150 565 -150 ct 544 -150 l 
544 -308 l  586 -308 l  586 -184 l  622 -184 657 -171 692 -146 ct 726 -121 744 -80 744 -23 ct 
744 0 l  702 0 l  702 -9 l  p ef
1022 -108 m  1013 -156 l  1006 -188 991 -205 967 -205 ct 948 -205 935 -197 926 -182 ct 
916 -163 910 -141 910 -116 ct 910 -85 916 -63 926 -49 ct 936 -34 950 -26 967 -26 ct 
985 -26 999 -41 1009 -70 ct 1022 -108 l  p
1043 -171 m  1063 -232 l  1097 -232 l  1055 -106 l  1063 -61 l  1064 -54 1068 -48 1072 -42 ct 
1078 -36 1083 -32 1087 -32 ct 1106 -32 l  1106 0 l  1083 0 l  1070 0 1058 -6 1046 -17 ct 
1040 -23 1036 -32 1034 -44 ct 1028 -29 1018 -15 1005 -3 ct 999 2 986 5 967 5 ct 
934 5 910 -5 895 -26 ct 878 -48 870 -78 870 -116 ct 870 -156 879 -186 897 -205 ct 
916 -226 939 -237 967 -237 ct 1009 -237 1035 -215 1043 -171 ct p
947 -339 m  1005 -262 l  973 -262 l  906 -339 l  947 -339 l  p ef
pom

0.000 c 8000 5000 m  6500 5000 l  6500 4000 l  9500 4000 l  9500 5000 l 
8000 5000 l  pc
pum
7365 4646 t
0.234 c 73 -232 m  73 -82 l  73 -62 76 -49 80 -42 ct 85 -36 95 -32 110 -32 ct 
128 -32 l  128 0 l  106 0 l  81 0 63 -7 51 -20 ct 40 -33 35 -55 35 -84 ct 34 -232 l 
73 -232 l  p
-6 -316 m  118 -316 l  118 -285 l  -6 -285 l  -6 -316 l  p ef
711 -195 m  696 -195 l  696 -122 l  696 -82 686 -51 666 -31 ct 646 -10 617 0 578 0 ct 
540 0 510 -10 490 -31 ct 470 -50 460 -81 460 -122 ct 460 -153 467 -177 482 -194 ct 
504 -219 529 -231 557 -231 ct 654 -231 l  654 -314 l  696 -314 l  696 -231 l 
711 -231 l  731 -231 748 -225 761 -212 ct 774 -200 781 -182 781 -158 ct 781 -144 l 
749 -144 l  749 -154 l  749 -169 745 -179 739 -185 ct 731 -192 722 -195 711 -195 ct 
p
654 -195 m  566 -195 l  543 -195 525 -187 513 -169 ct 505 -159 502 -144 502 -124 ct 
502 -93 508 -70 520 -56 ct 532 -41 551 -34 578 -34 ct 605 -34 624 -41 636 -56 ct 
648 -70 654 -94 654 -127 ct 654 -195 l  p ef
1282 -170 m  1259 -151 l  1148 -283 l  1171 -302 l  1282 -170 l  p
907 -274 m  992 -42 l  1077 -274 l  907 -274 l  p
1133 -309 m  1015 -1 l  968 -1 l  850 -309 l  1133 -309 l  p ef
pom

0.000 c 8000 6000 m  6500 6000 l  6500 5000 l  9500 5000 l  9500 6000 l 
8000 6000 l  pc
pum
7577 5646 t
0.234 c 272 -285 m  272 -241 l  258 -254 243 -264 228 -270 ct 212 -276 195 -280 177 -280 ct 
142 -280 115 -269 96 -247 ct 77 -226 68 -195 68 -154 ct 68 -113 77 -82 96 -61 ct 
115 -39 142 -28 177 -28 ct 195 -28 212 -32 228 -38 ct 243 -44 258 -54 272 -67 ct 
272 -24 l  258 -14 242 -6 226 -1 ct 210 4 193 6 174 6 ct 128 6 91 -8 64 -37 ct 
37 -65 24 -104 24 -154 ct 24 -203 37 -243 64 -271 ct 91 -300 128 -314 174 -314 ct 
193 -314 210 -312 226 -307 ct 243 -302 258 -294 272 -285 ct p ef
567 -85 m  567 -156 l  682 -156 l  682 -85 l  567 -85 l  p
419 -85 m  419 -156 l  534 -156 l  534 -85 l  419 -85 l  p ef
pom

0.000 c 8000 7000 m  6500 7000 l  6500 6000 l  9500 6000 l  9500 7000 l 
8000 7000 l  pc
pum
7577 6646 t
0.234 c 116 -174 m  158 -174 l  158 -132 l  116 -132 l  116 -174 l  p
77 -252 m  77 -56 l  269 -154 l  77 -252 l  p
42 0 m  42 -308 l  301 -178 l  301 -131 l  42 0 l  p ef
793 -231 m  691 21 l  680 49 670 67 660 75 ct 650 84 636 88 619 88 ct 589 88 l 
589 56 l  611 56 l  621 56 630 54 635 49 ct 641 44 647 32 655 14 ct 680 -51 l 
608 -231 l  648 -231 l  700 -101 l  753 -231 l  793 -231 l  p
599 -195 m  612 -172 618 -146 618 -115 ct 618 -85 612 -59 599 -36 ct 583 -8 561 6 533 6 ct 
504 6 482 -8 466 -35 ct 453 -58 446 -85 446 -115 ct 446 -146 453 -173 466 -196 ct 
482 -223 504 -237 533 -237 ct 561 -237 583 -223 599 -195 ct p
533 -26 m  563 -26 578 -56 578 -115 ct 578 -175 563 -205 533 -205 ct 502 -205 486 -175 486 -115 ct 
486 -56 502 -26 533 -26 ct p ef
pom

0.000 c 8000 8000 m  6500 8000 l  6500 7000 l  9500 7000 l  9500 8000 l 
8000 8000 l  pc
pum
6825 7646 t
0.234 c 145 -267 m  88 -114 l  201 -114 l  145 -267 l  p
121 -308 m  168 -308 l  286 0 l  242 0 l  214 -79 l  75 -79 l  47 0 l 
3 0 l  121 -308 l  p
83 -380 m  206 -380 l  206 -349 l  83 -349 l  83 -380 l  p ef
647 0 m  606 0 l  606 -126 l  470 -126 l  470 -308 l  511 -308 l  511 -161 l 
647 -161 l  647 0 l  p ef
79 -358 m  87 -358 l  88 -354 l  88 -253 l  106 -273 l  112 -270 l  115 -260 l 
115 -115 l  114 -105 l  111 -94 l  109 -91 l  97 -91 l  94 -94 l  93 -98 l 
92 -115 l  92 -122 l  93 -125 l  104 -125 l  105 -128 l  105 -240 l  104 -236 l 
89 -219 l  88 -219 l  88 -71 l  87 -67 l  79 -67 l  78 -71 l  78 -209 l 
77 -209 l  76 -206 l  67 -196 l  65 -196 l  65 -27 l  66 -20 l  70 -17 l 
99 -17 l  100 -20 l  106 -24 l  108 -24 l  110 -30 l  111 -44 l  111 -78 l 
112 -81 l  114 -81 l  117 -78 l  121 -74 l  122 -71 l  118 -10 l  118 -3 l 
115 7 l  113 10 l  109 14 l  100 17 l  69 17 l  62 14 l  59 10 l  56 0 l 
55 -10 l  55 -186 l  54 -182 l  45 -172 l  44 -172 l  43 -175 l  42 -189 l 
41 -199 l  41 -202 l  42 -206 l  52 -216 l  54 -216 l  55 -219 l  55 -327 l 
56 -331 l  64 -331 l  65 -327 l  65 -229 l  67 -229 l  76 -240 l  78 -243 l 
78 -354 l  p
24 -351 m  32 -351 l  33 -347 l  33 -253 l  49 -253 l  50 -250 l  50 -223 l 
49 -219 l  33 -219 l  33 -71 l  35 -71 l  49 -88 l  50 -91 l  51 -88 l 
52 -78 l  52 -61 l  51 -57 l  10 -7 l  8 -14 l  5 -37 l  7 -44 l  21 -57 l 
23 -57 l  23 -219 l  8 -219 l  7 -223 l  7 -250 l  8 -253 l  23 -253 l 
23 -347 l  p ef
440 -327 m  537 -327 l  538 -324 l  538 -297 l  537 -294 l  450 -294 l 
450 -30 l  540 -30 l  541 -27 l  541 0 l  540 3 l  450 3 l  450 27 l  449 30 l 
440 30 l  439 27 l  439 -324 l  p
510 -283 m  512 -280 l  518 -273 l  519 -270 l  519 -267 l  518 -256 l 
512 -216 l  510 -209 l  508 -196 l  508 -192 l  504 -172 l  502 -165 l 
506 -152 l  507 -152 l  528 -84 l  528 -81 l  521 -57 l  500 -128 l  496 -138 l 
492 -125 l  492 -122 l  481 -88 l  474 -71 l  473 -71 l  470 -64 l  468 -57 l 
465 -51 l  461 -44 l  454 -67 l  456 -74 l  471 -105 l  475 -115 l  487 -152 l 
488 -159 l  488 -162 l  484 -175 l  471 -209 l  470 -209 l  463 -226 l 
460 -236 l  466 -256 l  467 -256 l  493 -189 l  495 -186 l  500 -213 l 
509 -273 l  509 -280 l  p ef
885 -334 m  894 -334 l  895 -331 l  895 -233 l  896 -233 l  944 -253 l 
945 -256 l  949 -256 l  955 -236 l  955 -233 l  954 -226 l  942 -172 l 
923 -105 l  916 -122 l  914 -128 l  921 -152 l  922 -152 l  934 -196 l 
939 -219 l  937 -219 l  895 -199 l  895 -57 l  898 -47 l  903 -44 l  932 -44 l 
945 -47 l  946 -51 l  951 -51 l  952 -47 l  952 -14 l  951 -10 l  937 -7 l 
905 -7 l  896 -10 l  892 -14 l  890 -17 l  886 -30 l  885 -37 l  884 -47 l 
884 -192 l  877 -192 l  861 -182 l  856 -182 l  855 -186 l  855 -213 l 
857 -219 l  881 -229 l  884 -331 l  p ef
1289 -307 m  1290 -307 l  1305 -277 l  1318 -243 l  1318 -240 l  1314 -223 l 
1310 -209 l  1307 -216 l  1302 -233 l  1292 -256 l  1283 -273 l  1282 -277 l 
1282 -280 l  1285 -294 l  p
1365 -263 m  1370 -250 l  1374 -236 l  1374 -233 l  1369 -199 l  1354 -128 l 
1345 -98 l  1327 -54 l  1308 -24 l  1291 -7 l  1290 -7 l  1288 -14 l  1288 -17 l 
1287 -24 l  1285 -34 l  1283 -41 l  1285 -47 l  1289 -47 l  1294 -51 l 
1306 -64 l  1321 -88 l  1323 -94 l  1329 -108 l  1330 -108 l  1334 -118 l 
1349 -169 l  1361 -229 l  1365 -256 l  1364 -260 l  p ef
1741 -341 m  1743 -341 l  1744 -337 l  1748 -334 l  1750 -334 l  1751 -331 l 
1748 -300 l  1747 -294 l  1746 -290 l  1784 -290 l  1789 -277 l  1791 -270 l 
1791 -267 l  1785 -199 l  1777 -142 l  1775 -132 l  1773 -125 l  1771 -115 l 
1771 -111 l  1765 -84 l  1751 -37 l  1734 3 l  1723 20 l  1723 20 l  1718 3 l 
1718 0 l  1716 -3 l  1716 -3 l  1714 -7 l  1716 -10 l  1716 -10 l  1731 -34 l 
1744 -64 l  1756 -105 l  1756 -111 l  1753 -125 l  1740 -169 l  1734 -186 l 
1731 -192 l  1730 -192 l  1727 -182 l  1727 -179 l  1714 -138 l  1709 -125 l 
1703 -145 l  1702 -152 l  1706 -165 l  1707 -165 l  1720 -206 l  1729 -250 l 
1735 -290 l  1739 -327 l  1739 -334 l  p
1741 -253 m  1741 -250 l  1740 -243 l  1738 -236 l  1736 -223 l  1745 -196 l 
1763 -138 l  1765 -145 l  1774 -206 l  1778 -246 l  1778 -256 l  1742 -256 l 
p ef
2127 -186 m  2231 -186 l  2232 -182 l  2232 -152 l  2231 -148 l  2127 -148 l 
2126 -152 l  2126 -182 l  p ef
pom

0.000 c 8000 9000 m  6500 9000 l  6500 8000 l  9500 8000 l  9500 9000 l 
8000 9000 l  pc
pum
6842 8646 t
0.234 c 1961 83 m  1977 79 l  1971 76 1967 72 1965 67 ct 1963 62 1962 57 1962 50 ct 
1962 37 1965 28 1973 22 ct 1981 15 1991 12 2004 12 ct 2013 12 2021 15 2028 19 ct 
2028 40 l  2021 35 2013 33 2004 33 ct 1995 33 1989 34 1987 37 ct 1983 41 1981 45 1981 49 ct 
1981 59 1987 66 2000 70 ct 2005 72 2016 70 2032 66 ct 2032 87 l  1961 103 l 
1961 83 l  p ef
21 -273 m  85 -273 l  86 -270 l  86 -233 l  84 -189 l  81 -78 l  80 -74 l 
80 -71 l  110 -71 l  111 -67 l  111 -41 l  110 -37 l  8 -37 l  7 -41 l 
7 -67 l  8 -71 l  69 -71 l  70 -91 l  74 -219 l  74 -240 l  21 -240 l 
20 -243 l  20 -270 l  p ef
399 -186 m  503 -186 l  504 -182 l  504 -152 l  503 -148 l  399 -148 l 
398 -152 l  398 -182 l  p ef
830 -341 m  839 -341 l  840 -337 l  840 -253 l  881 -253 l  882 -250 l 
882 -152 l  879 -54 l  877 -27 l  876 -20 l  874 -10 l  872 -3 l  869 3 l 
866 7 l  856 7 l  840 -10 l  839 -14 l  839 -47 l  838 -51 l  839 -54 l 
840 -51 l  842 -47 l  856 -34 l  862 -34 l  864 -37 l  866 -44 l  867 -51 l 
870 -132 l  871 -219 l  839 -219 l  836 -159 l  834 -135 l  825 -71 l 
822 -57 l  809 -14 l  808 -14 l  805 -7 l  803 0 l  800 7 l  798 10 l 
797 7 l  797 3 l  792 -14 l  791 -14 l  790 -17 l  793 -27 l  797 -34 l 
806 -54 l  812 -74 l  812 -78 l  816 -94 l  818 -101 l  824 -148 l  828 -196 l 
828 -216 l  794 -216 l  793 -219 l  793 -246 l  794 -250 l  829 -250 l 
829 -337 l  p ef
1240 -334 m  1250 -334 l  1251 -331 l  1251 -155 l  1247 -98 l  1246 -88 l 
1241 -51 l  1237 -34 l  1231 -14 l  1222 7 l  1213 24 l  1212 24 l  1211 20 l 
1211 17 l  1204 -7 l  1205 -10 l  1211 -20 l  1212 -20 l  1216 -27 l  1219 -34 l 
1231 -71 l  1234 -94 l  1239 -155 l  1239 -331 l  p
1191 -327 m  1201 -327 l  1202 -324 l  1202 -132 l  1201 -128 l  1191 -128 l 
1190 -132 l  1190 -324 l  p ef
1671 -368 m  1674 -361 l  1687 -314 l  1686 -310 l  1685 -310 l  1681 -300 l 
1679 -294 l  1677 -300 l  1674 -314 l  1674 -317 l  1666 -344 l  1665 -344 l 
1664 -347 l  1666 -354 l  p
1610 -337 m  1614 -337 l  1619 -334 l  1620 -331 l  1620 -317 l  1615 -253 l 
1615 -250 l  1628 -250 l  1631 -246 l  1635 -240 l  1640 -223 l  1644 -186 l 
1644 -122 l  1643 -94 l  1641 -64 l  1639 -44 l  1636 -24 l  1634 -14 l 
1632 -7 l  1629 0 l  1626 3 l  1618 3 l  1605 -14 l  1603 -17 l  1603 -51 l 
1603 -54 l  1603 -57 l  1606 -54 l  1609 -47 l  1617 -34 l  1623 -34 l 
1625 -37 l  1626 -41 l  1630 -67 l  1633 -122 l  1633 -182 l  1630 -206 l 
1628 -213 l  1625 -216 l  1612 -216 l  1606 -162 l  1589 -27 l  1585 -3 l 
1583 3 l  1577 -10 l  1574 -20 l  1576 -27 l  1578 -37 l  1591 -128 l 
1600 -206 l  1600 -209 l  1594 -209 l  1587 -202 l  1576 -196 l  1575 -199 l 
1576 -202 l  1575 -216 l  1574 -219 l  1574 -229 l  1575 -233 l  1601 -243 l 
1603 -246 l  1609 -321 l  1609 -334 l  p
1660 -334 m  1661 -334 l  1664 -327 l  1673 -294 l  1675 -283 l  1675 -280 l 
1673 -273 l  1669 -263 l  1667 -260 l  1666 -263 l  1666 -270 l  1664 -280 l 
1654 -317 l  1657 -327 l  p
1651 -287 m  1658 -263 l  1658 -260 l  1662 -243 l  1666 -229 l  1679 -159 l 
1680 -152 l  1680 -148 l  1676 -135 l  1673 -128 l  1671 -125 l  1669 -132 l 
1668 -142 l  1661 -189 l  1648 -250 l  1645 -260 l  1644 -260 l  1643 -263 l 
1647 -277 l  p ef
2054 -327 m  2060 -307 l  2059 -304 l  2008 -280 l  1996 -277 l  1994 -273 l 
1994 -202 l  2067 -202 l  2068 -199 l  2068 -175 l  2067 -172 l  2043 -172 l 
2043 -27 l  2077 -27 l  2078 -24 l  2078 0 l  2077 3 l  1961 3 l  1960 0 l 
1960 -24 l  1961 -27 l  1983 -27 l  1983 -300 l  1983 -304 l  1989 -307 l 
2031 -324 l  p
1994 -172 m  2032 -172 l  2032 -27 l  1994 -27 l  p ef
pom


pum
6941 2277 t
263 -309 m  264 -309 l  347 -306 407 -294 442 -273 ct 479 -250 498 -227 498 -204 ct 
493 -183 483 -172 469 -172 ct 468 -172 468 -172 467 -172 ct 383 -201 l  374 -204 370 -208 370 -214 ct 
370 -217 371 -220 373 -223 ct 382 -233 387 -240 387 -245 ct 387 -248 384 -250 380 -250 ct 
147 -250 l  143 -250 140 -248 140 -245 ct 140 -240 145 -233 155 -223 ct 156 -220 157 -217 157 -214 ct 
157 -208 153 -204 144 -201 ct 60 -172 l  59 -172 58 -172 58 -172 ct 44 -172 34 -183 29 -204 ct 
29 -227 48 -250 85 -273 ct 120 -294 179 -306 263 -309 ct p
312 -223 m  312 -239 l  342 -239 l  342 -207 l  342 -197 359 -188 392 -180 ct 
424 -167 439 -141 439 -101 ct 439 0 l  87 0 l  87 -101 l  87 -141 103 -167 135 -180 ct 
168 -188 185 -197 185 -207 ct 185 -239 l  215 -239 l  215 -223 l  312 -223 l 
p
179 -110 m  179 -87 187 -68 204 -51 ct 220 -35 239 -27 262 -27 ct 285 -27 305 -35 321 -51 ct 
337 -68 345 -87 345 -110 ct 345 -133 337 -152 321 -169 ct 305 -185 285 -193 262 -193 ct 
239 -193 220 -185 204 -169 ct 187 -152 179 -133 179 -110 ct p
309 -110 m  309 -97 304 -87 295 -77 ct 286 -68 275 -64 262 -64 ct 250 -64 239 -68 230 -77 ct 
221 -87 216 -97 216 -110 ct 216 -123 221 -134 230 -143 ct 239 -152 250 -157 262 -157 ct 
275 -157 286 -152 295 -143 ct 304 -134 309 -123 309 -110 ct p
276 -176 m  276 -173 275 -170 273 -168 ct 270 -165 268 -164 264 -164 ct 261 -164 258 -165 256 -168 ct 
254 -170 253 -173 253 -176 ct 253 -179 254 -182 256 -184 ct 258 -187 261 -188 264 -188 ct 
268 -188 270 -187 273 -184 ct 275 -182 276 -179 276 -176 ct p
276 -46 m  276 -43 275 -40 273 -37 ct 270 -35 268 -34 264 -34 ct 261 -34 258 -35 256 -37 ct 
254 -40 253 -43 253 -46 ct 253 -49 254 -52 256 -54 ct 258 -56 261 -58 264 -58 ct 
268 -58 270 -56 273 -54 ct 275 -52 276 -49 276 -46 ct p
230 -175 m  232 -174 234 -173 235 -170 ct 237 -168 238 -165 238 -162 ct 237 -159 236 -156 233 -154 ct 
230 -152 227 -151 224 -152 ct 221 -152 219 -154 217 -157 ct 215 -159 214 -162 215 -165 ct 
215 -168 217 -171 219 -173 ct 221 -174 224 -175 226 -175 ct 227 -175 228 -175 230 -175 ct 
p
312 -65 m  314 -63 315 -60 314 -57 ct 314 -53 312 -51 309 -49 ct 307 -47 305 -47 303 -47 ct 
302 -47 301 -47 299 -47 ct 297 -47 295 -49 293 -52 ct 291 -54 291 -57 291 -60 ct 
292 -63 293 -66 296 -68 ct 298 -70 301 -70 304 -70 ct 308 -69 310 -68 312 -65 ct 
p
206 -142 m  209 -141 212 -139 213 -136 ct 214 -133 215 -130 214 -127 ct 213 -124 211 -122 208 -121 ct 
205 -119 202 -119 199 -120 ct 196 -121 194 -122 193 -125 ct 191 -127 191 -129 191 -131 ct 
191 -132 191 -133 191 -135 ct 192 -138 194 -140 197 -141 ct 200 -143 203 -143 206 -142 ct 
p
321 -101 m  324 -103 327 -103 330 -102 ct 333 -101 335 -99 336 -97 ct 337 -95 338 -92 338 -91 ct 
338 -90 338 -88 337 -87 ct 336 -84 334 -82 331 -80 ct 329 -79 326 -79 323 -80 ct 
320 -81 317 -83 316 -86 ct 314 -88 314 -91 315 -95 ct 316 -98 318 -100 321 -101 ct 
p
193 -97 m  194 -99 196 -101 199 -102 ct 202 -103 205 -103 208 -101 ct 211 -100 213 -98 214 -95 ct 
215 -91 214 -88 213 -85 ct 212 -83 209 -81 206 -80 ct 203 -79 200 -79 197 -80 ct 
194 -82 192 -84 191 -87 ct 191 -88 191 -90 191 -91 ct 191 -92 191 -95 193 -97 ct 
p
323 -142 m  326 -143 329 -143 331 -141 ct 334 -140 336 -138 337 -135 ct 338 -133 338 -132 338 -131 ct 
338 -129 337 -127 336 -125 ct 335 -123 333 -121 330 -120 ct 327 -119 324 -119 321 -121 ct 
318 -122 316 -124 315 -127 ct 314 -130 314 -133 316 -136 ct 317 -139 320 -141 323 -142 ct 
p
217 -65 m  218 -68 221 -69 224 -70 ct 227 -70 230 -70 233 -68 ct 235 -66 237 -63 238 -60 ct 
238 -57 237 -54 235 -52 ct 234 -49 232 -47 230 -47 ct 228 -47 227 -47 226 -47 ct 
224 -47 221 -47 219 -49 ct 217 -51 215 -53 215 -55 ct 214 -57 214 -58 214 -59 ct 
214 -61 215 -63 217 -65 ct p
293 -170 m  295 -173 297 -174 299 -175 ct 301 -175 302 -175 303 -175 ct 305 -175 307 -174 309 -173 ct 
312 -171 314 -169 314 -167 ct 314 -165 314 -164 314 -164 ct 314 -161 314 -159 312 -157 ct 
310 -154 308 -153 306 -152 ct 305 -152 303 -152 303 -152 ct 300 -152 298 -153 296 -154 ct 
293 -156 292 -158 291 -160 ct 291 -162 291 -163 291 -164 ct 291 -166 292 -168 293 -170 ct 
p ef
655 -27 m  672 -27 686 -33 698 -44 ct 710 -55 716 -71 716 -92 ct 716 -115 709 -132 695 -142 ct 
681 -152 668 -157 655 -157 ct 637 -157 622 -152 610 -140 ct 598 -128 592 -112 592 -92 ct 
592 -70 599 -53 613 -43 ct 627 -32 641 -27 655 -27 ct p
592 -308 m  592 -175 l  609 -185 630 -190 655 -190 ct 687 -190 713 -182 732 -166 ct 
750 -149 760 -125 760 -92 ct 760 -58 750 -33 730 -17 ct 710 -2 685 6 655 6 ct 622 6 597 -2 578 -19 ct 
559 -35 550 -60 550 -92 ct 550 -269 l  479 -161 l  448 -182 l  532 -308 l 
592 -308 l  p ef
933 -231 m  915 -231 l  855 -308 l  897 -308 l  933 -231 l  p
995 -231 m  977 -231 l  917 -308 l  959 -308 l  995 -231 l  p ef
1502 -27 m  1519 -27 1533 -33 1545 -44 ct 1557 -55 1563 -71 1563 -92 ct 1563 -115 1556 -132 1542 -142 ct 
1528 -152 1515 -157 1502 -157 ct 1484 -157 1469 -152 1457 -140 ct 1445 -128 1439 -112 1439 -92 ct 
1439 -70 1446 -53 1460 -43 ct 1474 -32 1488 -27 1502 -27 ct p
1439 -308 m  1439 -175 l  1456 -185 1477 -190 1502 -190 ct 1534 -190 1560 -182 1579 -166 ct 
1597 -149 1607 -125 1607 -92 ct 1607 -58 1597 -33 1577 -17 ct 1557 -2 1532 6 1502 6 ct 
1469 6 1444 -2 1425 -19 ct 1406 -35 1397 -60 1397 -92 ct 1397 -269 l  1326 -161 l 
1295 -182 l  1379 -308 l  1439 -308 l  p ef
2053 -205 m  2041 -206 l  2038 -206 2034 -207 2029 -207 ct 2024 -207 2020 -205 2016 -201 ct 
2007 -194 1998 -179 1990 -157 ct 1931 0 l  1880 0 l  1880 88 l  1842 88 l 
1842 0 l  1790 0 l  1703 -231 l  1744 -231 l  1816 -37 l  1842 -37 l  1842 -324 l 
1880 -324 l  1880 -37 l  1905 -37 l  1953 -166 l  1964 -195 1977 -215 1991 -226 ct 
2000 -233 2013 -237 2031 -237 ct 2038 -237 2046 -236 2053 -234 ct 2053 -205 l 
p ef
pom
pum
7500 2773 t
66 -334 m  76 -334 l  77 -331 l  77 -155 l  73 -98 l  72 -88 l  67 -51 l 
63 -34 l  57 -14 l  49 7 l  40 24 l  39 24 l  38 20 l  38 17 l  31 -7 l 
32 -10 l  38 -20 l  39 -20 l  43 -27 l  46 -34 l  57 -71 l  60 -94 l  65 -155 l 
65 -331 l  p
18 -327 m  28 -327 l  29 -324 l  29 -132 l  28 -128 l  18 -128 l  17 -132 l 
17 -324 l  p ef
388 -307 m  402 -307 l  410 -283 l  410 -277 l  409 -267 l  401 -209 l 
388 -148 l  391 -138 l  393 -138 l  407 -101 l  429 -34 l  429 -30 l  420 0 l 
419 -3 l  419 -7 l  398 -78 l  384 -115 l  382 -118 l  381 -118 l  379 -111 l 
379 -108 l  368 -71 l  354 -34 l  353 -34 l  350 -27 l  348 -20 l  345 -14 l 
335 3 l  334 0 l  334 -3 l  327 -27 l  329 -34 l  330 -34 l  344 -57 l 
362 -101 l  373 -138 l  373 -142 l  377 -159 l  380 -169 l  384 -189 l 
394 -250 l  395 -260 l  396 -267 l  397 -270 l  359 -270 l  358 -267 l 
340 -267 l  339 -270 l  339 -294 l  338 -297 l  338 -300 l  339 -304 l 
387 -304 l  p ef
663 -341 m  672 -341 l  673 -337 l  673 -219 l  674 -216 l  678 -209 l 
681 -206 l  701 -172 l  720 -135 l  722 -128 l  722 -125 l  716 -94 l 
715 -91 l  712 -98 l  709 -108 l  685 -159 l  674 -179 l  673 -179 l  673 10 l 
672 14 l  663 14 l  662 10 l  662 -337 l  p ef
pom
gr
gs
0 0 m 27699 0 l 27699 18999 l 0 18999 l 0 0 l eoclip newpath
gr
gr
0 19000 t 
pom
count op_count sub {pop} repeat countdictstack dict_count sub {end} repeat b4_inc_state restore
%%PageTrailer
%%Trailer
%%EOF
