%!PS-Adobe-3.0 EPSF-3.0 
%%BoundingBox: 0 0 785 539
%%Pages: 0
%%Creator: LibreOffice 3.3
%%Title: none
%%CreationDate: none
%%LanguageLevel: 2
%%EndComments
%%BeginProlog
%%BeginResource: procset SDRes-Prolog 1.0 0
/b4_inc_state save def
/dict_count countdictstack def
/op_count count 1 sub def
userdict begin
0 setgray 0 setlinecap 1 setlinewidth 0 setlinejoin 10 setmiterlimit[] 0 setdash newpath
/languagelevel where {pop languagelevel 1 ne {false setstrokeadjust false setoverprint} if} if
/bdef {bind def} bind def
/c {setgray} bdef
/l {neg lineto} bdef
/rl {neg rlineto} bdef
/lc {setlinecap} bdef
/lj {setlinejoin} bdef
/lw {setlinewidth} bdef
/ml {setmiterlimit} bdef
/ld {setdash} bdef
/m {neg moveto} bdef
/ct {6 2 roll neg 6 2 roll neg 6 2 roll neg curveto} bdef
/r {rotate} bdef
/t {neg translate} bdef
/s {scale} bdef
/sw {show} bdef
/gs {gsave} bdef
/gr {grestore} bdef
/f {findfont dup length dict begin
{1 index /FID ne {def} {pop pop} ifelse} forall /Encoding ISOLatin1Encoding def
currentdict end /NFont exch definefont pop /NFont findfont} bdef
/p {closepath} bdef
/sf {scalefont setfont} bdef
/ef {eofill}bdef
/pc {closepath stroke}bdef
/ps {stroke}bdef
/pum {matrix currentmatrix}bdef
/pom {setmatrix}bdef
/bs {/aString exch def /nXOfs exch def /nWidth exch def currentpoint nXOfs 0 rmoveto pum nWidth aString stringwidth pop div 1 scale aString show pom moveto} bdef
%%EndResource
%%EndProlog
%%BeginSetup
%%EndSetup
%%Page: 1 1
%%BeginPageSetup
%%EndPageSetup
pum
0.02833 0.02836 s 
0 -19000 t
/tm matrix currentmatrix def
gs
tm setmatrix
-1000 -1000 t 
1 1 s 
1000 1000 m 28699 1000 l 28699 19999 l 1000 19999 l 1000 1000 l eoclip newpath
gs
0 0 m 27699 0 l 27699 18999 l 0 18999 l 0 0 l eoclip newpath
0 lw 1 lj 0.000 c 2500 4000 m  1000 4000 l  1000 3000 l  4000 3000 l  4000 4000 l 
2500 4000 l  pc
pum
1342 3646 t
0.234 c 1961 83 m  1977 79 l  1971 76 1967 72 1965 67 ct 1963 62 1962 57 1962 50 ct 
1962 37 1965 28 1973 22 ct 1981 15 1991 12 2004 12 ct 2013 12 2021 15 2028 19 ct 
2028 40 l  2021 35 2013 33 2004 33 ct 1995 33 1989 34 1987 37 ct 1983 41 1981 45 1981 49 ct 
1981 59 1987 66 2000 70 ct 2005 72 2016 70 2032 66 ct 2032 87 l  1961 103 l 
1961 83 l  p ef
21 -273 m  85 -273 l  86 -270 l  86 -233 l  84 -189 l  81 -78 l  80 -74 l 
80 -71 l  110 -71 l  111 -67 l  111 -41 l  110 -37 l  8 -37 l  7 -41 l 
7 -67 l  8 -71 l  69 -71 l  70 -91 l  74 -219 l  74 -240 l  21 -240 l 
20 -243 l  20 -270 l  p ef
399 -186 m  503 -186 l  504 -182 l  504 -152 l  503 -148 l  399 -148 l 
398 -152 l  398 -182 l  p ef
830 -341 m  839 -341 l  840 -337 l  840 -253 l  881 -253 l  882 -250 l 
882 -152 l  879 -54 l  877 -27 l  876 -20 l  874 -10 l  872 -3 l  869 3 l 
866 7 l  856 7 l  840 -10 l  839 -14 l  839 -47 l  838 -51 l  839 -54 l 
840 -51 l  842 -47 l  856 -34 l  862 -34 l  864 -37 l  866 -44 l  867 -51 l 
870 -132 l  871 -219 l  839 -219 l  836 -159 l  834 -135 l  825 -71 l 
822 -57 l  809 -14 l  808 -14 l  805 -7 l  803 0 l  800 7 l  798 10 l 
797 7 l  797 3 l  792 -14 l  791 -14 l  790 -17 l  793 -27 l  797 -34 l 
806 -54 l  812 -74 l  812 -78 l  816 -94 l  818 -101 l  824 -148 l  828 -196 l 
828 -216 l  794 -216 l  793 -219 l  793 -246 l  794 -250 l  829 -250 l 
829 -337 l  p ef
1240 -334 m  1250 -334 l  1251 -331 l  1251 -155 l  1247 -98 l  1246 -88 l 
1241 -51 l  1237 -34 l  1231 -14 l  1222 7 l  1213 24 l  1212 24 l  1211 20 l 
1211 17 l  1204 -7 l  1205 -10 l  1211 -20 l  1212 -20 l  1216 -27 l  1219 -34 l 
1231 -71 l  1234 -94 l  1239 -155 l  1239 -331 l  p
1191 -327 m  1201 -327 l  1202 -324 l  1202 -132 l  1201 -128 l  1191 -128 l 
1190 -132 l  1190 -324 l  p ef
1671 -368 m  1674 -361 l  1687 -314 l  1686 -310 l  1685 -310 l  1681 -300 l 
1679 -294 l  1677 -300 l  1674 -314 l  1674 -317 l  1666 -344 l  1665 -344 l 
1664 -347 l  1666 -354 l  p
1610 -337 m  1614 -337 l  1619 -334 l  1620 -331 l  1620 -317 l  1615 -253 l 
1615 -250 l  1628 -250 l  1631 -246 l  1635 -240 l  1640 -223 l  1644 -186 l 
1644 -122 l  1643 -94 l  1641 -64 l  1639 -44 l  1636 -24 l  1634 -14 l 
1632 -7 l  1629 0 l  1626 3 l  1618 3 l  1605 -14 l  1603 -17 l  1603 -51 l 
1603 -54 l  1603 -57 l  1606 -54 l  1609 -47 l  1617 -34 l  1623 -34 l 
1625 -37 l  1626 -41 l  1630 -67 l  1633 -122 l  1633 -182 l  1630 -206 l 
1628 -213 l  1625 -216 l  1612 -216 l  1606 -162 l  1589 -27 l  1585 -3 l 
1583 3 l  1577 -10 l  1574 -20 l  1576 -27 l  1578 -37 l  1591 -128 l 
1600 -206 l  1600 -209 l  1594 -209 l  1587 -202 l  1576 -196 l  1575 -199 l 
1576 -202 l  1575 -216 l  1574 -219 l  1574 -229 l  1575 -233 l  1601 -243 l 
1603 -246 l  1609 -321 l  1609 -334 l  p
1660 -334 m  1661 -334 l  1664 -327 l  1673 -294 l  1675 -283 l  1675 -280 l 
1673 -273 l  1669 -263 l  1667 -260 l  1666 -263 l  1666 -270 l  1664 -280 l 
1654 -317 l  1657 -327 l  p
1651 -287 m  1658 -263 l  1658 -260 l  1662 -243 l  1666 -229 l  1679 -159 l 
1680 -152 l  1680 -148 l  1676 -135 l  1673 -128 l  1671 -125 l  1669 -132 l 
1668 -142 l  1661 -189 l  1648 -250 l  1645 -260 l  1644 -260 l  1643 -263 l 
1647 -277 l  p ef
2054 -327 m  2060 -307 l  2059 -304 l  2008 -280 l  1996 -277 l  1994 -273 l 
1994 -202 l  2067 -202 l  2068 -199 l  2068 -175 l  2067 -172 l  2043 -172 l 
2043 -27 l  2077 -27 l  2078 -24 l  2078 0 l  2077 3 l  1961 3 l  1960 0 l 
1960 -24 l  1961 -27 l  1983 -27 l  1983 -300 l  1983 -304 l  1989 -307 l 
2031 -324 l  p
1994 -172 m  2032 -172 l  2032 -27 l  1994 -27 l  p ef
pom

0.000 c 2500 5000 m  1000 5000 l  1000 4000 l  4000 4000 l  4000 5000 l 
2500 5000 l  pc
pum
1325 4646 t
0.234 c 145 -267 m  88 -114 l  201 -114 l  145 -267 l  p
121 -308 m  168 -308 l  286 0 l  242 0 l  214 -79 l  75 -79 l  47 0 l 
3 0 l  121 -308 l  p
83 -380 m  206 -380 l  206 -349 l  83 -349 l  83 -380 l  p ef
647 0 m  606 0 l  606 -126 l  470 -126 l  470 -308 l  511 -308 l  511 -161 l 
647 -161 l  647 0 l  p ef
79 -358 m  87 -358 l  88 -354 l  88 -253 l  106 -273 l  112 -270 l  115 -260 l 
115 -115 l  114 -105 l  111 -94 l  109 -91 l  97 -91 l  94 -94 l  93 -98 l 
92 -115 l  92 -122 l  93 -125 l  104 -125 l  105 -128 l  105 -240 l  104 -236 l 
89 -219 l  88 -219 l  88 -71 l  87 -67 l  79 -67 l  78 -71 l  78 -209 l 
77 -209 l  76 -206 l  67 -196 l  65 -196 l  65 -27 l  66 -20 l  70 -17 l 
99 -17 l  100 -20 l  106 -24 l  108 -24 l  110 -30 l  111 -44 l  111 -78 l 
112 -81 l  114 -81 l  117 -78 l  121 -74 l  122 -71 l  118 -10 l  118 -3 l 
115 7 l  113 10 l  109 14 l  100 17 l  69 17 l  62 14 l  59 10 l  56 0 l 
55 -10 l  55 -186 l  54 -182 l  45 -172 l  44 -172 l  43 -175 l  42 -189 l 
41 -199 l  41 -202 l  42 -206 l  52 -216 l  54 -216 l  55 -219 l  55 -327 l 
56 -331 l  64 -331 l  65 -327 l  65 -229 l  67 -229 l  76 -240 l  78 -243 l 
78 -354 l  p
24 -351 m  32 -351 l  33 -347 l  33 -253 l  49 -253 l  50 -250 l  50 -223 l 
49 -219 l  33 -219 l  33 -71 l  35 -71 l  49 -88 l  50 -91 l  51 -88 l 
52 -78 l  52 -61 l  51 -57 l  10 -7 l  8 -14 l  5 -37 l  7 -44 l  21 -57 l 
23 -57 l  23 -219 l  8 -219 l  7 -223 l  7 -250 l  8 -253 l  23 -253 l 
23 -347 l  p ef
440 -327 m  537 -327 l  538 -324 l  538 -297 l  537 -294 l  450 -294 l 
450 -30 l  540 -30 l  541 -27 l  541 0 l  540 3 l  450 3 l  450 27 l  449 30 l 
440 30 l  439 27 l  439 -324 l  p
510 -283 m  512 -280 l  518 -273 l  519 -270 l  519 -267 l  518 -256 l 
512 -216 l  510 -209 l  508 -196 l  508 -192 l  504 -172 l  502 -165 l 
506 -152 l  507 -152 l  528 -84 l  528 -81 l  521 -57 l  500 -128 l  496 -138 l 
492 -125 l  492 -122 l  481 -88 l  474 -71 l  473 -71 l  470 -64 l  468 -57 l 
465 -51 l  461 -44 l  454 -67 l  456 -74 l  471 -105 l  475 -115 l  487 -152 l 
488 -159 l  488 -162 l  484 -175 l  471 -209 l  470 -209 l  463 -226 l 
460 -236 l  466 -256 l  467 -256 l  493 -189 l  495 -186 l  500 -213 l 
509 -273 l  509 -280 l  p ef
885 -334 m  894 -334 l  895 -331 l  895 -233 l  896 -233 l  944 -253 l 
945 -256 l  949 -256 l  955 -236 l  955 -233 l  954 -226 l  942 -172 l 
923 -105 l  916 -122 l  914 -128 l  921 -152 l  922 -152 l  934 -196 l 
939 -219 l  937 -219 l  895 -199 l  895 -57 l  898 -47 l  903 -44 l  932 -44 l 
945 -47 l  946 -51 l  951 -51 l  952 -47 l  952 -14 l  951 -10 l  937 -7 l 
905 -7 l  896 -10 l  892 -14 l  890 -17 l  886 -30 l  885 -37 l  884 -47 l 
884 -192 l  877 -192 l  861 -182 l  856 -182 l  855 -186 l  855 -213 l 
857 -219 l  881 -229 l  884 -331 l  p ef
1289 -307 m  1290 -307 l  1305 -277 l  1318 -243 l  1318 -240 l  1314 -223 l 
1310 -209 l  1307 -216 l  1302 -233 l  1292 -256 l  1283 -273 l  1282 -277 l 
1282 -280 l  1285 -294 l  p
1365 -263 m  1370 -250 l  1374 -236 l  1374 -233 l  1369 -199 l  1354 -128 l 
1345 -98 l  1327 -54 l  1308 -24 l  1291 -7 l  1290 -7 l  1288 -14 l  1288 -17 l 
1287 -24 l  1285 -34 l  1283 -41 l  1285 -47 l  1289 -47 l  1294 -51 l 
1306 -64 l  1321 -88 l  1323 -94 l  1329 -108 l  1330 -108 l  1334 -118 l 
1349 -169 l  1361 -229 l  1365 -256 l  1364 -260 l  p ef
1741 -341 m  1743 -341 l  1744 -337 l  1748 -334 l  1750 -334 l  1751 -331 l 
1748 -300 l  1747 -294 l  1746 -290 l  1784 -290 l  1789 -277 l  1791 -270 l 
1791 -267 l  1785 -199 l  1777 -142 l  1775 -132 l  1773 -125 l  1771 -115 l 
1771 -111 l  1765 -84 l  1751 -37 l  1734 3 l  1723 20 l  1723 20 l  1718 3 l 
1718 0 l  1716 -3 l  1716 -3 l  1714 -7 l  1716 -10 l  1716 -10 l  1731 -34 l 
1744 -64 l  1756 -105 l  1756 -111 l  1753 -125 l  1740 -169 l  1734 -186 l 
1731 -192 l  1730 -192 l  1727 -182 l  1727 -179 l  1714 -138 l  1709 -125 l 
1703 -145 l  1702 -152 l  1706 -165 l  1707 -165 l  1720 -206 l  1729 -250 l 
1735 -290 l  1739 -327 l  1739 -334 l  p
1741 -253 m  1741 -250 l  1740 -243 l  1738 -236 l  1736 -223 l  1745 -196 l 
1763 -138 l  1765 -145 l  1774 -206 l  1778 -246 l  1778 -256 l  1742 -256 l 
p ef
2127 -186 m  2231 -186 l  2232 -182 l  2232 -152 l  2231 -148 l  2127 -148 l 
2126 -152 l  2126 -182 l  p ef
pom

100 lw 0.000 c 2500 6000 m  1000 6000 l  1000 5000 l  4000 5000 l  4000 6000 l 
2500 6000 l  pc
pum
2077 5646 t
0.234 c 116 -174 m  158 -174 l  158 -132 l  116 -132 l  116 -174 l  p
77 -252 m  77 -56 l  269 -154 l  77 -252 l  p
42 0 m  42 -308 l  301 -178 l  301 -131 l  42 0 l  p ef
793 -231 m  691 21 l  680 49 670 67 660 75 ct 650 84 636 88 619 88 ct 589 88 l 
589 56 l  611 56 l  621 56 630 54 635 49 ct 641 44 647 32 655 14 ct 680 -51 l 
608 -231 l  648 -231 l  700 -101 l  753 -231 l  793 -231 l  p
599 -195 m  612 -172 618 -146 618 -115 ct 618 -85 612 -59 599 -36 ct 583 -8 561 6 533 6 ct 
504 6 482 -8 466 -35 ct 453 -58 446 -85 446 -115 ct 446 -146 453 -173 466 -196 ct 
482 -223 504 -237 533 -237 ct 561 -237 583 -223 599 -195 ct p
533 -26 m  563 -26 578 -56 578 -115 ct 578 -175 563 -205 533 -205 ct 502 -205 486 -175 486 -115 ct 
486 -56 502 -26 533 -26 ct p ef
pom

101 lw 0.000 c 2500 7000 m  2400 7000 l  ps
2197 7000 m  2097 7000 l  ps
1894 7000 m  1691 7000 l  ps
1488 7000 m  1388 7000 l  ps
1185 7000 m  1085 7000 l  ps
1000 6882 m  1000 6679 l  ps
1000 6476 m  1000 6376 l  ps
1000 6173 m  1000 6073 l  ps
1130 6000 m  1333 6000 l  ps
1536 6000 m  1636 6000 l  ps
1839 6000 m  1939 6000 l  ps
2142 6000 m  2345 6000 l  ps
2548 6000 m  2648 6000 l  ps
2851 6000 m  2951 6000 l  ps
3154 6000 m  3357 6000 l  ps
3560 6000 m  3660 6000 l  ps
3863 6000 m  3963 6000 l  ps
4000 6166 m  4000 6369 l  ps
4000 6572 m  4000 6672 l  ps
4000 6875 m  4000 6975 l  ps
3822 7000 m  3619 7000 l  ps
3416 7000 m  3316 7000 l  ps
3113 7000 m  3013 7000 l  ps
2810 7000 m  2607 7000 l  ps
pum
1865 6646 t
0.234 c 52 -220 m  52 -157 l  95 -157 l  109 -157 119 -160 126 -165 ct 133 -170 136 -178 136 -189 ct 
136 -199 133 -207 126 -212 ct 119 -217 109 -220 95 -220 ct 52 -220 l  p
52 -292 m  52 -239 l  91 -239 l  104 -239 114 -241 120 -246 ct 126 -250 130 -256 130 -265 ct 
130 -274 126 -281 120 -285 ct 114 -290 104 -292 91 -292 ct 52 -292 l  p
26 -311 m  93 -311 l  113 -311 129 -307 140 -300 ct 151 -292 156 -282 156 -268 ct 
156 -257 153 -249 147 -242 ct 142 -236 134 -232 123 -231 ct 136 -228 146 -223 153 -215 ct 
160 -208 164 -198 164 -186 ct 164 -171 158 -159 146 -151 ct 134 -142 118 -138 96 -138 ct 
26 -138 l  26 -311 l  p ef
473 -97 m  516 -97 l  516 -45 l  473 -45 l  473 -97 l  p
473 -263 m  516 -263 l  516 -211 l  473 -211 l  473 -263 l  p
702 -9 m  702 -59 690 -95 667 -117 ct 643 -139 609 -150 565 -150 ct 544 -150 l 
544 -308 l  586 -308 l  586 -184 l  622 -184 657 -171 692 -146 ct 726 -121 744 -80 744 -23 ct 
744 0 l  702 0 l  702 -9 l  p ef
1022 -108 m  1013 -156 l  1006 -188 991 -205 967 -205 ct 948 -205 935 -197 926 -182 ct 
916 -163 910 -141 910 -116 ct 910 -85 916 -63 926 -49 ct 936 -34 950 -26 967 -26 ct 
985 -26 999 -41 1009 -70 ct 1022 -108 l  p
1043 -171 m  1063 -232 l  1097 -232 l  1055 -106 l  1063 -61 l  1064 -54 1068 -48 1072 -42 ct 
1078 -36 1083 -32 1087 -32 ct 1106 -32 l  1106 0 l  1083 0 l  1070 0 1058 -6 1046 -17 ct 
1040 -23 1036 -32 1034 -44 ct 1028 -29 1018 -15 1005 -3 ct 999 2 986 5 967 5 ct 
934 5 910 -5 895 -26 ct 878 -48 870 -78 870 -116 ct 870 -156 879 -186 897 -205 ct 
916 -226 939 -237 967 -237 ct 1009 -237 1035 -215 1043 -171 ct p
947 -339 m  1005 -262 l  973 -262 l  906 -339 l  947 -339 l  p ef
pom

0 lw 0.000 c 2500 8000 m  1000 8000 l  1000 7000 l  4000 7000 l  4000 8000 l 
2500 8000 l  pc
pum
1865 7646 t
0.234 c 73 -232 m  73 -82 l  73 -62 76 -49 80 -42 ct 85 -36 95 -32 110 -32 ct 
128 -32 l  128 0 l  106 0 l  81 0 63 -7 51 -20 ct 40 -33 35 -55 35 -84 ct 34 -232 l 
73 -232 l  p
-6 -316 m  118 -316 l  118 -285 l  -6 -285 l  -6 -316 l  p ef
711 -195 m  696 -195 l  696 -122 l  696 -82 686 -51 666 -31 ct 646 -10 617 0 578 0 ct 
540 0 510 -10 490 -31 ct 470 -50 460 -81 460 -122 ct 460 -153 467 -177 482 -194 ct 
504 -219 529 -231 557 -231 ct 654 -231 l  654 -314 l  696 -314 l  696 -231 l 
711 -231 l  731 -231 748 -225 761 -212 ct 774 -200 781 -182 781 -158 ct 781 -144 l 
749 -144 l  749 -154 l  749 -169 745 -179 739 -185 ct 731 -192 722 -195 711 -195 ct 
p
654 -195 m  566 -195 l  543 -195 525 -187 513 -169 ct 505 -159 502 -144 502 -124 ct 
502 -93 508 -70 520 -56 ct 532 -41 551 -34 578 -34 ct 605 -34 624 -41 636 -56 ct 
648 -70 654 -94 654 -127 ct 654 -195 l  p ef
1282 -170 m  1259 -151 l  1148 -283 l  1171 -302 l  1282 -170 l  p
907 -274 m  992 -42 l  1077 -274 l  907 -274 l  p
1133 -309 m  1015 -1 l  968 -1 l  850 -309 l  1133 -309 l  p ef
pom

0.000 c 2500 9000 m  1000 9000 l  1000 8000 l  4000 8000 l  4000 9000 l 
2500 9000 l  pc
pum
2077 8646 t
0.234 c 272 -285 m  272 -241 l  258 -254 243 -264 228 -270 ct 212 -276 195 -280 177 -280 ct 
142 -280 115 -269 96 -247 ct 77 -226 68 -195 68 -154 ct 68 -113 77 -82 96 -61 ct 
115 -39 142 -28 177 -28 ct 195 -28 212 -32 228 -38 ct 243 -44 258 -54 272 -67 ct 
272 -24 l  258 -14 242 -6 226 -1 ct 210 4 193 6 174 6 ct 128 6 91 -8 64 -37 ct 
37 -65 24 -104 24 -154 ct 24 -203 37 -243 64 -271 ct 91 -300 128 -314 174 -314 ct 
193 -314 210 -312 226 -307 ct 243 -302 258 -294 272 -285 ct p ef
567 -85 m  567 -156 l  682 -156 l  682 -85 l  567 -85 l  p
419 -85 m  419 -156 l  534 -156 l  534 -85 l  419 -85 l  p ef
pom


pum
1283 2277 t
187 -309 m  240 -309 284 -283 321 -232 ct 336 -208 344 -181 344 -152 ct 344 -106 322 -65 279 -30 ct 
252 -10 224 0 195 0 ct 188 0 l  136 0 92 -27 56 -80 ct 42 -104 35 -128 35 -153 ct 
35 -158 l  35 -205 58 -246 105 -282 ct 130 -300 158 -309 187 -309 ct p
255 -273 m  232 -286 209 -293 186 -293 ct 145 -293 108 -272 76 -232 ct 58 -207 50 -182 50 -155 ct 
50 -112 69 -74 107 -43 ct 132 -24 160 -15 190 -15 ct 237 -15 277 -38 309 -86 ct 
321 -107 327 -129 327 -151 ct 327 -155 l  327 -202 304 -241 257 -272 ct 256 -273 256 -273 255 -273 ct 
p
194 -23 m  188 -23 l  165 -23 144 -29 125 -42 ct 168 -118 l  174 -113 181 -111 189 -111 ct 
191 -111 l  198 -111 204 -113 211 -117 ct 254 -42 l  235 -29 215 -23 194 -23 ct 
p
166 -190 m  153 -180 146 -169 146 -156 ct 146 -155 l  58 -155 l  58 -158 l 
58 -198 78 -233 118 -263 ct 120 -265 123 -266 125 -268 ct 169 -192 l  168 -192 167 -191 166 -190 ct 
p
301 -221 m  314 -201 321 -179 321 -155 ct 233 -155 l  233 -163 231 -170 226 -176 ct 
222 -183 216 -188 210 -192 ct 254 -267 l  271 -256 287 -241 301 -221 ct p
189 -188 m  200 -188 210 -182 217 -171 ct 221 -166 223 -160 223 -154 ct 223 -144 218 -136 209 -128 ct 
203 -124 197 -122 191 -122 ct 189 -122 l  178 -122 169 -128 161 -139 ct 158 -144 157 -149 157 -154 ct 
157 -155 l  157 -165 162 -174 172 -182 ct 177 -186 183 -188 189 -188 ct p ef
661 -125 m  661 -106 l  486 -106 l  488 -80 496 -60 510 -47 ct 524 -33 543 -26 569 -26 ct 
583 -26 597 -28 611 -32 ct 625 -35 638 -41 652 -48 ct 652 -12 l  638 -6 624 -2 610 1 ct 
596 4 581 6 566 6 ct 529 6 500 -5 479 -26 ct 457 -48 446 -77 446 -113 ct 446 -151 457 -181 477 -204 ct 
497 -226 525 -237 560 -237 ct 591 -237 615 -227 634 -207 ct 652 -187 661 -160 661 -125 ct 
p
623 -136 m  622 -157 617 -174 605 -186 ct 594 -199 579 -205 560 -205 ct 539 -205 522 -199 509 -187 ct 
497 -175 489 -158 487 -136 ct 623 -136 l  p
536 36 m  579 36 l  579 78 l  536 78 l  536 36 l  p ef
1207 -205 m  1195 -206 l  1192 -206 1188 -207 1183 -207 ct 1178 -207 1174 -205 1170 -201 ct 
1161 -194 1152 -179 1144 -157 ct 1085 0 l  1034 0 l  1034 88 l  996 88 l 
996 0 l  944 0 l  857 -231 l  898 -231 l  970 -37 l  996 -37 l  996 -324 l 
1034 -324 l  1034 -37 l  1059 -37 l  1107 -166 l  1118 -195 1131 -215 1145 -226 ct 
1154 -233 1167 -237 1185 -237 ct 1192 -237 1200 -236 1207 -234 ct 1207 -205 l 
p ef
1388 -308 m  1430 -308 l  1430 -182 l  1582 -182 l  1582 -308 l  1623 -308 l 
1623 0 l  1582 0 l  1582 -147 l  1430 -147 l  1430 0 l  1388 0 l  1388 -308 l 
p
1339 -357 m  1327 -364 l  1324 -365 1321 -367 1319 -367 ct 1317 -368 1315 -369 1313 -369 ct 
1308 -369 1304 -367 1301 -364 ct 1299 -360 1297 -355 1297 -349 ct 1297 -348 l 
1271 -348 l  1271 -362 1275 -373 1282 -381 ct 1289 -389 1299 -393 1310 -393 ct 
1315 -393 1320 -392 1324 -391 ct 1328 -390 1334 -388 1340 -384 ct 1352 -378 l 
1355 -376 1358 -375 1360 -374 ct 1363 -373 1365 -373 1367 -373 ct 1371 -373 1375 -375 1378 -378 ct 
1381 -382 1382 -386 1382 -392 ct 1382 -393 l  1408 -393 l  1407 -379 1404 -368 1397 -360 ct 
1390 -352 1380 -348 1369 -348 ct 1364 -348 1360 -349 1356 -350 ct 1352 -351 1346 -353 1339 -357 ct 
p
1364 -307 m  1364 -270 1348 -252 1314 -252 ct 1314 -273 l  1333 -273 1342 -284 1342 -305 ct 
1315 -305 l  1315 -338 l  1364 -338 l  1364 -307 l  p
1532 88 m  1502 88 l  1498 88 1495 86 1491 81 ct 1488 78 1487 73 1487 66 ct 
1487 19 l  1518 19 l  1518 66 l  1518 68 1518 70 1520 72 ct 1521 73 1523 74 1525 74 ct 
1532 74 l  1532 88 l  p ef
2064 -174 m  2106 -174 l  2106 -132 l  2064 -132 l  2064 -174 l  p
1934 -149 m  1912 -149 1897 -143 1887 -132 ct 1878 -121 1873 -107 1873 -92 ct 
1873 -69 1880 -52 1893 -42 ct 1907 -32 1921 -27 1934 -27 ct 1947 -27 1960 -32 1974 -42 ct 
1988 -52 1995 -69 1995 -92 ct 1995 -110 1989 -124 1979 -134 ct 1968 -144 1953 -149 1934 -149 ct 
p
1934 -184 m  1968 -184 1994 -177 2012 -161 ct 2030 -146 2039 -123 2039 -92 ct 
2039 -60 2029 -35 2011 -19 ct 1992 -2 1966 6 1934 6 ct 1901 6 1876 -2 1857 -19 ct 
1838 -35 1829 -60 1829 -92 ct 1829 -116 1834 -135 1844 -149 ct 1718 -149 l  1718 -184 l 
1934 -184 l  p ef
75 -361 m  76 -361 l  77 -358 l  81 -354 l  82 -354 l  83 -351 l  83 -344 l 
82 -341 l  81 -327 l  107 -327 l  111 -317 l  112 -314 l  104 -260 l  95 -219 l 
94 -213 l  94 -209 l  111 -169 l  121 -152 l  122 -152 l  123 -148 l  123 -145 l 
122 -138 l  120 -128 l  117 -118 l  116 -118 l  114 -122 l  112 -128 l 
111 -128 l  111 27 l  110 30 l  102 30 l  101 27 l  101 7 l  73 7 l  73 27 l 
72 30 l  64 30 l  63 27 l  63 -122 l  62 -122 l  56 -108 l  52 -122 l 
52 -125 l  51 -128 l  51 -122 l  50 -118 l  38 -118 l  38 -37 l  39 -41 l 
54 -57 l  56 -57 l  57 -54 l  57 -34 l  55 -27 l  54 -27 l  48 -20 l  46 -17 l 
10 24 l  9 24 l  8 20 l  8 17 l  7 7 l  6 0 l  5 -3 l  5 -7 l  7 -14 l 
11 -14 l  11 -169 l  12 -172 l  20 -172 l  21 -169 l  21 -24 l  23 -24 l 
24 -27 l  27 -30 l  28 -30 l  28 -206 l  11 -206 l  10 -209 l  10 -337 l 
11 -341 l  51 -341 l  52 -337 l  52 -209 l  51 -206 l  38 -206 l  38 -148 l 
50 -148 l  51 -145 l  51 -138 l  52 -138 l  56 -145 l  79 -199 l  82 -209 l 
81 -216 l  77 -229 l  73 -250 l  73 -253 l  72 -256 l  71 -256 l  71 -253 l 
66 -229 l  58 -202 l  57 -202 l  56 -206 l  56 -209 l  52 -223 l  52 -226 l 
58 -250 l  65 -283 l  71 -327 l  73 -351 l  74 -358 l  p
20 -236 m  42 -236 l  42 -310 l  20 -310 l  p
77 -290 m  77 -280 l  78 -273 l  83 -250 l  87 -236 l  88 -236 l  89 -240 l 
89 -243 l  96 -277 l  98 -290 l  98 -297 l  78 -297 l  p
69 -135 m  108 -135 l  106 -142 l  88 -189 l  p
73 -24 m  101 -24 l  101 -105 l  73 -105 l  p ef
453 -364 m  460 -354 l  462 -347 l  462 -344 l  456 -310 l  454 -304 l 
452 -294 l  452 -290 l  448 -270 l  446 -263 l  446 -260 l  450 -240 l 
452 -233 l  453 -236 l  457 -256 l  457 -260 l  458 -267 l  462 -287 l 
465 -307 l  466 -310 l  468 -304 l  471 -297 l  472 -297 l  474 -290 l 
473 -283 l  454 -192 l  450 -179 l  450 -175 l  459 -175 l  467 -179 l 
467 -186 l  466 -189 l  463 -209 l  463 -213 l  464 -216 l  466 -219 l 
469 -223 l  470 -223 l  472 -216 l  473 -206 l  481 -145 l  480 -142 l 
474 -132 l  473 -132 l  472 -135 l  471 -142 l  470 -152 l  470 -155 l 
468 -155 l  467 -152 l  460 -152 l  459 -148 l  459 27 l  458 30 l  450 30 l 
449 27 l  449 -145 l  438 -145 l  437 -142 l  431 -142 l  430 -145 l  427 -169 l 
428 -172 l  439 -172 l  440 -175 l  445 -199 l  446 -206 l  446 -213 l 
433 -267 l  431 -273 l  430 -273 l  429 -277 l  431 -287 l  435 -300 l 
436 -300 l  438 -294 l  438 -290 l  440 -283 l  441 -283 l  441 -287 l 
442 -294 l  444 -300 l  447 -317 l  452 -361 l  p
506 -364 m  510 -364 l  515 -361 l  516 -358 l  516 -354 l  511 -321 l 
537 -321 l  538 -317 l  538 -165 l  537 -162 l  517 -162 l  522 -115 l 
523 -111 l  526 -122 l  526 -125 l  533 -148 l  533 -152 l  535 -159 l 
541 -145 l  543 -138 l  542 -135 l  541 -135 l  529 -94 l  528 -94 l  527 -91 l 
527 -88 l  528 -81 l  533 -61 l  545 -24 l  546 -24 l  547 -20 l  543 0 l 
541 7 l  540 7 l  530 -27 l  522 -64 l  522 -67 l  521 -74 l  519 -81 l 
518 -88 l  518 -94 l  517 -98 l  517 10 l  516 17 l  514 24 l  511 27 l 
499 27 l  496 17 l  495 -3 l  496 -7 l  506 -7 l  507 -10 l  507 -162 l 
485 -162 l  484 -165 l  484 -317 l  485 -321 l  502 -321 l  503 -324 l 
503 -334 l  504 -351 l  505 -361 l  p
494 -256 m  528 -256 l  528 -290 l  494 -290 l  p
494 -192 m  528 -192 l  528 -226 l  494 -226 l  p
480 -135 m  501 -135 l  506 -118 l  503 -91 l  497 -51 l  490 -17 l  480 17 l 
474 -7 l  477 -17 l  478 -17 l  484 -37 l  490 -64 l  490 -67 l  494 -94 l 
495 -98 l  495 -105 l  480 -105 l  479 -108 l  479 -132 l  p
470 -132 m  471 -128 l  474 -94 l  478 -51 l  478 -44 l  477 -41 l  476 -41 l 
472 -34 l  471 -30 l  470 -30 l  468 -37 l  466 -74 l  462 -122 l  463 -125 l 
465 -125 l  469 -128 l  p
435 -125 m  436 -122 l  443 -122 l  444 -118 l  444 -105 l  441 -34 l 
439 -7 l  437 0 l  431 -10 l  429 -17 l  429 -20 l  430 -24 l  434 -88 l 
434 -122 l  p ef
858 -344 m  908 -344 l  909 -341 l  909 -317 l  908 -314 l  890 -314 l 
890 -283 l  904 -283 l  905 -280 l  905 -256 l  904 -253 l  890 -253 l 
890 -223 l  904 -223 l  905 -219 l  905 -196 l  904 -192 l  890 -192 l 
890 -159 l  907 -159 l  908 -155 l  908 -88 l  903 14 l  899 27 l  897 30 l 
884 30 l  881 27 l  880 24 l  879 14 l  879 -3 l  880 -7 l  881 -3 l  892 -3 l 
894 -7 l  895 -10 l  896 -17 l  897 -34 l  897 -44 l  896 -44 l  894 -41 l 
893 -37 l  892 -37 l  891 -41 l  891 -54 l  887 -105 l  886 -108 l  886 -111 l 
887 -115 l  888 -115 l  890 -118 l  891 -122 l  893 -115 l  893 -108 l 
897 -61 l  898 -64 l  898 -108 l  899 -111 l  899 -128 l  858 -128 l  857 -132 l 
857 -341 l  p
917 -341 m  962 -341 l  963 -337 l  963 -179 l  962 -175 l  946 -175 l 
953 -91 l  955 -74 l  963 -30 l  967 3 l  967 7 l  966 14 l  963 24 l 
959 10 l  951 -27 l  944 -74 l  939 -132 l  937 -169 l  937 -175 l  926 -175 l 
924 -81 l  922 -44 l  917 3 l  915 10 l  913 20 l  913 24 l  911 30 l 
908 20 l  908 -14 l  912 -44 l  915 -91 l  916 -128 l  916 -337 l  p
867 -314 m  880 -314 l  880 -283 l  867 -283 l  p
926 -206 m  953 -206 l  953 -310 l  926 -310 l  p
867 -253 m  880 -253 l  880 -223 l  867 -223 l  p
867 -192 m  880 -192 l  880 -159 l  867 -159 l  p
880 -111 m  881 -111 l  883 -105 l  886 -57 l  888 -34 l  887 -30 l  885 -27 l 
881 -24 l  880 -27 l  879 -34 l  879 -57 l  877 -94 l  876 -98 l  876 -105 l 
877 -108 l  p
857 -108 m  858 -108 l  859 -105 l  863 -105 l  864 -101 l  864 -88 l 
859 3 l  858 7 l  855 0 l  851 -14 l  851 -20 l  852 -30 l  856 -105 l 
p
868 -105 m  872 -105 l  873 -101 l  874 -88 l  875 -61 l  875 -24 l  873 -17 l 
869 -14 l  868 -14 l  867 -17 l  867 -91 l  866 -94 l  866 -98 l  p ef
1293 -361 m  1301 -361 l  1302 -358 l  1302 -273 l  1313 -273 l  1314 -270 l 
1314 -246 l  1313 -243 l  1302 -243 l  1302 -169 l  1304 -169 l  1313 -179 l 
1314 -182 l  1315 -179 l  1315 -155 l  1314 -152 l  1304 -138 l  1303 -138 l 
1302 -135 l  1302 10 l  1301 17 l  1298 27 l  1296 30 l  1281 30 l  1279 27 l 
1278 24 l  1277 10 l  1277 -3 l  1278 -7 l  1280 -7 l  1281 -3 l  1290 -3 l 
1292 -10 l  1292 -125 l  1291 -125 l  1290 -122 l  1277 -108 l  1276 -111 l 
1276 -115 l  1275 -125 l  1274 -132 l  1273 -135 l  1273 -138 l  1274 -142 l 
1276 -142 l  1291 -155 l  1292 -159 l  1292 -243 l  1276 -243 l  1275 -246 l 
1275 -270 l  1276 -273 l  1292 -273 l  1292 -358 l  p
1317 -334 m  1386 -334 l  1387 -331 l  1387 -263 l  1386 -260 l  1378 -260 l 
1377 -263 l  1377 -304 l  1365 -304 l  1365 -226 l  1366 -223 l  1376 -223 l 
1378 -226 l  1379 -229 l  1380 -246 l  1380 -253 l  1381 -256 l  1382 -256 l 
1383 -253 l  1386 -250 l  1388 -250 l  1389 -246 l  1389 -219 l  1388 -206 l 
1385 -196 l  1383 -192 l  1378 -189 l  1363 -189 l  1359 -192 l  1356 -202 l 
1355 -209 l  1355 -304 l  1326 -304 l  1326 -253 l  1325 -250 l  1317 -250 l 
1316 -253 l  1316 -331 l  p
1338 -300 m  1340 -300 l  1345 -297 l  1346 -294 l  1346 -273 l  1340 -223 l 
1338 -213 l  1331 -189 l  1325 -175 l  1323 -172 l  1320 -182 l  1317 -196 l 
1319 -202 l  1320 -202 l  1327 -219 l  1329 -226 l  1332 -240 l  1335 -260 l 
1337 -280 l  1337 -297 l  p
1347 -196 m  1355 -196 l  1356 -192 l  1356 -152 l  1389 -152 l  1390 -148 l 
1390 -125 l  1389 -122 l  1358 -122 l  1361 -111 l  1365 -94 l  1365 -91 l 
1372 -67 l  1386 -34 l  1390 -27 l  1391 -27 l  1392 -24 l  1392 -20 l 
1388 -3 l  1385 7 l  1383 3 l  1381 -3 l  1377 -14 l  1376 -14 l  1370 -30 l 
1364 -51 l  1359 -71 l  1357 -81 l  1357 -84 l  1356 -88 l  1356 27 l 
1355 30 l  1347 30 l  1346 27 l  1346 -81 l  1344 -74 l  1343 -67 l  1343 -64 l 
1340 -51 l  1327 -7 l  1326 -7 l  1322 3 l  1320 10 l  1318 14 l  1317 10 l 
1315 0 l  1312 -14 l  1314 -20 l  1315 -20 l  1317 -24 l  1328 -51 l  1334 -71 l 
1340 -98 l  1340 -101 l  1341 -108 l  1343 -115 l  1344 -122 l  1316 -122 l 
1315 -125 l  1315 -148 l  1316 -152 l  1346 -152 l  1346 -192 l  p ef
1751 -361 m  1759 -361 l  1760 -358 l  1760 -314 l  1805 -314 l  1806 -310 l 
1806 -287 l  1805 -283 l  1760 -283 l  1760 -246 l  1808 -246 l  1809 -243 l 
1809 -175 l  1808 -172 l  1800 -172 l  1799 -175 l  1799 -216 l  1755 -216 l 
1757 -209 l  1758 -209 l  1759 -206 l  1742 -148 l  1742 -145 l  1743 -142 l 
1744 -142 l  1750 -122 l  1751 -122 l  1757 -138 l  1777 -206 l  1779 -202 l 
1782 -196 l  1785 -186 l  1784 -182 l  1783 -182 l  1768 -132 l  1762 -115 l 
1761 -115 l  1760 -111 l  1791 -115 l  1782 -145 l  1785 -155 l  1788 -162 l 
1790 -159 l  1802 -125 l  1813 -88 l  1812 -84 l  1811 -84 l  1806 -67 l 
1805 -67 l  1798 -91 l  1761 -84 l  1761 27 l  1760 30 l  1751 30 l  1750 27 l 
1750 -81 l  1728 -81 l  1727 -78 l  1703 -78 l  1701 -84 l  1699 -105 l 
1700 -108 l  1740 -111 l  1730 -142 l  1718 -169 l  1717 -172 l  1721 -186 l 
1724 -192 l  1725 -192 l  1727 -189 l  1731 -179 l  1735 -165 l  1748 -209 l 
1749 -216 l  1712 -216 l  1712 -175 l  1711 -172 l  1703 -172 l  1702 -175 l 
1702 -243 l  1703 -246 l  1750 -246 l  1750 -283 l  1706 -283 l  1705 -287 l 
1705 -310 l  1706 -314 l  1750 -314 l  1750 -358 l  p
1779 -74 m  1780 -74 l  1806 -20 l  1810 -7 l  1802 20 l  1796 3 l  1792 -10 l 
1788 -20 l  1787 -20 l  1784 -27 l  1782 -34 l  1779 -41 l  1775 -47 l 
1772 -51 l  1771 -54 l  1773 -61 l  1777 -71 l  p
1732 -71 m  1740 -57 l  1741 -54 l  1731 -20 l  1717 14 l  1716 14 l  1712 20 l 
1711 24 l  1710 24 l  1705 7 l  1704 7 l  1702 0 l  1703 -3 l  1704 -3 l 
1712 -17 l  1714 -24 l  1716 -27 l  1717 -27 l  1724 -44 l  p ef
2181 -334 m  2191 -334 l  2192 -331 l  2192 -155 l  2188 -98 l  2187 -88 l 
2182 -51 l  2178 -34 l  2172 -14 l  2164 7 l  2155 24 l  2154 24 l  2153 20 l 
2153 17 l  2146 -7 l  2147 -10 l  2153 -20 l  2154 -20 l  2158 -27 l  2161 -34 l 
2172 -71 l  2175 -94 l  2180 -155 l  2180 -331 l  p
2133 -327 m  2143 -327 l  2144 -324 l  2144 -132 l  2143 -128 l  2133 -128 l 
2132 -132 l  2132 -324 l  p ef
pom
pum
1283 2773 t
69 -307 m  82 -307 l  90 -283 l  90 -277 l  89 -267 l  81 -209 l  69 -148 l 
72 -138 l  73 -138 l  87 -101 l  109 -34 l  109 -30 l  100 0 l  99 -3 l 
99 -7 l  78 -78 l  65 -115 l  63 -118 l  62 -118 l  60 -111 l  60 -108 l 
48 -71 l  34 -34 l  33 -34 l  30 -27 l  28 -20 l  25 -14 l  15 3 l  14 0 l 
14 -3 l  7 -27 l  9 -34 l  10 -34 l  24 -57 l  42 -101 l  53 -138 l  53 -142 l 
57 -159 l  61 -169 l  65 -189 l  74 -250 l  75 -260 l  76 -267 l  77 -270 l 
39 -270 l  38 -267 l  20 -267 l  19 -270 l  19 -294 l  18 -297 l  18 -300 l 
19 -304 l  68 -304 l  p ef
407 -341 m  417 -341 l  418 -337 l  418 -219 l  419 -216 l  423 -209 l 
426 -206 l  446 -172 l  464 -135 l  466 -128 l  466 -125 l  460 -94 l 
459 -91 l  456 -98 l  453 -108 l  430 -159 l  419 -179 l  418 -179 l  418 10 l 
417 14 l  407 14 l  407 10 l  407 -337 l  p ef
pom
pum
1965 2773 t
18 -149 m  18 -185 21 -214 29 -236 ct 36 -257 47 -274 61 -286 ct 76 -298 94 -304 116 -304 ct 
133 -304 147 -300 159 -294 ct 171 -287 181 -278 189 -266 ct 197 -253 204 -238 208 -221 ct 
213 -203 215 -179 215 -149 ct 215 -114 211 -85 204 -63 ct 197 -42 186 -25 171 -13 ct 
157 -1 138 5 116 5 ct 87 5 64 -5 48 -26 ct 28 -52 18 -92 18 -149 ct p
56 -149 m  56 -100 62 -67 73 -50 ct 85 -34 99 -26 116 -26 ct 133 -26 148 -34 159 -50 ct 
171 -67 177 -100 177 -149 ct 177 -199 171 -232 159 -248 ct 148 -265 133 -273 116 -273 ct 
99 -273 85 -266 75 -251 ct 62 -233 56 -199 56 -149 ct p ef
pom
0.000 c 2500 13500 m  1000 13500 l  1000 12500 l  4000 12500 l  4000 13500 l 
2500 13500 l  pc
pum
1865 13146 t
0.234 c 52 -220 m  52 -157 l  95 -157 l  109 -157 119 -160 126 -165 ct 133 -170 136 -178 136 -189 ct 
136 -199 133 -207 126 -212 ct 119 -217 109 -220 95 -220 ct 52 -220 l  p
52 -292 m  52 -239 l  91 -239 l  104 -239 114 -241 120 -246 ct 126 -250 130 -256 130 -265 ct 
130 -274 126 -281 120 -285 ct 114 -290 104 -292 91 -292 ct 52 -292 l  p
26 -311 m  93 -311 l  113 -311 129 -307 140 -300 ct 151 -292 156 -282 156 -268 ct 
156 -257 153 -249 147 -242 ct 142 -236 134 -232 123 -231 ct 136 -228 146 -223 153 -215 ct 
160 -208 164 -198 164 -186 ct 164 -171 158 -159 146 -151 ct 134 -142 118 -138 96 -138 ct 
26 -138 l  26 -311 l  p ef
473 -97 m  516 -97 l  516 -45 l  473 -45 l  473 -97 l  p
473 -263 m  516 -263 l  516 -211 l  473 -211 l  473 -263 l  p
702 -9 m  702 -59 690 -95 667 -117 ct 643 -139 609 -150 565 -150 ct 544 -150 l 
544 -308 l  586 -308 l  586 -184 l  622 -184 657 -171 692 -146 ct 726 -121 744 -80 744 -23 ct 
744 0 l  702 0 l  702 -9 l  p ef
1022 -108 m  1013 -156 l  1006 -188 991 -205 967 -205 ct 948 -205 935 -197 926 -182 ct 
916 -163 910 -141 910 -116 ct 910 -85 916 -63 926 -49 ct 936 -34 950 -26 967 -26 ct 
985 -26 999 -41 1009 -70 ct 1022 -108 l  p
1043 -171 m  1063 -232 l  1097 -232 l  1055 -106 l  1063 -61 l  1064 -54 1068 -48 1072 -42 ct 
1078 -36 1083 -32 1087 -32 ct 1106 -32 l  1106 0 l  1083 0 l  1070 0 1058 -6 1046 -17 ct 
1040 -23 1036 -32 1034 -44 ct 1028 -29 1018 -15 1005 -3 ct 999 2 986 5 967 5 ct 
934 5 910 -5 895 -26 ct 878 -48 870 -78 870 -116 ct 870 -156 879 -186 897 -205 ct 
916 -226 939 -237 967 -237 ct 1009 -237 1035 -215 1043 -171 ct p
947 -339 m  1005 -262 l  973 -262 l  906 -339 l  947 -339 l  p ef
pom

0.000 c 2500 14500 m  1000 14500 l  1000 13500 l  4000 13500 l  4000 14500 l 
2500 14500 l  pc
pum
1865 14146 t
0.234 c 73 -232 m  73 -82 l  73 -62 76 -49 80 -42 ct 85 -36 95 -32 110 -32 ct 
128 -32 l  128 0 l  106 0 l  81 0 63 -7 51 -20 ct 40 -33 35 -55 35 -84 ct 34 -232 l 
73 -232 l  p
-6 -316 m  118 -316 l  118 -285 l  -6 -285 l  -6 -316 l  p ef
711 -195 m  696 -195 l  696 -122 l  696 -82 686 -51 666 -31 ct 646 -10 617 0 578 0 ct 
540 0 510 -10 490 -31 ct 470 -50 460 -81 460 -122 ct 460 -153 467 -177 482 -194 ct 
504 -219 529 -231 557 -231 ct 654 -231 l  654 -314 l  696 -314 l  696 -231 l 
711 -231 l  731 -231 748 -225 761 -212 ct 774 -200 781 -182 781 -158 ct 781 -144 l 
749 -144 l  749 -154 l  749 -169 745 -179 739 -185 ct 731 -192 722 -195 711 -195 ct 
p
654 -195 m  566 -195 l  543 -195 525 -187 513 -169 ct 505 -159 502 -144 502 -124 ct 
502 -93 508 -70 520 -56 ct 532 -41 551 -34 578 -34 ct 605 -34 624 -41 636 -56 ct 
648 -70 654 -94 654 -127 ct 654 -195 l  p ef
1282 -170 m  1259 -151 l  1148 -283 l  1171 -302 l  1282 -170 l  p
907 -274 m  992 -42 l  1077 -274 l  907 -274 l  p
1133 -309 m  1015 -1 l  968 -1 l  850 -309 l  1133 -309 l  p ef
pom

0.000 c 2500 15500 m  1000 15500 l  1000 14500 l  4000 14500 l  4000 15500 l 
2500 15500 l  pc
pum
2077 15146 t
0.234 c 272 -285 m  272 -241 l  258 -254 243 -264 228 -270 ct 212 -276 195 -280 177 -280 ct 
142 -280 115 -269 96 -247 ct 77 -226 68 -195 68 -154 ct 68 -113 77 -82 96 -61 ct 
115 -39 142 -28 177 -28 ct 195 -28 212 -32 228 -38 ct 243 -44 258 -54 272 -67 ct 
272 -24 l  258 -14 242 -6 226 -1 ct 210 4 193 6 174 6 ct 128 6 91 -8 64 -37 ct 
37 -65 24 -104 24 -154 ct 24 -203 37 -243 64 -271 ct 91 -300 128 -314 174 -314 ct 
193 -314 210 -312 226 -307 ct 243 -302 258 -294 272 -285 ct p ef
567 -85 m  567 -156 l  682 -156 l  682 -85 l  567 -85 l  p
419 -85 m  419 -156 l  534 -156 l  534 -85 l  419 -85 l  p ef
pom

100 lw 0.000 c 2500 16500 m  1000 16500 l  1000 15500 l  4000 15500 l  4000 16500 l 
2500 16500 l  pc
pum
2077 16146 t
0.234 c 116 -174 m  158 -174 l  158 -132 l  116 -132 l  116 -174 l  p
77 -252 m  77 -56 l  269 -154 l  77 -252 l  p
42 0 m  42 -308 l  301 -178 l  301 -131 l  42 0 l  p ef
793 -231 m  691 21 l  680 49 670 67 660 75 ct 650 84 636 88 619 88 ct 589 88 l 
589 56 l  611 56 l  621 56 630 54 635 49 ct 641 44 647 32 655 14 ct 680 -51 l 
608 -231 l  648 -231 l  700 -101 l  753 -231 l  793 -231 l  p
599 -195 m  612 -172 618 -146 618 -115 ct 618 -85 612 -59 599 -36 ct 583 -8 561 6 533 6 ct 
504 6 482 -8 466 -35 ct 453 -58 446 -85 446 -115 ct 446 -146 453 -173 466 -196 ct 
482 -223 504 -237 533 -237 ct 561 -237 583 -223 599 -195 ct p
533 -26 m  563 -26 578 -56 578 -115 ct 578 -175 563 -205 533 -205 ct 502 -205 486 -175 486 -115 ct 
486 -56 502 -26 533 -26 ct p ef
pom

101 lw 0.000 c 2500 17500 m  2400 17500 l  ps
2197 17500 m  2097 17500 l  ps
1894 17500 m  1691 17500 l  ps
1488 17500 m  1388 17500 l  ps
1185 17500 m  1085 17500 l  ps
1000 17382 m  1000 17179 l  ps
1000 16976 m  1000 16876 l  ps
1000 16673 m  1000 16573 l  ps
1130 16500 m  1333 16500 l  ps
1536 16500 m  1636 16500 l  ps
1839 16500 m  1939 16500 l  ps
2142 16500 m  2345 16500 l  ps
2548 16500 m  2648 16500 l  ps
2851 16500 m  2951 16500 l  ps
3154 16500 m  3357 16500 l  ps
3560 16500 m  3660 16500 l  ps
3863 16500 m  3963 16500 l  ps
4000 16666 m  4000 16869 l  ps
4000 17072 m  4000 17172 l  ps
4000 17375 m  4000 17475 l  ps
3822 17500 m  3619 17500 l  ps
3416 17500 m  3316 17500 l  ps
3113 17500 m  3013 17500 l  ps
2810 17500 m  2607 17500 l  ps
pum
1325 17146 t
0.234 c 145 -267 m  88 -114 l  201 -114 l  145 -267 l  p
121 -308 m  168 -308 l  286 0 l  242 0 l  214 -79 l  75 -79 l  47 0 l 
3 0 l  121 -308 l  p
83 -380 m  206 -380 l  206 -349 l  83 -349 l  83 -380 l  p ef
647 0 m  606 0 l  606 -126 l  470 -126 l  470 -308 l  511 -308 l  511 -161 l 
647 -161 l  647 0 l  p ef
79 -358 m  87 -358 l  88 -354 l  88 -253 l  106 -273 l  112 -270 l  115 -260 l 
115 -115 l  114 -105 l  111 -94 l  109 -91 l  97 -91 l  94 -94 l  93 -98 l 
92 -115 l  92 -122 l  93 -125 l  104 -125 l  105 -128 l  105 -240 l  104 -236 l 
89 -219 l  88 -219 l  88 -71 l  87 -67 l  79 -67 l  78 -71 l  78 -209 l 
77 -209 l  76 -206 l  67 -196 l  65 -196 l  65 -27 l  66 -20 l  70 -17 l 
99 -17 l  100 -20 l  106 -24 l  108 -24 l  110 -30 l  111 -44 l  111 -78 l 
112 -81 l  114 -81 l  117 -78 l  121 -74 l  122 -71 l  118 -10 l  118 -3 l 
115 7 l  113 10 l  109 14 l  100 17 l  69 17 l  62 14 l  59 10 l  56 0 l 
55 -10 l  55 -186 l  54 -182 l  45 -172 l  44 -172 l  43 -175 l  42 -189 l 
41 -199 l  41 -202 l  42 -206 l  52 -216 l  54 -216 l  55 -219 l  55 -327 l 
56 -331 l  64 -331 l  65 -327 l  65 -229 l  67 -229 l  76 -240 l  78 -243 l 
78 -354 l  p
24 -351 m  32 -351 l  33 -347 l  33 -253 l  49 -253 l  50 -250 l  50 -223 l 
49 -219 l  33 -219 l  33 -71 l  35 -71 l  49 -88 l  50 -91 l  51 -88 l 
52 -78 l  52 -61 l  51 -57 l  10 -7 l  8 -14 l  5 -37 l  7 -44 l  21 -57 l 
23 -57 l  23 -219 l  8 -219 l  7 -223 l  7 -250 l  8 -253 l  23 -253 l 
23 -347 l  p ef
440 -327 m  537 -327 l  538 -324 l  538 -297 l  537 -294 l  450 -294 l 
450 -30 l  540 -30 l  541 -27 l  541 0 l  540 3 l  450 3 l  450 27 l  449 30 l 
440 30 l  439 27 l  439 -324 l  p
510 -283 m  512 -280 l  518 -273 l  519 -270 l  519 -267 l  518 -256 l 
512 -216 l  510 -209 l  508 -196 l  508 -192 l  504 -172 l  502 -165 l 
506 -152 l  507 -152 l  528 -84 l  528 -81 l  521 -57 l  500 -128 l  496 -138 l 
492 -125 l  492 -122 l  481 -88 l  474 -71 l  473 -71 l  470 -64 l  468 -57 l 
465 -51 l  461 -44 l  454 -67 l  456 -74 l  471 -105 l  475 -115 l  487 -152 l 
488 -159 l  488 -162 l  484 -175 l  471 -209 l  470 -209 l  463 -226 l 
460 -236 l  466 -256 l  467 -256 l  493 -189 l  495 -186 l  500 -213 l 
509 -273 l  509 -280 l  p ef
885 -334 m  894 -334 l  895 -331 l  895 -233 l  896 -233 l  944 -253 l 
945 -256 l  949 -256 l  955 -236 l  955 -233 l  954 -226 l  942 -172 l 
923 -105 l  916 -122 l  914 -128 l  921 -152 l  922 -152 l  934 -196 l 
939 -219 l  937 -219 l  895 -199 l  895 -57 l  898 -47 l  903 -44 l  932 -44 l 
945 -47 l  946 -51 l  951 -51 l  952 -47 l  952 -14 l  951 -10 l  937 -7 l 
905 -7 l  896 -10 l  892 -14 l  890 -17 l  886 -30 l  885 -37 l  884 -47 l 
884 -192 l  877 -192 l  861 -182 l  856 -182 l  855 -186 l  855 -213 l 
857 -219 l  881 -229 l  884 -331 l  p ef
1289 -307 m  1290 -307 l  1305 -277 l  1318 -243 l  1318 -240 l  1314 -223 l 
1310 -209 l  1307 -216 l  1302 -233 l  1292 -256 l  1283 -273 l  1282 -277 l 
1282 -280 l  1285 -294 l  p
1365 -263 m  1370 -250 l  1374 -236 l  1374 -233 l  1369 -199 l  1354 -128 l 
1345 -98 l  1327 -54 l  1308 -24 l  1291 -7 l  1290 -7 l  1288 -14 l  1288 -17 l 
1287 -24 l  1285 -34 l  1283 -41 l  1285 -47 l  1289 -47 l  1294 -51 l 
1306 -64 l  1321 -88 l  1323 -94 l  1329 -108 l  1330 -108 l  1334 -118 l 
1349 -169 l  1361 -229 l  1365 -256 l  1364 -260 l  p ef
1741 -341 m  1743 -341 l  1744 -337 l  1748 -334 l  1750 -334 l  1751 -331 l 
1748 -300 l  1747 -294 l  1746 -290 l  1784 -290 l  1789 -277 l  1791 -270 l 
1791 -267 l  1785 -199 l  1777 -142 l  1775 -132 l  1773 -125 l  1771 -115 l 
1771 -111 l  1765 -84 l  1751 -37 l  1734 3 l  1723 20 l  1723 20 l  1718 3 l 
1718 0 l  1716 -3 l  1716 -3 l  1714 -7 l  1716 -10 l  1716 -10 l  1731 -34 l 
1744 -64 l  1756 -105 l  1756 -111 l  1753 -125 l  1740 -169 l  1734 -186 l 
1731 -192 l  1730 -192 l  1727 -182 l  1727 -179 l  1714 -138 l  1709 -125 l 
1703 -145 l  1702 -152 l  1706 -165 l  1707 -165 l  1720 -206 l  1729 -250 l 
1735 -290 l  1739 -327 l  1739 -334 l  p
1741 -253 m  1741 -250 l  1740 -243 l  1738 -236 l  1736 -223 l  1745 -196 l 
1763 -138 l  1765 -145 l  1774 -206 l  1778 -246 l  1778 -256 l  1742 -256 l 
p ef
2127 -186 m  2231 -186 l  2232 -182 l  2232 -152 l  2231 -148 l  2127 -148 l 
2126 -152 l  2126 -182 l  p ef
pom

0 lw 0.000 c 2500 18500 m  1000 18500 l  1000 17500 l  4000 17500 l  4000 18500 l 
2500 18500 l  pc
pum
1342 18146 t
0.234 c 1961 83 m  1977 79 l  1971 76 1967 72 1965 67 ct 1963 62 1962 57 1962 50 ct 
1962 37 1965 28 1973 22 ct 1981 15 1991 12 2004 12 ct 2013 12 2021 15 2028 19 ct 
2028 40 l  2021 35 2013 33 2004 33 ct 1995 33 1989 34 1987 37 ct 1983 41 1981 45 1981 49 ct 
1981 59 1987 66 2000 70 ct 2005 72 2016 70 2032 66 ct 2032 87 l  1961 103 l 
1961 83 l  p ef
21 -273 m  85 -273 l  86 -270 l  86 -233 l  84 -189 l  81 -78 l  80 -74 l 
80 -71 l  110 -71 l  111 -67 l  111 -41 l  110 -37 l  8 -37 l  7 -41 l 
7 -67 l  8 -71 l  69 -71 l  70 -91 l  74 -219 l  74 -240 l  21 -240 l 
20 -243 l  20 -270 l  p ef
399 -186 m  503 -186 l  504 -182 l  504 -152 l  503 -148 l  399 -148 l 
398 -152 l  398 -182 l  p ef
830 -341 m  839 -341 l  840 -337 l  840 -253 l  881 -253 l  882 -250 l 
882 -152 l  879 -54 l  877 -27 l  876 -20 l  874 -10 l  872 -3 l  869 3 l 
866 7 l  856 7 l  840 -10 l  839 -14 l  839 -47 l  838 -51 l  839 -54 l 
840 -51 l  842 -47 l  856 -34 l  862 -34 l  864 -37 l  866 -44 l  867 -51 l 
870 -132 l  871 -219 l  839 -219 l  836 -159 l  834 -135 l  825 -71 l 
822 -57 l  809 -14 l  808 -14 l  805 -7 l  803 0 l  800 7 l  798 10 l 
797 7 l  797 3 l  792 -14 l  791 -14 l  790 -17 l  793 -27 l  797 -34 l 
806 -54 l  812 -74 l  812 -78 l  816 -94 l  818 -101 l  824 -148 l  828 -196 l 
828 -216 l  794 -216 l  793 -219 l  793 -246 l  794 -250 l  829 -250 l 
829 -337 l  p ef
1240 -334 m  1250 -334 l  1251 -331 l  1251 -155 l  1247 -98 l  1246 -88 l 
1241 -51 l  1237 -34 l  1231 -14 l  1222 7 l  1213 24 l  1212 24 l  1211 20 l 
1211 17 l  1204 -7 l  1205 -10 l  1211 -20 l  1212 -20 l  1216 -27 l  1219 -34 l 
1231 -71 l  1234 -94 l  1239 -155 l  1239 -331 l  p
1191 -327 m  1201 -327 l  1202 -324 l  1202 -132 l  1201 -128 l  1191 -128 l 
1190 -132 l  1190 -324 l  p ef
1671 -368 m  1674 -361 l  1687 -314 l  1686 -310 l  1685 -310 l  1681 -300 l 
1679 -294 l  1677 -300 l  1674 -314 l  1674 -317 l  1666 -344 l  1665 -344 l 
1664 -347 l  1666 -354 l  p
1610 -337 m  1614 -337 l  1619 -334 l  1620 -331 l  1620 -317 l  1615 -253 l 
1615 -250 l  1628 -250 l  1631 -246 l  1635 -240 l  1640 -223 l  1644 -186 l 
1644 -122 l  1643 -94 l  1641 -64 l  1639 -44 l  1636 -24 l  1634 -14 l 
1632 -7 l  1629 0 l  1626 3 l  1618 3 l  1605 -14 l  1603 -17 l  1603 -51 l 
1603 -54 l  1603 -57 l  1606 -54 l  1609 -47 l  1617 -34 l  1623 -34 l 
1625 -37 l  1626 -41 l  1630 -67 l  1633 -122 l  1633 -182 l  1630 -206 l 
1628 -213 l  1625 -216 l  1612 -216 l  1606 -162 l  1589 -27 l  1585 -3 l 
1583 3 l  1577 -10 l  1574 -20 l  1576 -27 l  1578 -37 l  1591 -128 l 
1600 -206 l  1600 -209 l  1594 -209 l  1587 -202 l  1576 -196 l  1575 -199 l 
1576 -202 l  1575 -216 l  1574 -219 l  1574 -229 l  1575 -233 l  1601 -243 l 
1603 -246 l  1609 -321 l  1609 -334 l  p
1660 -334 m  1661 -334 l  1664 -327 l  1673 -294 l  1675 -283 l  1675 -280 l 
1673 -273 l  1669 -263 l  1667 -260 l  1666 -263 l  1666 -270 l  1664 -280 l 
1654 -317 l  1657 -327 l  p
1651 -287 m  1658 -263 l  1658 -260 l  1662 -243 l  1666 -229 l  1679 -159 l 
1680 -152 l  1680 -148 l  1676 -135 l  1673 -128 l  1671 -125 l  1669 -132 l 
1668 -142 l  1661 -189 l  1648 -250 l  1645 -260 l  1644 -260 l  1643 -263 l 
1647 -277 l  p ef
2054 -327 m  2060 -307 l  2059 -304 l  2008 -280 l  1996 -277 l  1994 -273 l 
1994 -202 l  2067 -202 l  2068 -199 l  2068 -175 l  2067 -172 l  2043 -172 l 
2043 -27 l  2077 -27 l  2078 -24 l  2078 0 l  2077 3 l  1961 3 l  1960 0 l 
1960 -24 l  1961 -27 l  1983 -27 l  1983 -300 l  1983 -304 l  1989 -307 l 
2031 -324 l  p
1994 -172 m  2032 -172 l  2032 -27 l  1994 -27 l  p ef
pom


pum
1283 11777 t
187 -309 m  240 -309 284 -283 321 -232 ct 336 -208 344 -181 344 -152 ct 344 -106 322 -65 279 -30 ct 
252 -10 224 0 195 0 ct 188 0 l  136 0 92 -27 56 -80 ct 42 -104 35 -128 35 -153 ct 
35 -158 l  35 -205 58 -246 105 -282 ct 130 -300 158 -309 187 -309 ct p
255 -273 m  232 -286 209 -293 186 -293 ct 145 -293 108 -272 76 -232 ct 58 -207 50 -182 50 -155 ct 
50 -112 69 -74 107 -43 ct 132 -24 160 -15 190 -15 ct 237 -15 277 -38 309 -86 ct 
321 -107 327 -129 327 -151 ct 327 -155 l  327 -202 304 -241 257 -272 ct 256 -273 256 -273 255 -273 ct 
p
194 -23 m  188 -23 l  165 -23 144 -29 125 -42 ct 168 -118 l  174 -113 181 -111 189 -111 ct 
191 -111 l  198 -111 204 -113 211 -117 ct 254 -42 l  235 -29 215 -23 194 -23 ct 
p
166 -190 m  153 -180 146 -169 146 -156 ct 146 -155 l  58 -155 l  58 -158 l 
58 -198 78 -233 118 -263 ct 120 -265 123 -266 125 -268 ct 169 -192 l  168 -192 167 -191 166 -190 ct 
p
301 -221 m  314 -201 321 -179 321 -155 ct 233 -155 l  233 -163 231 -170 226 -176 ct 
222 -183 216 -188 210 -192 ct 254 -267 l  271 -256 287 -241 301 -221 ct p
189 -188 m  200 -188 210 -182 217 -171 ct 221 -166 223 -160 223 -154 ct 223 -144 218 -136 209 -128 ct 
203 -124 197 -122 191 -122 ct 189 -122 l  178 -122 169 -128 161 -139 ct 158 -144 157 -149 157 -154 ct 
157 -155 l  157 -165 162 -174 172 -182 ct 177 -186 183 -188 189 -188 ct p ef
661 -125 m  661 -106 l  486 -106 l  488 -80 496 -60 510 -47 ct 524 -33 543 -26 569 -26 ct 
583 -26 597 -28 611 -32 ct 625 -35 638 -41 652 -48 ct 652 -12 l  638 -6 624 -2 610 1 ct 
596 4 581 6 566 6 ct 529 6 500 -5 479 -26 ct 457 -48 446 -77 446 -113 ct 446 -151 457 -181 477 -204 ct 
497 -226 525 -237 560 -237 ct 591 -237 615 -227 634 -207 ct 652 -187 661 -160 661 -125 ct 
p
623 -136 m  622 -157 617 -174 605 -186 ct 594 -199 579 -205 560 -205 ct 539 -205 522 -199 509 -187 ct 
497 -175 489 -158 487 -136 ct 623 -136 l  p
536 36 m  579 36 l  579 78 l  536 78 l  536 36 l  p ef
1207 -205 m  1195 -206 l  1192 -206 1188 -207 1183 -207 ct 1178 -207 1174 -205 1170 -201 ct 
1161 -194 1152 -179 1144 -157 ct 1085 0 l  1034 0 l  1034 88 l  996 88 l 
996 0 l  944 0 l  857 -231 l  898 -231 l  970 -37 l  996 -37 l  996 -324 l 
1034 -324 l  1034 -37 l  1059 -37 l  1107 -166 l  1118 -195 1131 -215 1145 -226 ct 
1154 -233 1167 -237 1185 -237 ct 1192 -237 1200 -236 1207 -234 ct 1207 -205 l 
p ef
1388 -308 m  1430 -308 l  1430 -182 l  1582 -182 l  1582 -308 l  1623 -308 l 
1623 0 l  1582 0 l  1582 -147 l  1430 -147 l  1430 0 l  1388 0 l  1388 -308 l 
p
1339 -357 m  1327 -364 l  1324 -365 1321 -367 1319 -367 ct 1317 -368 1315 -369 1313 -369 ct 
1308 -369 1304 -367 1301 -364 ct 1299 -360 1297 -355 1297 -349 ct 1297 -348 l 
1271 -348 l  1271 -362 1275 -373 1282 -381 ct 1289 -389 1299 -393 1310 -393 ct 
1315 -393 1320 -392 1324 -391 ct 1328 -390 1334 -388 1340 -384 ct 1352 -378 l 
1355 -376 1358 -375 1360 -374 ct 1363 -373 1365 -373 1367 -373 ct 1371 -373 1375 -375 1378 -378 ct 
1381 -382 1382 -386 1382 -392 ct 1382 -393 l  1408 -393 l  1407 -379 1404 -368 1397 -360 ct 
1390 -352 1380 -348 1369 -348 ct 1364 -348 1360 -349 1356 -350 ct 1352 -351 1346 -353 1339 -357 ct 
p
1364 -307 m  1364 -270 1348 -252 1314 -252 ct 1314 -273 l  1333 -273 1342 -284 1342 -305 ct 
1315 -305 l  1315 -338 l  1364 -338 l  1364 -307 l  p
1532 88 m  1502 88 l  1498 88 1495 86 1491 81 ct 1488 78 1487 73 1487 66 ct 
1487 19 l  1518 19 l  1518 66 l  1518 68 1518 70 1520 72 ct 1521 73 1523 74 1525 74 ct 
1532 74 l  1532 88 l  p ef
2064 -174 m  2106 -174 l  2106 -132 l  2064 -132 l  2064 -174 l  p
1934 -149 m  1912 -149 1897 -143 1887 -132 ct 1878 -121 1873 -107 1873 -92 ct 
1873 -69 1880 -52 1893 -42 ct 1907 -32 1921 -27 1934 -27 ct 1947 -27 1960 -32 1974 -42 ct 
1988 -52 1995 -69 1995 -92 ct 1995 -110 1989 -124 1979 -134 ct 1968 -144 1953 -149 1934 -149 ct 
p
1934 -184 m  1968 -184 1994 -177 2012 -161 ct 2030 -146 2039 -123 2039 -92 ct 
2039 -60 2029 -35 2011 -19 ct 1992 -2 1966 6 1934 6 ct 1901 6 1876 -2 1857 -19 ct 
1838 -35 1829 -60 1829 -92 ct 1829 -116 1834 -135 1844 -149 ct 1718 -149 l  1718 -184 l 
1934 -184 l  p ef
75 -361 m  76 -361 l  77 -358 l  81 -354 l  82 -354 l  83 -351 l  83 -344 l 
82 -341 l  81 -327 l  107 -327 l  111 -317 l  112 -314 l  104 -260 l  95 -219 l 
94 -213 l  94 -209 l  111 -169 l  121 -152 l  122 -152 l  123 -148 l  123 -145 l 
122 -138 l  120 -128 l  117 -118 l  116 -118 l  114 -122 l  112 -128 l 
111 -128 l  111 27 l  110 30 l  102 30 l  101 27 l  101 7 l  73 7 l  73 27 l 
72 30 l  64 30 l  63 27 l  63 -122 l  62 -122 l  56 -108 l  52 -122 l 
52 -125 l  51 -128 l  51 -122 l  50 -118 l  38 -118 l  38 -37 l  39 -41 l 
54 -57 l  56 -57 l  57 -54 l  57 -34 l  55 -27 l  54 -27 l  48 -20 l  46 -17 l 
10 24 l  9 24 l  8 20 l  8 17 l  7 7 l  6 0 l  5 -3 l  5 -7 l  7 -14 l 
11 -14 l  11 -169 l  12 -172 l  20 -172 l  21 -169 l  21 -24 l  23 -24 l 
24 -27 l  27 -30 l  28 -30 l  28 -206 l  11 -206 l  10 -209 l  10 -337 l 
11 -341 l  51 -341 l  52 -337 l  52 -209 l  51 -206 l  38 -206 l  38 -148 l 
50 -148 l  51 -145 l  51 -138 l  52 -138 l  56 -145 l  79 -199 l  82 -209 l 
81 -216 l  77 -229 l  73 -250 l  73 -253 l  72 -256 l  71 -256 l  71 -253 l 
66 -229 l  58 -202 l  57 -202 l  56 -206 l  56 -209 l  52 -223 l  52 -226 l 
58 -250 l  65 -283 l  71 -327 l  73 -351 l  74 -358 l  p
20 -236 m  42 -236 l  42 -310 l  20 -310 l  p
77 -290 m  77 -280 l  78 -273 l  83 -250 l  87 -236 l  88 -236 l  89 -240 l 
89 -243 l  96 -277 l  98 -290 l  98 -297 l  78 -297 l  p
69 -135 m  108 -135 l  106 -142 l  88 -189 l  p
73 -24 m  101 -24 l  101 -105 l  73 -105 l  p ef
453 -364 m  460 -354 l  462 -347 l  462 -344 l  456 -310 l  454 -304 l 
452 -294 l  452 -290 l  448 -270 l  446 -263 l  446 -260 l  450 -240 l 
452 -233 l  453 -236 l  457 -256 l  457 -260 l  458 -267 l  462 -287 l 
465 -307 l  466 -310 l  468 -304 l  471 -297 l  472 -297 l  474 -290 l 
473 -283 l  454 -192 l  450 -179 l  450 -175 l  459 -175 l  467 -179 l 
467 -186 l  466 -189 l  463 -209 l  463 -213 l  464 -216 l  466 -219 l 
469 -223 l  470 -223 l  472 -216 l  473 -206 l  481 -145 l  480 -142 l 
474 -132 l  473 -132 l  472 -135 l  471 -142 l  470 -152 l  470 -155 l 
468 -155 l  467 -152 l  460 -152 l  459 -148 l  459 27 l  458 30 l  450 30 l 
449 27 l  449 -145 l  438 -145 l  437 -142 l  431 -142 l  430 -145 l  427 -169 l 
428 -172 l  439 -172 l  440 -175 l  445 -199 l  446 -206 l  446 -213 l 
433 -267 l  431 -273 l  430 -273 l  429 -277 l  431 -287 l  435 -300 l 
436 -300 l  438 -294 l  438 -290 l  440 -283 l  441 -283 l  441 -287 l 
442 -294 l  444 -300 l  447 -317 l  452 -361 l  p
506 -364 m  510 -364 l  515 -361 l  516 -358 l  516 -354 l  511 -321 l 
537 -321 l  538 -317 l  538 -165 l  537 -162 l  517 -162 l  522 -115 l 
523 -111 l  526 -122 l  526 -125 l  533 -148 l  533 -152 l  535 -159 l 
541 -145 l  543 -138 l  542 -135 l  541 -135 l  529 -94 l  528 -94 l  527 -91 l 
527 -88 l  528 -81 l  533 -61 l  545 -24 l  546 -24 l  547 -20 l  543 0 l 
541 7 l  540 7 l  530 -27 l  522 -64 l  522 -67 l  521 -74 l  519 -81 l 
518 -88 l  518 -94 l  517 -98 l  517 10 l  516 17 l  514 24 l  511 27 l 
499 27 l  496 17 l  495 -3 l  496 -7 l  506 -7 l  507 -10 l  507 -162 l 
485 -162 l  484 -165 l  484 -317 l  485 -321 l  502 -321 l  503 -324 l 
503 -334 l  504 -351 l  505 -361 l  p
494 -256 m  528 -256 l  528 -290 l  494 -290 l  p
494 -192 m  528 -192 l  528 -226 l  494 -226 l  p
480 -135 m  501 -135 l  506 -118 l  503 -91 l  497 -51 l  490 -17 l  480 17 l 
474 -7 l  477 -17 l  478 -17 l  484 -37 l  490 -64 l  490 -67 l  494 -94 l 
495 -98 l  495 -105 l  480 -105 l  479 -108 l  479 -132 l  p
470 -132 m  471 -128 l  474 -94 l  478 -51 l  478 -44 l  477 -41 l  476 -41 l 
472 -34 l  471 -30 l  470 -30 l  468 -37 l  466 -74 l  462 -122 l  463 -125 l 
465 -125 l  469 -128 l  p
435 -125 m  436 -122 l  443 -122 l  444 -118 l  444 -105 l  441 -34 l 
439 -7 l  437 0 l  431 -10 l  429 -17 l  429 -20 l  430 -24 l  434 -88 l 
434 -122 l  p ef
858 -344 m  908 -344 l  909 -341 l  909 -317 l  908 -314 l  890 -314 l 
890 -283 l  904 -283 l  905 -280 l  905 -256 l  904 -253 l  890 -253 l 
890 -223 l  904 -223 l  905 -219 l  905 -196 l  904 -192 l  890 -192 l 
890 -159 l  907 -159 l  908 -155 l  908 -88 l  903 14 l  899 27 l  897 30 l 
884 30 l  881 27 l  880 24 l  879 14 l  879 -3 l  880 -7 l  881 -3 l  892 -3 l 
894 -7 l  895 -10 l  896 -17 l  897 -34 l  897 -44 l  896 -44 l  894 -41 l 
893 -37 l  892 -37 l  891 -41 l  891 -54 l  887 -105 l  886 -108 l  886 -111 l 
887 -115 l  888 -115 l  890 -118 l  891 -122 l  893 -115 l  893 -108 l 
897 -61 l  898 -64 l  898 -108 l  899 -111 l  899 -128 l  858 -128 l  857 -132 l 
857 -341 l  p
917 -341 m  962 -341 l  963 -337 l  963 -179 l  962 -175 l  946 -175 l 
953 -91 l  955 -74 l  963 -30 l  967 3 l  967 7 l  966 14 l  963 24 l 
959 10 l  951 -27 l  944 -74 l  939 -132 l  937 -169 l  937 -175 l  926 -175 l 
924 -81 l  922 -44 l  917 3 l  915 10 l  913 20 l  913 24 l  911 30 l 
908 20 l  908 -14 l  912 -44 l  915 -91 l  916 -128 l  916 -337 l  p
867 -314 m  880 -314 l  880 -283 l  867 -283 l  p
926 -206 m  953 -206 l  953 -310 l  926 -310 l  p
867 -253 m  880 -253 l  880 -223 l  867 -223 l  p
867 -192 m  880 -192 l  880 -159 l  867 -159 l  p
880 -111 m  881 -111 l  883 -105 l  886 -57 l  888 -34 l  887 -30 l  885 -27 l 
881 -24 l  880 -27 l  879 -34 l  879 -57 l  877 -94 l  876 -98 l  876 -105 l 
877 -108 l  p
857 -108 m  858 -108 l  859 -105 l  863 -105 l  864 -101 l  864 -88 l 
859 3 l  858 7 l  855 0 l  851 -14 l  851 -20 l  852 -30 l  856 -105 l 
p
868 -105 m  872 -105 l  873 -101 l  874 -88 l  875 -61 l  875 -24 l  873 -17 l 
869 -14 l  868 -14 l  867 -17 l  867 -91 l  866 -94 l  866 -98 l  p ef
1293 -361 m  1301 -361 l  1302 -358 l  1302 -273 l  1313 -273 l  1314 -270 l 
1314 -246 l  1313 -243 l  1302 -243 l  1302 -169 l  1304 -169 l  1313 -179 l 
1314 -182 l  1315 -179 l  1315 -155 l  1314 -152 l  1304 -138 l  1303 -138 l 
1302 -135 l  1302 10 l  1301 17 l  1298 27 l  1296 30 l  1281 30 l  1279 27 l 
1278 24 l  1277 10 l  1277 -3 l  1278 -7 l  1280 -7 l  1281 -3 l  1290 -3 l 
1292 -10 l  1292 -125 l  1291 -125 l  1290 -122 l  1277 -108 l  1276 -111 l 
1276 -115 l  1275 -125 l  1274 -132 l  1273 -135 l  1273 -138 l  1274 -142 l 
1276 -142 l  1291 -155 l  1292 -159 l  1292 -243 l  1276 -243 l  1275 -246 l 
1275 -270 l  1276 -273 l  1292 -273 l  1292 -358 l  p
1317 -334 m  1386 -334 l  1387 -331 l  1387 -263 l  1386 -260 l  1378 -260 l 
1377 -263 l  1377 -304 l  1365 -304 l  1365 -226 l  1366 -223 l  1376 -223 l 
1378 -226 l  1379 -229 l  1380 -246 l  1380 -253 l  1381 -256 l  1382 -256 l 
1383 -253 l  1386 -250 l  1388 -250 l  1389 -246 l  1389 -219 l  1388 -206 l 
1385 -196 l  1383 -192 l  1378 -189 l  1363 -189 l  1359 -192 l  1356 -202 l 
1355 -209 l  1355 -304 l  1326 -304 l  1326 -253 l  1325 -250 l  1317 -250 l 
1316 -253 l  1316 -331 l  p
1338 -300 m  1340 -300 l  1345 -297 l  1346 -294 l  1346 -273 l  1340 -223 l 
1338 -213 l  1331 -189 l  1325 -175 l  1323 -172 l  1320 -182 l  1317 -196 l 
1319 -202 l  1320 -202 l  1327 -219 l  1329 -226 l  1332 -240 l  1335 -260 l 
1337 -280 l  1337 -297 l  p
1347 -196 m  1355 -196 l  1356 -192 l  1356 -152 l  1389 -152 l  1390 -148 l 
1390 -125 l  1389 -122 l  1358 -122 l  1361 -111 l  1365 -94 l  1365 -91 l 
1372 -67 l  1386 -34 l  1390 -27 l  1391 -27 l  1392 -24 l  1392 -20 l 
1388 -3 l  1385 7 l  1383 3 l  1381 -3 l  1377 -14 l  1376 -14 l  1370 -30 l 
1364 -51 l  1359 -71 l  1357 -81 l  1357 -84 l  1356 -88 l  1356 27 l 
1355 30 l  1347 30 l  1346 27 l  1346 -81 l  1344 -74 l  1343 -67 l  1343 -64 l 
1340 -51 l  1327 -7 l  1326 -7 l  1322 3 l  1320 10 l  1318 14 l  1317 10 l 
1315 0 l  1312 -14 l  1314 -20 l  1315 -20 l  1317 -24 l  1328 -51 l  1334 -71 l 
1340 -98 l  1340 -101 l  1341 -108 l  1343 -115 l  1344 -122 l  1316 -122 l 
1315 -125 l  1315 -148 l  1316 -152 l  1346 -152 l  1346 -192 l  p ef
1751 -361 m  1759 -361 l  1760 -358 l  1760 -314 l  1805 -314 l  1806 -310 l 
1806 -287 l  1805 -283 l  1760 -283 l  1760 -246 l  1808 -246 l  1809 -243 l 
1809 -175 l  1808 -172 l  1800 -172 l  1799 -175 l  1799 -216 l  1755 -216 l 
1757 -209 l  1758 -209 l  1759 -206 l  1742 -148 l  1742 -145 l  1743 -142 l 
1744 -142 l  1750 -122 l  1751 -122 l  1757 -138 l  1777 -206 l  1779 -202 l 
1782 -196 l  1785 -186 l  1784 -182 l  1783 -182 l  1768 -132 l  1762 -115 l 
1761 -115 l  1760 -111 l  1791 -115 l  1782 -145 l  1785 -155 l  1788 -162 l 
1790 -159 l  1802 -125 l  1813 -88 l  1812 -84 l  1811 -84 l  1806 -67 l 
1805 -67 l  1798 -91 l  1761 -84 l  1761 27 l  1760 30 l  1751 30 l  1750 27 l 
1750 -81 l  1728 -81 l  1727 -78 l  1703 -78 l  1701 -84 l  1699 -105 l 
1700 -108 l  1740 -111 l  1730 -142 l  1718 -169 l  1717 -172 l  1721 -186 l 
1724 -192 l  1725 -192 l  1727 -189 l  1731 -179 l  1735 -165 l  1748 -209 l 
1749 -216 l  1712 -216 l  1712 -175 l  1711 -172 l  1703 -172 l  1702 -175 l 
1702 -243 l  1703 -246 l  1750 -246 l  1750 -283 l  1706 -283 l  1705 -287 l 
1705 -310 l  1706 -314 l  1750 -314 l  1750 -358 l  p
1779 -74 m  1780 -74 l  1806 -20 l  1810 -7 l  1802 20 l  1796 3 l  1792 -10 l 
1788 -20 l  1787 -20 l  1784 -27 l  1782 -34 l  1779 -41 l  1775 -47 l 
1772 -51 l  1771 -54 l  1773 -61 l  1777 -71 l  p
1732 -71 m  1740 -57 l  1741 -54 l  1731 -20 l  1717 14 l  1716 14 l  1712 20 l 
1711 24 l  1710 24 l  1705 7 l  1704 7 l  1702 0 l  1703 -3 l  1704 -3 l 
1712 -17 l  1714 -24 l  1716 -27 l  1717 -27 l  1724 -44 l  p ef
2181 -334 m  2191 -334 l  2192 -331 l  2192 -155 l  2188 -98 l  2187 -88 l 
2182 -51 l  2178 -34 l  2172 -14 l  2164 7 l  2155 24 l  2154 24 l  2153 20 l 
2153 17 l  2146 -7 l  2147 -10 l  2153 -20 l  2154 -20 l  2158 -27 l  2161 -34 l 
2172 -71 l  2175 -94 l  2180 -155 l  2180 -331 l  p
2133 -327 m  2143 -327 l  2144 -324 l  2144 -132 l  2143 -128 l  2133 -128 l 
2132 -132 l  2132 -324 l  p ef
pom
pum
1283 12273 t
69 -307 m  82 -307 l  90 -283 l  90 -277 l  89 -267 l  81 -209 l  69 -148 l 
72 -138 l  73 -138 l  87 -101 l  109 -34 l  109 -30 l  100 0 l  99 -3 l 
99 -7 l  78 -78 l  65 -115 l  63 -118 l  62 -118 l  60 -111 l  60 -108 l 
48 -71 l  34 -34 l  33 -34 l  30 -27 l  28 -20 l  25 -14 l  15 3 l  14 0 l 
14 -3 l  7 -27 l  9 -34 l  10 -34 l  24 -57 l  42 -101 l  53 -138 l  53 -142 l 
57 -159 l  61 -169 l  65 -189 l  74 -250 l  75 -260 l  76 -267 l  77 -270 l 
39 -270 l  38 -267 l  20 -267 l  19 -270 l  19 -294 l  18 -297 l  18 -300 l 
19 -304 l  68 -304 l  p ef
407 -341 m  417 -341 l  418 -337 l  418 -219 l  419 -216 l  423 -209 l 
426 -206 l  446 -172 l  464 -135 l  466 -128 l  466 -125 l  460 -94 l 
459 -91 l  456 -98 l  453 -108 l  430 -159 l  419 -179 l  418 -179 l  418 10 l 
417 14 l  407 14 l  407 10 l  407 -337 l  p ef
pom
pum
1965 12273 t
158 0 m  120 0 l  120 -237 l  111 -228 100 -220 85 -211 ct 71 -202 58 -196 46 -192 ct 
46 -228 l  67 -237 85 -249 101 -263 ct 116 -277 127 -291 134 -304 ct 158 -304 l 
158 0 l  p ef
pom
0.000 c 10500 9000 m  9000 9000 l  9000 8000 l  12000 8000 l  12000 9000 l 
10500 9000 l  pc
pum
9865 8646 t
0.234 c 52 -220 m  52 -157 l  95 -157 l  109 -157 119 -160 126 -165 ct 133 -170 136 -178 136 -189 ct 
136 -199 133 -207 126 -212 ct 119 -217 109 -220 95 -220 ct 52 -220 l  p
52 -292 m  52 -239 l  91 -239 l  104 -239 114 -241 120 -246 ct 126 -250 130 -256 130 -265 ct 
130 -274 126 -281 120 -285 ct 114 -290 104 -292 91 -292 ct 52 -292 l  p
26 -311 m  93 -311 l  113 -311 129 -307 140 -300 ct 151 -292 156 -282 156 -268 ct 
156 -257 153 -249 147 -242 ct 142 -236 134 -232 123 -231 ct 136 -228 146 -223 153 -215 ct 
160 -208 164 -198 164 -186 ct 164 -171 158 -159 146 -151 ct 134 -142 118 -138 96 -138 ct 
26 -138 l  26 -311 l  p ef
473 -97 m  516 -97 l  516 -45 l  473 -45 l  473 -97 l  p
473 -263 m  516 -263 l  516 -211 l  473 -211 l  473 -263 l  p
702 -9 m  702 -59 690 -95 667 -117 ct 643 -139 609 -150 565 -150 ct 544 -150 l 
544 -308 l  586 -308 l  586 -184 l  622 -184 657 -171 692 -146 ct 726 -121 744 -80 744 -23 ct 
744 0 l  702 0 l  702 -9 l  p ef
1022 -108 m  1013 -156 l  1006 -188 991 -205 967 -205 ct 948 -205 935 -197 926 -182 ct 
916 -163 910 -141 910 -116 ct 910 -85 916 -63 926 -49 ct 936 -34 950 -26 967 -26 ct 
985 -26 999 -41 1009 -70 ct 1022 -108 l  p
1043 -171 m  1063 -232 l  1097 -232 l  1055 -106 l  1063 -61 l  1064 -54 1068 -48 1072 -42 ct 
1078 -36 1083 -32 1087 -32 ct 1106 -32 l  1106 0 l  1083 0 l  1070 0 1058 -6 1046 -17 ct 
1040 -23 1036 -32 1034 -44 ct 1028 -29 1018 -15 1005 -3 ct 999 2 986 5 967 5 ct 
934 5 910 -5 895 -26 ct 878 -48 870 -78 870 -116 ct 870 -156 879 -186 897 -205 ct 
916 -226 939 -237 967 -237 ct 1009 -237 1035 -215 1043 -171 ct p
947 -339 m  1005 -262 l  973 -262 l  906 -339 l  947 -339 l  p ef
pom

0.000 c 10500 10000 m  9000 10000 l  9000 9000 l  12000 9000 l  12000 10000 l 
10500 10000 l  pc
pum
9865 9646 t
0.234 c 73 -232 m  73 -82 l  73 -62 76 -49 80 -42 ct 85 -36 95 -32 110 -32 ct 
128 -32 l  128 0 l  106 0 l  81 0 63 -7 51 -20 ct 40 -33 35 -55 35 -84 ct 34 -232 l 
73 -232 l  p
-6 -316 m  118 -316 l  118 -285 l  -6 -285 l  -6 -316 l  p ef
711 -195 m  696 -195 l  696 -122 l  696 -82 686 -51 666 -31 ct 646 -10 617 0 578 0 ct 
540 0 510 -10 490 -31 ct 470 -50 460 -81 460 -122 ct 460 -153 467 -177 482 -194 ct 
504 -219 529 -231 557 -231 ct 654 -231 l  654 -314 l  696 -314 l  696 -231 l 
711 -231 l  731 -231 748 -225 761 -212 ct 774 -200 781 -182 781 -158 ct 781 -144 l 
749 -144 l  749 -154 l  749 -169 745 -179 739 -185 ct 731 -192 722 -195 711 -195 ct 
p
654 -195 m  566 -195 l  543 -195 525 -187 513 -169 ct 505 -159 502 -144 502 -124 ct 
502 -93 508 -70 520 -56 ct 532 -41 551 -34 578 -34 ct 605 -34 624 -41 636 -56 ct 
648 -70 654 -94 654 -127 ct 654 -195 l  p ef
1282 -170 m  1259 -151 l  1148 -283 l  1171 -302 l  1282 -170 l  p
907 -274 m  992 -42 l  1077 -274 l  907 -274 l  p
1133 -309 m  1015 -1 l  968 -1 l  850 -309 l  1133 -309 l  p ef
pom

0.000 c 10500 11000 m  9000 11000 l  9000 10000 l  12000 10000 l  12000 11000 l 
10500 11000 l  pc
pum
10077 10646 t
0.234 c 272 -285 m  272 -241 l  258 -254 243 -264 228 -270 ct 212 -276 195 -280 177 -280 ct 
142 -280 115 -269 96 -247 ct 77 -226 68 -195 68 -154 ct 68 -113 77 -82 96 -61 ct 
115 -39 142 -28 177 -28 ct 195 -28 212 -32 228 -38 ct 243 -44 258 -54 272 -67 ct 
272 -24 l  258 -14 242 -6 226 -1 ct 210 4 193 6 174 6 ct 128 6 91 -8 64 -37 ct 
37 -65 24 -104 24 -154 ct 24 -203 37 -243 64 -271 ct 91 -300 128 -314 174 -314 ct 
193 -314 210 -312 226 -307 ct 243 -302 258 -294 272 -285 ct p ef
567 -85 m  567 -156 l  682 -156 l  682 -85 l  567 -85 l  p
419 -85 m  419 -156 l  534 -156 l  534 -85 l  419 -85 l  p ef
pom

100 lw 0.000 c 10500 12000 m  9000 12000 l  9000 11000 l  12000 11000 l 
12000 12000 l  10500 12000 l  pc
pum
10077 11646 t
0.234 c 116 -174 m  158 -174 l  158 -132 l  116 -132 l  116 -174 l  p
77 -252 m  77 -56 l  269 -154 l  77 -252 l  p
42 0 m  42 -308 l  301 -178 l  301 -131 l  42 0 l  p ef
793 -231 m  691 21 l  680 49 670 67 660 75 ct 650 84 636 88 619 88 ct 589 88 l 
589 56 l  611 56 l  621 56 630 54 635 49 ct 641 44 647 32 655 14 ct 680 -51 l 
608 -231 l  648 -231 l  700 -101 l  753 -231 l  793 -231 l  p
599 -195 m  612 -172 618 -146 618 -115 ct 618 -85 612 -59 599 -36 ct 583 -8 561 6 533 6 ct 
504 6 482 -8 466 -35 ct 453 -58 446 -85 446 -115 ct 446 -146 453 -173 466 -196 ct 
482 -223 504 -237 533 -237 ct 561 -237 583 -223 599 -195 ct p
533 -26 m  563 -26 578 -56 578 -115 ct 578 -175 563 -205 533 -205 ct 502 -205 486 -175 486 -115 ct 
486 -56 502 -26 533 -26 ct p ef
pom

101 lw 0.000 c 10500 13000 m  10400 13000 l  ps
10197 13000 m  10097 13000 l  ps
9894 13000 m  9691 13000 l  ps
9488 13000 m  9388 13000 l  ps
9185 13000 m  9085 13000 l  ps
9000 12882 m  9000 12679 l  ps
9000 12476 m  9000 12376 l  ps
9000 12173 m  9000 12073 l  ps
9130 12000 m  9333 12000 l  ps
9536 12000 m  9636 12000 l  ps
9839 12000 m  9939 12000 l  ps
10142 12000 m  10345 12000 l  ps
10548 12000 m  10648 12000 l  ps
10851 12000 m  10951 12000 l  ps
11154 12000 m  11357 12000 l  ps
11560 12000 m  11660 12000 l  ps
11863 12000 m  11963 12000 l  ps
12000 12166 m  12000 12369 l  ps
12000 12572 m  12000 12672 l  ps
12000 12875 m  12000 12975 l  ps
11822 13000 m  11619 13000 l  ps
11416 13000 m  11316 13000 l  ps
11113 13000 m  11013 13000 l  ps
10810 13000 m  10607 13000 l  ps
pum
9325 12646 t
0.234 c 145 -267 m  88 -114 l  201 -114 l  145 -267 l  p
121 -308 m  168 -308 l  286 0 l  242 0 l  214 -79 l  75 -79 l  47 0 l 
3 0 l  121 -308 l  p
83 -380 m  206 -380 l  206 -349 l  83 -349 l  83 -380 l  p ef
647 0 m  606 0 l  606 -126 l  470 -126 l  470 -308 l  511 -308 l  511 -161 l 
647 -161 l  647 0 l  p ef
79 -358 m  87 -358 l  88 -354 l  88 -253 l  106 -273 l  112 -270 l  115 -260 l 
115 -115 l  114 -105 l  111 -94 l  109 -91 l  97 -91 l  94 -94 l  93 -98 l 
92 -115 l  92 -122 l  93 -125 l  104 -125 l  105 -128 l  105 -240 l  104 -236 l 
89 -219 l  88 -219 l  88 -71 l  87 -67 l  79 -67 l  78 -71 l  78 -209 l 
77 -209 l  76 -206 l  67 -196 l  65 -196 l  65 -27 l  66 -20 l  70 -17 l 
99 -17 l  100 -20 l  106 -24 l  108 -24 l  110 -30 l  111 -44 l  111 -78 l 
112 -81 l  114 -81 l  117 -78 l  121 -74 l  122 -71 l  118 -10 l  118 -3 l 
115 7 l  113 10 l  109 14 l  100 17 l  69 17 l  62 14 l  59 10 l  56 0 l 
55 -10 l  55 -186 l  54 -182 l  45 -172 l  44 -172 l  43 -175 l  42 -189 l 
41 -199 l  41 -202 l  42 -206 l  52 -216 l  54 -216 l  55 -219 l  55 -327 l 
56 -331 l  64 -331 l  65 -327 l  65 -229 l  67 -229 l  76 -240 l  78 -243 l 
78 -354 l  p
24 -351 m  32 -351 l  33 -347 l  33 -253 l  49 -253 l  50 -250 l  50 -223 l 
49 -219 l  33 -219 l  33 -71 l  35 -71 l  49 -88 l  50 -91 l  51 -88 l 
52 -78 l  52 -61 l  51 -57 l  10 -7 l  8 -14 l  5 -37 l  7 -44 l  21 -57 l 
23 -57 l  23 -219 l  8 -219 l  7 -223 l  7 -250 l  8 -253 l  23 -253 l 
23 -347 l  p ef
440 -327 m  537 -327 l  538 -324 l  538 -297 l  537 -294 l  450 -294 l 
450 -30 l  540 -30 l  541 -27 l  541 0 l  540 3 l  450 3 l  450 27 l  449 30 l 
440 30 l  439 27 l  439 -324 l  p
510 -283 m  512 -280 l  518 -273 l  519 -270 l  519 -267 l  518 -256 l 
512 -216 l  510 -209 l  508 -196 l  508 -192 l  504 -172 l  502 -165 l 
506 -152 l  507 -152 l  528 -84 l  528 -81 l  521 -57 l  500 -128 l  496 -138 l 
492 -125 l  492 -122 l  481 -88 l  474 -71 l  473 -71 l  470 -64 l  468 -57 l 
465 -51 l  461 -44 l  454 -67 l  456 -74 l  471 -105 l  475 -115 l  487 -152 l 
488 -159 l  488 -162 l  484 -175 l  471 -209 l  470 -209 l  463 -226 l 
460 -236 l  466 -256 l  467 -256 l  493 -189 l  495 -186 l  500 -213 l 
509 -273 l  509 -280 l  p ef
885 -334 m  894 -334 l  895 -331 l  895 -233 l  896 -233 l  944 -253 l 
945 -256 l  949 -256 l  955 -236 l  955 -233 l  954 -226 l  942 -172 l 
923 -105 l  916 -122 l  914 -128 l  921 -152 l  922 -152 l  934 -196 l 
939 -219 l  937 -219 l  895 -199 l  895 -57 l  898 -47 l  903 -44 l  932 -44 l 
945 -47 l  946 -51 l  951 -51 l  952 -47 l  952 -14 l  951 -10 l  937 -7 l 
905 -7 l  896 -10 l  892 -14 l  890 -17 l  886 -30 l  885 -37 l  884 -47 l 
884 -192 l  877 -192 l  861 -182 l  856 -182 l  855 -186 l  855 -213 l 
857 -219 l  881 -229 l  884 -331 l  p ef
1289 -307 m  1290 -307 l  1305 -277 l  1318 -243 l  1318 -240 l  1314 -223 l 
1310 -209 l  1307 -216 l  1302 -233 l  1292 -256 l  1283 -273 l  1282 -277 l 
1282 -280 l  1285 -294 l  p
1365 -263 m  1370 -250 l  1374 -236 l  1374 -233 l  1369 -199 l  1354 -128 l 
1345 -98 l  1327 -54 l  1308 -24 l  1291 -7 l  1290 -7 l  1288 -14 l  1288 -17 l 
1287 -24 l  1285 -34 l  1283 -41 l  1285 -47 l  1289 -47 l  1294 -51 l 
1306 -64 l  1321 -88 l  1323 -94 l  1329 -108 l  1330 -108 l  1334 -118 l 
1349 -169 l  1361 -229 l  1365 -256 l  1364 -260 l  p ef
1741 -341 m  1743 -341 l  1744 -337 l  1748 -334 l  1750 -334 l  1751 -331 l 
1748 -300 l  1747 -294 l  1746 -290 l  1784 -290 l  1789 -277 l  1791 -270 l 
1791 -267 l  1785 -199 l  1777 -142 l  1775 -132 l  1773 -125 l  1771 -115 l 
1771 -111 l  1765 -84 l  1751 -37 l  1734 3 l  1723 20 l  1723 20 l  1718 3 l 
1718 0 l  1716 -3 l  1716 -3 l  1714 -7 l  1716 -10 l  1716 -10 l  1731 -34 l 
1744 -64 l  1756 -105 l  1756 -111 l  1753 -125 l  1740 -169 l  1734 -186 l 
1731 -192 l  1730 -192 l  1727 -182 l  1727 -179 l  1714 -138 l  1709 -125 l 
1703 -145 l  1702 -152 l  1706 -165 l  1707 -165 l  1720 -206 l  1729 -250 l 
1735 -290 l  1739 -327 l  1739 -334 l  p
1741 -253 m  1741 -250 l  1740 -243 l  1738 -236 l  1736 -223 l  1745 -196 l 
1763 -138 l  1765 -145 l  1774 -206 l  1778 -246 l  1778 -256 l  1742 -256 l 
p ef
2127 -186 m  2231 -186 l  2232 -182 l  2232 -152 l  2231 -148 l  2127 -148 l 
2126 -152 l  2126 -182 l  p ef
pom

0 lw 0.000 c 10500 14000 m  9000 14000 l  9000 13000 l  12000 13000 l  12000 14000 l 
10500 14000 l  pc
pum
9342 13646 t
0.234 c 1961 83 m  1977 79 l  1971 76 1967 72 1965 67 ct 1963 62 1962 57 1962 50 ct 
1962 37 1965 28 1973 22 ct 1981 15 1991 12 2004 12 ct 2013 12 2021 15 2028 19 ct 
2028 40 l  2021 35 2013 33 2004 33 ct 1995 33 1989 34 1987 37 ct 1983 41 1981 45 1981 49 ct 
1981 59 1987 66 2000 70 ct 2005 72 2016 70 2032 66 ct 2032 87 l  1961 103 l 
1961 83 l  p ef
21 -273 m  85 -273 l  86 -270 l  86 -233 l  84 -189 l  81 -78 l  80 -74 l 
80 -71 l  110 -71 l  111 -67 l  111 -41 l  110 -37 l  8 -37 l  7 -41 l 
7 -67 l  8 -71 l  69 -71 l  70 -91 l  74 -219 l  74 -240 l  21 -240 l 
20 -243 l  20 -270 l  p ef
399 -186 m  503 -186 l  504 -182 l  504 -152 l  503 -148 l  399 -148 l 
398 -152 l  398 -182 l  p ef
830 -341 m  839 -341 l  840 -337 l  840 -253 l  881 -253 l  882 -250 l 
882 -152 l  879 -54 l  877 -27 l  876 -20 l  874 -10 l  872 -3 l  869 3 l 
866 7 l  856 7 l  840 -10 l  839 -14 l  839 -47 l  838 -51 l  839 -54 l 
840 -51 l  842 -47 l  856 -34 l  862 -34 l  864 -37 l  866 -44 l  867 -51 l 
870 -132 l  871 -219 l  839 -219 l  836 -159 l  834 -135 l  825 -71 l 
822 -57 l  809 -14 l  808 -14 l  805 -7 l  803 0 l  800 7 l  798 10 l 
797 7 l  797 3 l  792 -14 l  791 -14 l  790 -17 l  793 -27 l  797 -34 l 
806 -54 l  812 -74 l  812 -78 l  816 -94 l  818 -101 l  824 -148 l  828 -196 l 
828 -216 l  794 -216 l  793 -219 l  793 -246 l  794 -250 l  829 -250 l 
829 -337 l  p ef
1240 -334 m  1250 -334 l  1251 -331 l  1251 -155 l  1247 -98 l  1246 -88 l 
1241 -51 l  1237 -34 l  1231 -14 l  1222 7 l  1213 24 l  1212 24 l  1211 20 l 
1211 17 l  1204 -7 l  1205 -10 l  1211 -20 l  1212 -20 l  1216 -27 l  1219 -34 l 
1231 -71 l  1234 -94 l  1239 -155 l  1239 -331 l  p
1191 -327 m  1201 -327 l  1202 -324 l  1202 -132 l  1201 -128 l  1191 -128 l 
1190 -132 l  1190 -324 l  p ef
1671 -368 m  1674 -361 l  1687 -314 l  1686 -310 l  1685 -310 l  1681 -300 l 
1679 -294 l  1677 -300 l  1674 -314 l  1674 -317 l  1666 -344 l  1665 -344 l 
1664 -347 l  1666 -354 l  p
1610 -337 m  1614 -337 l  1619 -334 l  1620 -331 l  1620 -317 l  1615 -253 l 
1615 -250 l  1628 -250 l  1631 -246 l  1635 -240 l  1640 -223 l  1644 -186 l 
1644 -122 l  1643 -94 l  1641 -64 l  1639 -44 l  1636 -24 l  1634 -14 l 
1632 -7 l  1629 0 l  1626 3 l  1618 3 l  1605 -14 l  1603 -17 l  1603 -51 l 
1603 -54 l  1603 -57 l  1606 -54 l  1609 -47 l  1617 -34 l  1623 -34 l 
1625 -37 l  1626 -41 l  1630 -67 l  1633 -122 l  1633 -182 l  1630 -206 l 
1628 -213 l  1625 -216 l  1612 -216 l  1606 -162 l  1589 -27 l  1585 -3 l 
1583 3 l  1577 -10 l  1574 -20 l  1576 -27 l  1578 -37 l  1591 -128 l 
1600 -206 l  1600 -209 l  1594 -209 l  1587 -202 l  1576 -196 l  1575 -199 l 
1576 -202 l  1575 -216 l  1574 -219 l  1574 -229 l  1575 -233 l  1601 -243 l 
1603 -246 l  1609 -321 l  1609 -334 l  p
1660 -334 m  1661 -334 l  1664 -327 l  1673 -294 l  1675 -283 l  1675 -280 l 
1673 -273 l  1669 -263 l  1667 -260 l  1666 -263 l  1666 -270 l  1664 -280 l 
1654 -317 l  1657 -327 l  p
1651 -287 m  1658 -263 l  1658 -260 l  1662 -243 l  1666 -229 l  1679 -159 l 
1680 -152 l  1680 -148 l  1676 -135 l  1673 -128 l  1671 -125 l  1669 -132 l 
1668 -142 l  1661 -189 l  1648 -250 l  1645 -260 l  1644 -260 l  1643 -263 l 
1647 -277 l  p ef
2054 -327 m  2060 -307 l  2059 -304 l  2008 -280 l  1996 -277 l  1994 -273 l 
1994 -202 l  2067 -202 l  2068 -199 l  2068 -175 l  2067 -172 l  2043 -172 l 
2043 -27 l  2077 -27 l  2078 -24 l  2078 0 l  2077 3 l  1961 3 l  1960 0 l 
1960 -24 l  1961 -27 l  1983 -27 l  1983 -300 l  1983 -304 l  1989 -307 l 
2031 -324 l  p
1994 -172 m  2032 -172 l  2032 -27 l  1994 -27 l  p ef
pom


pum
9441 7277 t
263 -309 m  264 -309 l  347 -306 407 -294 442 -273 ct 479 -250 498 -227 498 -204 ct 
493 -183 483 -172 469 -172 ct 468 -172 468 -172 467 -172 ct 383 -201 l  374 -204 370 -208 370 -214 ct 
370 -217 371 -220 373 -223 ct 382 -233 387 -240 387 -245 ct 387 -248 384 -250 380 -250 ct 
147 -250 l  143 -250 140 -248 140 -245 ct 140 -240 145 -233 155 -223 ct 156 -220 157 -217 157 -214 ct 
157 -208 153 -204 144 -201 ct 60 -172 l  59 -172 58 -172 58 -172 ct 44 -172 34 -183 29 -204 ct 
29 -227 48 -250 85 -273 ct 120 -294 179 -306 263 -309 ct p
312 -223 m  312 -239 l  342 -239 l  342 -207 l  342 -197 359 -188 392 -180 ct 
424 -167 439 -141 439 -101 ct 439 0 l  87 0 l  87 -101 l  87 -141 103 -167 135 -180 ct 
168 -188 185 -197 185 -207 ct 185 -239 l  215 -239 l  215 -223 l  312 -223 l 
p
179 -110 m  179 -87 187 -68 204 -51 ct 220 -35 239 -27 262 -27 ct 285 -27 305 -35 321 -51 ct 
337 -68 345 -87 345 -110 ct 345 -133 337 -152 321 -169 ct 305 -185 285 -193 262 -193 ct 
239 -193 220 -185 204 -169 ct 187 -152 179 -133 179 -110 ct p
309 -110 m  309 -97 304 -87 295 -77 ct 286 -68 275 -64 262 -64 ct 250 -64 239 -68 230 -77 ct 
221 -87 216 -97 216 -110 ct 216 -123 221 -134 230 -143 ct 239 -152 250 -157 262 -157 ct 
275 -157 286 -152 295 -143 ct 304 -134 309 -123 309 -110 ct p
276 -176 m  276 -173 275 -170 273 -168 ct 270 -165 268 -164 264 -164 ct 261 -164 258 -165 256 -168 ct 
254 -170 253 -173 253 -176 ct 253 -179 254 -182 256 -184 ct 258 -187 261 -188 264 -188 ct 
268 -188 270 -187 273 -184 ct 275 -182 276 -179 276 -176 ct p
276 -46 m  276 -43 275 -40 273 -37 ct 270 -35 268 -34 264 -34 ct 261 -34 258 -35 256 -37 ct 
254 -40 253 -43 253 -46 ct 253 -49 254 -52 256 -54 ct 258 -56 261 -58 264 -58 ct 
268 -58 270 -56 273 -54 ct 275 -52 276 -49 276 -46 ct p
230 -175 m  232 -174 234 -173 235 -170 ct 237 -168 238 -165 238 -162 ct 237 -159 236 -156 233 -154 ct 
230 -152 227 -151 224 -152 ct 221 -152 219 -154 217 -157 ct 215 -159 214 -162 215 -165 ct 
215 -168 217 -171 219 -173 ct 221 -174 224 -175 226 -175 ct 227 -175 228 -175 230 -175 ct 
p
312 -65 m  314 -63 315 -60 314 -57 ct 314 -53 312 -51 309 -49 ct 307 -47 305 -47 303 -47 ct 
302 -47 301 -47 299 -47 ct 297 -47 295 -49 293 -52 ct 291 -54 291 -57 291 -60 ct 
292 -63 293 -66 296 -68 ct 298 -70 301 -70 304 -70 ct 308 -69 310 -68 312 -65 ct 
p
206 -142 m  209 -141 212 -139 213 -136 ct 214 -133 215 -130 214 -127 ct 213 -124 211 -122 208 -121 ct 
205 -119 202 -119 199 -120 ct 196 -121 194 -122 193 -125 ct 191 -127 191 -129 191 -131 ct 
191 -132 191 -133 191 -135 ct 192 -138 194 -140 197 -141 ct 200 -143 203 -143 206 -142 ct 
p
321 -101 m  324 -103 327 -103 330 -102 ct 333 -101 335 -99 336 -97 ct 337 -95 338 -92 338 -91 ct 
338 -90 338 -88 337 -87 ct 336 -84 334 -82 331 -80 ct 329 -79 326 -79 323 -80 ct 
320 -81 317 -83 316 -86 ct 314 -88 314 -91 315 -95 ct 316 -98 318 -100 321 -101 ct 
p
193 -97 m  194 -99 196 -101 199 -102 ct 202 -103 205 -103 208 -101 ct 211 -100 213 -98 214 -95 ct 
215 -91 214 -88 213 -85 ct 212 -83 209 -81 206 -80 ct 203 -79 200 -79 197 -80 ct 
194 -82 192 -84 191 -87 ct 191 -88 191 -90 191 -91 ct 191 -92 191 -95 193 -97 ct 
p
323 -142 m  326 -143 329 -143 331 -141 ct 334 -140 336 -138 337 -135 ct 338 -133 338 -132 338 -131 ct 
338 -129 337 -127 336 -125 ct 335 -123 333 -121 330 -120 ct 327 -119 324 -119 321 -121 ct 
318 -122 316 -124 315 -127 ct 314 -130 314 -133 316 -136 ct 317 -139 320 -141 323 -142 ct 
p
217 -65 m  218 -68 221 -69 224 -70 ct 227 -70 230 -70 233 -68 ct 235 -66 237 -63 238 -60 ct 
238 -57 237 -54 235 -52 ct 234 -49 232 -47 230 -47 ct 228 -47 227 -47 226 -47 ct 
224 -47 221 -47 219 -49 ct 217 -51 215 -53 215 -55 ct 214 -57 214 -58 214 -59 ct 
214 -61 215 -63 217 -65 ct p
293 -170 m  295 -173 297 -174 299 -175 ct 301 -175 302 -175 303 -175 ct 305 -175 307 -174 309 -173 ct 
312 -171 314 -169 314 -167 ct 314 -165 314 -164 314 -164 ct 314 -161 314 -159 312 -157 ct 
310 -154 308 -153 306 -152 ct 305 -152 303 -152 303 -152 ct 300 -152 298 -153 296 -154 ct 
293 -156 292 -158 291 -160 ct 291 -162 291 -163 291 -164 ct 291 -166 292 -168 293 -170 ct 
p ef
655 -27 m  672 -27 686 -33 698 -44 ct 710 -55 716 -71 716 -92 ct 716 -115 709 -132 695 -142 ct 
681 -152 668 -157 655 -157 ct 637 -157 622 -152 610 -140 ct 598 -128 592 -112 592 -92 ct 
592 -70 599 -53 613 -43 ct 627 -32 641 -27 655 -27 ct p
592 -308 m  592 -175 l  609 -185 630 -190 655 -190 ct 687 -190 713 -182 732 -166 ct 
750 -149 760 -125 760 -92 ct 760 -58 750 -33 730 -17 ct 710 -2 685 6 655 6 ct 622 6 597 -2 578 -19 ct 
559 -35 550 -60 550 -92 ct 550 -269 l  479 -161 l  448 -182 l  532 -308 l 
592 -308 l  p ef
933 -231 m  915 -231 l  855 -308 l  897 -308 l  933 -231 l  p
995 -231 m  977 -231 l  917 -308 l  959 -308 l  995 -231 l  p ef
1502 -27 m  1519 -27 1533 -33 1545 -44 ct 1557 -55 1563 -71 1563 -92 ct 1563 -115 1556 -132 1542 -142 ct 
1528 -152 1515 -157 1502 -157 ct 1484 -157 1469 -152 1457 -140 ct 1445 -128 1439 -112 1439 -92 ct 
1439 -70 1446 -53 1460 -43 ct 1474 -32 1488 -27 1502 -27 ct p
1439 -308 m  1439 -175 l  1456 -185 1477 -190 1502 -190 ct 1534 -190 1560 -182 1579 -166 ct 
1597 -149 1607 -125 1607 -92 ct 1607 -58 1597 -33 1577 -17 ct 1557 -2 1532 6 1502 6 ct 
1469 6 1444 -2 1425 -19 ct 1406 -35 1397 -60 1397 -92 ct 1397 -269 l  1326 -161 l 
1295 -182 l  1379 -308 l  1439 -308 l  p ef
2053 -205 m  2041 -206 l  2038 -206 2034 -207 2029 -207 ct 2024 -207 2020 -205 2016 -201 ct 
2007 -194 1998 -179 1990 -157 ct 1931 0 l  1880 0 l  1880 88 l  1842 88 l 
1842 0 l  1790 0 l  1703 -231 l  1744 -231 l  1816 -37 l  1842 -37 l  1842 -324 l 
1880 -324 l  1880 -37 l  1905 -37 l  1953 -166 l  1964 -195 1977 -215 1991 -226 ct 
2000 -233 2013 -237 2031 -237 ct 2038 -237 2046 -236 2053 -234 ct 2053 -205 l 
p ef
pom
pum
9441 7773 t
118 -308 m  160 -308 l  160 -182 l  312 -182 l  312 -308 l  353 -308 l 
353 0 l  312 0 l  312 -147 l  160 -147 l  160 0 l  118 0 l  118 -308 l 
p
69 -357 m  57 -364 l  54 -365 51 -367 49 -367 ct 47 -368 45 -369 43 -369 ct 
38 -369 34 -367 31 -364 ct 29 -360 27 -355 27 -349 ct 27 -348 l  1 -348 l  1 -362 5 -373 12 -381 ct 
19 -389 29 -393 40 -393 ct 45 -393 50 -392 54 -391 ct 58 -390 64 -388 70 -384 ct 
82 -378 l  85 -376 88 -375 90 -374 ct 93 -373 95 -373 97 -373 ct 101 -373 105 -375 108 -378 ct 
111 -382 112 -386 112 -392 ct 112 -393 l  138 -393 l  137 -379 134 -368 127 -360 ct 
120 -352 110 -348 99 -348 ct 94 -348 90 -349 86 -350 ct 82 -351 76 -353 69 -357 ct 
p
94 -307 m  94 -270 78 -252 44 -252 ct 44 -273 l  63 -273 72 -284 72 -305 ct 
45 -305 l  45 -338 l  94 -338 l  94 -307 l  p
262 88 m  232 88 l  228 88 225 86 221 81 ct 218 78 217 73 217 66 ct 217 19 l 
248 19 l  248 66 l  248 68 248 70 250 72 ct 251 73 253 74 255 74 ct 262 74 l 
262 88 l  p ef
794 -174 m  836 -174 l  836 -132 l  794 -132 l  794 -174 l  p
664 -149 m  642 -149 627 -143 617 -132 ct 608 -121 603 -107 603 -92 ct 603 -69 610 -52 623 -42 ct 
637 -32 651 -27 664 -27 ct 677 -27 690 -32 704 -42 ct 718 -52 725 -69 725 -92 ct 
725 -110 719 -124 709 -134 ct 698 -144 683 -149 664 -149 ct p
664 -184 m  698 -184 724 -177 742 -161 ct 760 -146 769 -123 769 -92 ct 769 -60 759 -35 741 -19 ct 
722 -2 696 6 664 6 ct 631 6 606 -2 587 -19 ct 568 -35 559 -60 559 -92 ct 559 -116 564 -135 574 -149 ct 
448 -149 l  448 -184 l  664 -184 l  p ef
24 -361 m  32 -361 l  33 -358 l  33 -273 l  44 -273 l  45 -270 l  45 -246 l 
44 -243 l  33 -243 l  33 -169 l  35 -169 l  44 -179 l  45 -182 l  46 -179 l 
46 -155 l  45 -152 l  35 -138 l  34 -138 l  33 -135 l  33 10 l  32 17 l 
29 27 l  27 30 l  12 30 l  10 27 l  9 24 l  8 10 l  8 -3 l  9 -7 l  11 -7 l 
12 -3 l  21 -3 l  23 -10 l  23 -125 l  22 -125 l  21 -122 l  8 -108 l 
7 -111 l  7 -115 l  6 -125 l  5 -132 l  4 -135 l  4 -138 l  5 -142 l  7 -142 l 
22 -155 l  23 -159 l  23 -243 l  7 -243 l  6 -246 l  6 -270 l  7 -273 l 
23 -273 l  23 -358 l  p
48 -334 m  117 -334 l  118 -331 l  118 -263 l  117 -260 l  109 -260 l 
108 -263 l  108 -304 l  96 -304 l  96 -226 l  97 -223 l  107 -223 l  109 -226 l 
110 -229 l  111 -246 l  111 -253 l  112 -256 l  113 -256 l  114 -253 l 
117 -250 l  119 -250 l  120 -246 l  120 -219 l  119 -206 l  116 -196 l 
114 -192 l  109 -189 l  94 -189 l  90 -192 l  87 -202 l  86 -209 l  86 -304 l 
57 -304 l  57 -253 l  56 -250 l  48 -250 l  47 -253 l  47 -331 l  p
69 -300 m  71 -300 l  76 -297 l  77 -294 l  77 -273 l  71 -223 l  69 -213 l 
62 -189 l  56 -175 l  54 -172 l  51 -182 l  48 -196 l  50 -202 l  51 -202 l 
58 -219 l  60 -226 l  63 -240 l  66 -260 l  68 -280 l  68 -297 l  p
78 -196 m  86 -196 l  87 -192 l  87 -152 l  120 -152 l  121 -148 l  121 -125 l 
120 -122 l  89 -122 l  92 -111 l  96 -94 l  96 -91 l  103 -67 l  117 -34 l 
121 -27 l  122 -27 l  123 -24 l  123 -20 l  119 -3 l  116 7 l  114 3 l 
112 -3 l  108 -14 l  107 -14 l  101 -30 l  95 -51 l  90 -71 l  88 -81 l 
88 -84 l  87 -88 l  87 27 l  86 30 l  78 30 l  77 27 l  77 -81 l  75 -74 l 
74 -67 l  74 -64 l  71 -51 l  58 -7 l  57 -7 l  53 3 l  51 10 l  49 14 l 
48 10 l  46 0 l  43 -14 l  45 -20 l  46 -20 l  48 -24 l  59 -51 l  65 -71 l 
71 -98 l  71 -101 l  72 -108 l  74 -115 l  75 -122 l  47 -122 l  46 -125 l 
46 -148 l  47 -152 l  77 -152 l  77 -192 l  p ef
484 -361 m  492 -361 l  493 -358 l  493 -314 l  538 -314 l  539 -310 l 
539 -287 l  538 -283 l  493 -283 l  493 -246 l  541 -246 l  542 -243 l 
542 -175 l  541 -172 l  533 -172 l  532 -175 l  532 -216 l  488 -216 l 
490 -209 l  491 -209 l  492 -206 l  475 -148 l  475 -145 l  476 -142 l 
477 -142 l  483 -122 l  484 -122 l  490 -138 l  510 -206 l  512 -202 l 
515 -196 l  518 -186 l  517 -182 l  516 -182 l  501 -132 l  495 -115 l 
494 -115 l  493 -111 l  524 -115 l  515 -145 l  518 -155 l  521 -162 l 
523 -159 l  535 -125 l  546 -88 l  545 -84 l  544 -84 l  539 -67 l  538 -67 l 
531 -91 l  494 -84 l  494 27 l  493 30 l  484 30 l  483 27 l  483 -81 l 
460 -81 l  460 -78 l  435 -78 l  433 -84 l  431 -105 l  432 -108 l  473 -111 l 
463 -142 l  450 -169 l  449 -172 l  453 -186 l  457 -192 l  458 -192 l 
460 -189 l  464 -179 l  468 -165 l  481 -209 l  482 -216 l  444 -216 l 
444 -175 l  443 -172 l  435 -172 l  434 -175 l  434 -243 l  435 -246 l 
483 -246 l  483 -283 l  438 -283 l  437 -287 l  437 -310 l  438 -314 l 
483 -314 l  483 -358 l  p
512 -74 m  513 -74 l  539 -20 l  543 -7 l  535 20 l  529 3 l  525 -10 l 
521 -20 l  520 -20 l  517 -27 l  515 -34 l  512 -41 l  508 -47 l  505 -51 l 
504 -54 l  506 -61 l  510 -71 l  p
465 -71 m  473 -57 l  474 -54 l  464 -20 l  449 14 l  448 14 l  444 20 l 
443 24 l  442 24 l  437 7 l  436 7 l  434 0 l  435 -3 l  436 -3 l  444 -17 l 
446 -24 l  448 -27 l  449 -27 l  457 -44 l  p ef
915 -334 m  925 -334 l  926 -331 l  926 -155 l  922 -98 l  921 -88 l  916 -51 l 
912 -34 l  906 -14 l  898 7 l  889 24 l  888 24 l  887 20 l  887 17 l 
880 -7 l  881 -10 l  887 -20 l  888 -20 l  892 -27 l  895 -34 l  906 -71 l 
909 -94 l  914 -155 l  914 -331 l  p
867 -327 m  877 -327 l  878 -324 l  878 -132 l  877 -128 l  867 -128 l 
866 -132 l  866 -324 l  p ef
1341 -307 m  1354 -307 l  1362 -283 l  1362 -277 l  1361 -267 l  1353 -209 l 
1341 -148 l  1344 -138 l  1345 -138 l  1359 -101 l  1382 -34 l  1382 -30 l 
1373 0 l  1372 -3 l  1372 -7 l  1350 -78 l  1337 -115 l  1335 -118 l  1334 -118 l 
1332 -111 l  1332 -108 l  1321 -71 l  1307 -34 l  1306 -34 l  1303 -27 l 
1301 -20 l  1298 -14 l  1288 3 l  1287 0 l  1287 -3 l  1280 -27 l  1282 -34 l 
1283 -34 l  1297 -57 l  1315 -101 l  1326 -138 l  1326 -142 l  1330 -159 l 
1333 -169 l  1337 -189 l  1346 -250 l  1347 -260 l  1348 -267 l  1349 -270 l 
1312 -270 l  1311 -267 l  1293 -267 l  1292 -270 l  1292 -294 l  1291 -297 l 
1291 -300 l  1292 -304 l  1340 -304 l  p ef
1721 -341 m  1730 -341 l  1731 -337 l  1731 -219 l  1732 -216 l  1736 -209 l 
1739 -206 l  1759 -172 l  1777 -135 l  1779 -128 l  1779 -125 l  1773 -94 l 
1772 -91 l  1769 -98 l  1766 -108 l  1743 -159 l  1732 -179 l  1731 -179 l 
1731 10 l  1730 14 l  1721 14 l  1720 10 l  1720 -337 l  p ef
pom
101 lw 0.000 c 4312 16719 m  8599 12861 l  ps
4000 17000 m  4507 16779 l  4273 16519 l  4000 17000 l  p ef
9000 12500 m  8348 12784 l  8649 13119 l  9000 12500 l  p ef
4269 6823 m  4395 6974 l  ps
4476 7072 m  4602 7223 l  ps
4684 7320 m  4810 7472 l  ps
4891 7569 m  5017 7721 l  ps
5099 7818 m  5225 7970 l  ps
5306 8067 m  5432 8219 l  ps
5513 8316 m  5640 8467 l  ps
5721 8565 m  5847 8716 l  ps
5928 8814 m  6054 8965 l  ps
6136 9063 m  6262 9214 l  ps
6343 9312 m  6469 9463 l  ps
6550 9561 m  6677 9712 l  ps
6758 9809 m  6884 9961 l  ps
6965 10058 m  7091 10210 l  ps
7173 10307 m  7299 10459 l  ps
7380 10556 m  7506 10708 l  ps
7588 10805 m  7714 10956 l  ps
7795 11054 m  7921 11205 l  ps
8002 11303 m  8129 11454 l  ps
8210 11552 m  8336 11703 l  ps
8417 11801 m  8543 11952 l  ps
8625 12050 m  8654 12085 l  ps
4000 6500 m  4202 7015 l  4471 6791 l  4000 6500 l  p ef
9000 12500 m  8741 11837 l  8395 12125 l  9000 12500 l  p ef
gr
gs
0 0 m 27699 0 l 27699 18999 l 0 18999 l 0 0 l eoclip newpath
gr
gr
0 19000 t 
pom
count op_count sub {pop} repeat countdictstack dict_count sub {end} repeat b4_inc_state restore
%%PageTrailer
%%Trailer
%%EOF
